<svg   viewBox="0 0 41 41"  xmlns="http://www.w3.org/2000/svg">
<g >
<path d="M40.3694 34.4128H31.0045C30.6588 34.4128 30.3795 34.1336 30.3795 33.7878C30.3795 33.4424 30.6588 33.1628 31.0045 33.1628H39.7444V6.91284H31.0045C30.6588 6.91284 30.3795 6.63361 30.3795 6.28784C30.3795 5.94238 30.6588 5.66284 31.0045 5.66284H40.3694C40.7152 5.66284 40.9944 5.94238 40.9944 6.28784V33.7878C40.9944 34.1336 40.7152 34.4128 40.3694 34.4128Z" />
<path d="M21.6194 34.4128H1.61945C1.27368 34.4128 0.994446 34.1336 0.994446 33.7878V6.28784C0.994446 5.94238 1.27368 5.66284 1.61945 5.66284H21.6194C21.9652 5.66284 22.2444 5.94238 22.2444 6.28784C22.2444 6.63361 21.9652 6.91284 21.6194 6.91284H2.24445V33.1628H21.6194C21.9652 33.1628 22.2444 33.4424 22.2444 33.7878C22.2444 34.1336 21.9652 34.4128 21.6194 34.4128Z" />
<path d="M21.6188 31.9092H4.11945C3.77368 31.9092 3.49445 31.6299 3.49445 31.2842V8.78418C3.49445 8.43872 3.77368 8.15918 4.11945 8.15918H21.6188C21.9643 8.15918 22.2438 8.43872 22.2438 8.78418C22.2438 9.12994 21.9643 9.40918 21.6188 9.40918H4.74445V30.6592H21.6188C21.9643 30.6592 22.2438 30.9387 22.2438 31.2842C22.2438 31.6299 21.9643 31.9092 21.6188 31.9092Z" />
<path d="M24.1194 36.9092C23.9931 36.9092 23.8677 36.8705 23.7612 36.796C23.5939 36.6791 23.4944 36.4881 23.4944 36.2842V3.78424C23.4944 3.58039 23.5939 3.38935 23.7612 3.27246C23.9281 3.15558 24.1414 3.12689 24.3331 3.19739L38.0831 8.19739C38.33 8.28681 38.4944 8.52118 38.4944 8.78424V31.2842C38.4944 31.5473 38.33 31.7817 38.0831 31.8711L24.3331 36.8711C24.2632 36.8973 24.1915 36.9092 24.1194 36.9092ZM24.7444 4.67688V35.3925L37.2444 30.8475V9.22248L24.7444 4.67688Z" />
<path d="M40.3582 13.1592H37.8582C37.5127 13.1592 37.2332 12.8799 37.2332 12.5342C37.2332 12.1887 37.5127 11.9092 37.8582 11.9092H40.3582C40.7039 11.9092 40.9832 12.1887 40.9832 12.5342C40.9832 12.8799 40.7039 13.1592 40.3582 13.1592Z" />
<path d="M40.3582 15.6592H37.8582C37.5127 15.6592 37.2332 15.3799 37.2332 15.0342C37.2332 14.6887 37.5127 14.4092 37.8582 14.4092H40.3582C40.7039 14.4092 40.9832 14.6887 40.9832 15.0342C40.9832 15.3799 40.7039 15.6592 40.3582 15.6592Z" />
<path d="M40.3582 25.6592H37.8582C37.5127 25.6592 37.2332 25.3799 37.2332 25.0342C37.2332 24.6887 37.5127 24.4092 37.8582 24.4092H40.3582C40.7039 24.4092 40.9832 24.6887 40.9832 25.0342C40.9832 25.3799 40.7039 25.6592 40.3582 25.6592Z" />
<path d="M40.3582 28.1592H37.8582C37.5127 28.1592 37.2332 27.8799 37.2332 27.5342C37.2332 27.1887 37.5127 26.9092 37.8582 26.9092H40.3582C40.7039 26.9092 40.9832 27.1887 40.9832 27.5342C40.9832 27.8799 40.7039 28.1592 40.3582 28.1592Z" />
<path d="M4.11395 36.9128C3.76819 36.9128 3.48895 36.6336 3.48895 36.2878V33.7878C3.48895 33.4424 3.76819 33.1628 4.11395 33.1628C4.45941 33.1628 4.73895 33.4424 4.73895 33.7878V36.2878C4.73895 36.6336 4.45941 36.9128 4.11395 36.9128Z" />
<path d="M10.364 36.9128H4.11395C3.76819 36.9128 3.48895 36.6336 3.48895 36.2878C3.48895 35.9424 3.76819 35.6628 4.11395 35.6628H10.364C10.7094 35.6628 10.989 35.9424 10.989 36.2878C10.989 36.6336 10.7094 36.9128 10.364 36.9128Z" />
<path d="M10.364 36.9128C10.0182 36.9128 9.73895 36.6336 9.73895 36.2878V33.7878C9.73895 33.4424 10.0182 33.1628 10.364 33.1628C10.7094 33.1628 10.989 33.4424 10.989 33.7878V36.2878C10.989 36.6336 10.7094 36.9128 10.364 36.9128Z" />
<path d="M31.6194 36.9128C31.2737 36.9128 30.9944 36.6336 30.9944 36.2878V33.7878C30.9944 33.4424 31.2737 33.1628 31.6194 33.1628C31.9652 33.1628 32.2444 33.4424 32.2444 33.7878V36.2878C32.2444 36.6336 31.9652 36.9128 31.6194 36.9128Z" />
<path d="M37.8694 36.9128H31.6194C31.2737 36.9128 30.9944 36.6336 30.9944 36.2878C30.9944 35.9424 31.2737 35.6628 31.6194 35.6628H37.8694C38.2152 35.6628 38.4944 35.9424 38.4944 36.2878C38.4944 36.6336 38.2152 36.9128 37.8694 36.9128Z" />
<path d="M37.8694 36.9128C37.5237 36.9128 37.2444 36.6336 37.2444 36.2878V33.7878C37.2444 33.4424 37.5237 33.1628 37.8694 33.1628C38.2152 33.1628 38.4944 33.4424 38.4944 33.7878V36.2878C38.4944 36.6336 38.2152 36.9128 37.8694 36.9128Z" />
<path d="M24.1194 36.9092H21.6188C21.2731 36.9092 20.9938 36.6299 20.9938 36.2842V3.78418C20.9938 3.43872 21.2731 3.15918 21.6188 3.15918H24.1194C24.4652 3.15918 24.7444 3.43872 24.7444 3.78418V36.2842C24.7444 36.6299 24.4652 36.9092 24.1194 36.9092ZM22.2438 35.6592H23.4944V4.40918H22.2438V35.6592Z" />
<path d="M22.8881 15.6628C22.5426 15.6628 22.26 15.3836 22.26 15.0378C22.26 14.6924 22.5362 14.4128 22.8813 14.4128H22.8881C23.2332 14.4128 23.5131 14.6924 23.5131 15.0378C23.5131 15.3836 23.2332 15.6628 22.8881 15.6628Z" />
<path d="M22.8881 20.6628C22.5426 20.6628 22.26 20.3836 22.26 20.0378C22.26 19.6924 22.5362 19.4128 22.8813 19.4128H22.8881C23.2332 19.4128 23.5131 19.6924 23.5131 20.0378C23.5131 20.3836 23.2332 20.6628 22.8881 20.6628Z" />
<path d="M22.8881 25.6628C22.5426 25.6628 22.26 25.3836 22.26 25.0378C22.26 24.6924 22.5362 24.4128 22.8813 24.4128H22.8881C23.2332 24.4128 23.5131 24.6924 23.5131 25.0378C23.5131 25.3836 23.2332 25.6628 22.8881 25.6628Z" />
<path d="M34.7451 20.0378C34.7002 20.0378 34.6544 20.0329 34.6089 20.0234L28.9839 18.7734C28.647 18.6987 28.4343 18.3648 28.5088 18.0279C28.5839 17.691 28.9196 17.4828 29.2543 17.553L34.8793 18.803C35.2162 18.8778 35.429 19.2117 35.3545 19.5486C35.2901 19.8397 35.0313 20.0378 34.7451 20.0378Z" />
<path d="M29.1188 22.5378C28.8326 22.5378 28.5738 22.3397 28.5088 22.0486C28.4343 21.7117 28.647 21.3778 28.9839 21.303L34.6089 20.053C34.9449 19.9816 35.2794 20.191 35.3545 20.5279C35.429 20.8648 35.2162 21.1987 34.8793 21.2734L29.2543 22.5234C29.2095 22.5329 29.1637 22.5378 29.1188 22.5378Z" />
<path d="M29.1194 22.5378C28.1975 22.5378 27.8694 21.2466 27.8694 20.0378C27.8694 18.8293 28.1975 17.5378 29.1194 17.5378C29.4652 17.5378 29.7444 17.8174 29.7444 18.1628C29.7444 18.4329 29.5739 18.663 29.3337 18.7497C29.2446 18.9224 29.1194 19.3872 29.1194 20.0378C29.1194 20.6885 29.2446 21.1536 29.3337 21.326C29.5739 21.413 29.7444 21.6431 29.7444 21.9128C29.7444 22.2586 29.4652 22.5378 29.1194 22.5378Z" />
<path d="M34.7444 21.2878C34.3987 21.2878 34.1194 21.0086 34.1194 20.6628V19.4128C34.1194 19.0674 34.3987 18.7878 34.7444 18.7878C35.0902 18.7878 35.3694 19.0674 35.3694 19.4128V20.6628C35.3694 21.0086 35.0902 21.2878 34.7444 21.2878Z" />
<path d="M28.8069 24.4128C27.2301 24.4128 25.9944 22.4911 25.9944 20.0378C25.9944 17.5848 27.2301 15.6628 28.8069 15.6628C29.9718 15.6628 30.9969 16.731 31.4183 18.3835C31.5038 18.718 31.3015 19.0585 30.967 19.1437C30.6331 19.2285 30.2925 19.0268 30.2071 18.6923C29.9395 17.645 29.3639 16.9128 28.8069 16.9128C28.0675 16.9128 27.2444 18.1967 27.2444 20.0378C27.2444 21.8793 28.0675 23.1628 28.8069 23.1628C29.3651 23.1628 29.9401 22.431 30.2071 21.3831C30.2919 21.048 30.6343 20.8435 30.9664 20.9311C31.3008 21.0162 31.5032 21.3562 31.4183 21.6904C30.9981 23.3441 29.9733 24.4128 28.8069 24.4128Z" />
<path d="M12.8795 25.0372C12.5338 25.0372 12.2545 24.7579 12.2545 24.4122C12.2545 22.7398 13.5701 21.451 14.7313 20.3137C15.7076 19.3578 16.6295 18.4542 16.6295 17.5466C16.6295 15.4785 14.9477 13.7966 12.8795 13.7966C10.8113 13.7966 9.12952 15.4785 9.12952 17.5466C9.12952 17.8924 8.84998 18.1716 8.50452 18.1716C8.15875 18.1716 7.87952 17.8924 7.87952 17.5466C7.87952 14.7897 10.1226 12.5466 12.8795 12.5466C15.6362 12.5466 17.8795 14.7897 17.8795 17.5466C17.8795 18.9797 16.7232 20.1116 15.6057 21.206C14.5726 22.218 13.5045 23.2641 13.5045 24.4116C13.5045 24.7579 13.2244 25.0372 12.8795 25.0372Z" />
<path d="M12.8981 28.1724C12.5527 28.1724 12.2701 27.8931 12.2701 27.5474C12.2701 27.2019 12.5463 26.9224 12.8914 26.9224H12.8981C13.2433 26.9224 13.5231 27.2019 13.5231 27.5474C13.5231 27.8931 13.2433 28.1724 12.8981 28.1724Z" />
</g>
<defs>
<clipPath >
<rect   fill="white" transform="translate(0.994446 0.0341797)"/>
</clipPath>
</defs>
</svg>
