<svg   viewBox="0 0 59 49"  xmlns="http://www.w3.org/2000/svg">
<path d="M6.91278 0.875391C6.82134 0.461449 7.163 0.0190876 7.58621 0.00425986C7.80739 -0.0235422 8.00756 0.0895195 8.18673 0.204435C9.22035 0.848206 10.2626 1.47839 11.2962 2.12339C12.2885 1.52534 13.2714 0.909989 14.2593 0.304522C14.4904 0.166747 14.7221 -0.0284848 15.01 0.00364202C15.393 0.0129094 15.7137 0.363833 15.7063 0.743177C15.7137 1.00699 15.5598 1.25535 15.3325 1.38386C14.2383 2.06285 13.1386 2.73319 12.0438 3.41094C12.0413 4.70281 12.0438 5.99529 12.0426 7.28716C12.7889 7.45274 13.4741 7.85309 13.993 8.41407C15.1045 7.76288 16.219 7.11726 17.3324 6.46978C17.3806 5.17606 17.4158 3.88172 17.4627 2.58861C17.4603 2.19383 17.8198 1.84784 18.2134 1.86514C18.623 1.86329 18.985 2.24758 18.9418 2.65966C18.901 3.9262 18.8627 5.19274 18.8158 6.45928C19.8383 7.0215 20.8706 7.5658 21.8981 8.11999C22.1291 8.24664 22.4103 8.35105 22.5246 8.6093C22.6883 8.91821 22.595 9.33648 22.3058 9.53727C22.0859 9.70717 21.7714 9.73189 21.5255 9.604C20.3733 8.98803 19.2266 8.36094 18.07 7.753C16.9567 8.40666 15.8385 9.05043 14.7252 9.70347C14.9556 10.4288 14.9488 11.2221 14.7171 11.9462C15.8366 12.585 16.9555 13.2232 18.07 13.8701C19.2297 13.2683 20.3813 12.6511 21.5385 12.0444C21.8697 11.8739 22.3256 12.0049 22.5042 12.3348C22.6487 12.5813 22.637 12.9112 22.4677 13.1429C22.3367 13.314 22.1372 13.4079 21.9506 13.5043C20.9052 14.0523 19.8636 14.6071 18.8182 15.1551C18.8584 16.4285 18.9035 17.7018 18.9424 18.9751C18.9776 19.3829 18.6156 19.7629 18.2078 19.7524C17.8161 19.766 17.4565 19.4218 17.4627 19.0277C17.417 17.7376 17.3781 16.447 17.3348 15.157C16.2141 14.5101 15.0909 13.8676 13.9696 13.2232C13.4592 13.778 12.7809 14.1716 12.0426 14.3303C12.0438 15.6259 12.0401 16.9215 12.045 18.2165C13.1509 18.901 14.2525 19.5936 15.3553 20.2837C15.7279 20.4938 15.8206 21.0461 15.5475 21.3717C15.3201 21.6738 14.8567 21.7405 14.5478 21.5268C13.4666 20.8496 12.3842 20.1737 11.3024 19.4978C10.2323 20.1706 9.15856 20.8373 8.08788 21.5088C7.87843 21.654 7.60165 21.6997 7.36317 21.5997C7.00236 21.4644 6.80219 21.0208 6.9449 20.6612C7.0141 20.4419 7.2081 20.2998 7.39839 20.1892C8.45301 19.5349 9.50331 18.872 10.5579 18.2177C10.5629 16.9221 10.5586 15.6259 10.5598 14.3303C9.82396 14.1672 9.14683 13.7774 8.63527 13.2244C7.51454 13.8713 6.38763 14.5077 5.2706 15.1601C5.23106 16.4526 5.1872 17.7451 5.14457 19.0375C5.13901 19.3878 4.8511 19.7054 4.50327 19.7456C4.18447 19.7968 3.85641 19.6078 3.72543 19.3168C3.62658 19.0925 3.67353 18.8423 3.67477 18.6057C3.71122 17.4528 3.75632 16.3 3.78474 15.1465C2.6498 14.5639 1.52659 13.9597 0.397832 13.3653C0.0481436 13.1954 -0.100752 12.7289 0.0753278 12.3842C0.240904 12.032 0.704272 11.8628 1.0552 12.0376C2.2167 12.6455 3.37203 13.2665 4.53601 13.8701C5.6518 13.2257 6.76944 12.5831 7.88956 11.9462C7.65478 11.2221 7.65355 10.4294 7.88029 9.70285C6.76759 9.04919 5.64809 8.40604 4.53539 7.75238C3.37636 8.36464 2.22597 8.99482 1.06817 9.60894C0.69624 9.80664 0.184065 9.6077 0.0512327 9.20674C-0.0939557 8.85952 0.0821241 8.43384 0.419456 8.27506C1.54266 7.67639 2.65968 7.0666 3.78536 6.47287C3.75199 5.20263 3.69948 3.933 3.66426 2.66275C3.65561 2.44219 3.74767 2.22225 3.91819 2.08138C4.18138 1.84105 4.62189 1.8429 4.88508 2.08262C5.05437 2.22163 5.14889 2.43787 5.14704 2.65596C5.18658 3.92558 5.23292 5.19521 5.27122 6.46484C6.38825 7.11726 7.50527 7.77092 8.62662 8.41592C9.12891 7.84505 9.8184 7.45274 10.5598 7.28963C10.5598 5.99406 10.5604 4.69848 10.5592 3.40291C9.46933 2.74369 8.38876 2.06841 7.30201 1.40363C7.10554 1.29242 6.94676 1.10337 6.91278 0.875391ZM10.8304 8.75202C9.7665 8.9732 9.00967 10.1106 9.22467 11.1782C9.33032 11.7899 9.72202 12.3459 10.2663 12.6455C10.8082 12.9619 11.4946 13.0026 12.0759 12.7728C12.6968 12.5356 13.1849 11.9851 13.3462 11.3401C13.5649 10.5419 13.2486 9.64168 12.5949 9.14125C12.1043 8.75449 11.4377 8.61116 10.8304 8.75202Z" />
<path d="M40.8795 16.3047C42.324 16.1775 43.7765 16.4079 45.1666 16.7928C45.5397 16.9065 45.9493 16.9732 46.2422 17.2543C46.8989 17.7579 47.2153 18.5468 47.7274 19.1733C47.8615 19.3525 48.0882 19.4266 48.2235 19.6045C48.4021 19.8362 48.648 19.9999 48.8562 20.2013C49.6575 20.9254 50.3489 21.7922 50.7714 22.7919C51.2737 23.9639 51.4517 25.244 51.5178 26.5087C51.6166 28.3832 51.4202 30.2929 50.777 32.0642C50.3624 33.2102 49.7601 34.2883 48.9977 35.2392C48.4318 35.9509 47.767 36.5761 47.083 37.1723C45.9679 35.6642 44.9423 34.0783 44.1811 32.3595C43.1617 30.0921 42.5983 27.5868 42.7929 25.0951C42.9022 23.6068 43.2705 22.1413 43.8487 20.7673C43.9729 20.4565 44.3195 20.2551 44.6507 20.2977C45.0072 20.3305 45.3124 20.6474 45.334 21.0045C45.3568 21.2158 45.2561 21.4098 45.1839 21.6013C44.2577 23.8669 44.0644 26.4142 44.6099 28.7984C45.0912 30.9644 46.0945 32.9816 47.3197 34.8197C48.3873 33.6674 49.1688 32.2538 49.5753 30.7358C49.9349 29.4236 50.0381 28.0508 49.9775 26.6947C49.9256 25.6555 49.8089 24.6052 49.4437 23.6241C49.2831 23.6525 49.1231 23.6809 48.9631 23.7093C48.9087 25.4442 48.6066 27.1617 48.2198 28.8509C48.1494 29.2339 47.7515 29.5126 47.3679 29.4563C46.9379 29.4174 46.6024 28.9633 46.7056 28.5401C47.0781 26.8782 47.3876 25.1909 47.4198 23.4832C47.4296 22.5979 47.366 21.6989 47.0929 20.8513C47.0299 20.5968 46.7914 20.4516 46.6654 20.2341C46.3349 19.7942 46.1668 19.2382 45.7387 18.8743C45.5391 18.7081 45.3896 18.456 45.1245 18.3905C43.7721 17.9969 42.3536 17.7375 40.9413 17.8833C39.831 17.9902 38.7511 18.3769 37.825 18.9978C36.9378 19.5724 36.2217 20.3607 35.5094 21.1312C34.6296 22.1147 33.8209 23.1811 33.2642 24.3846C32.7458 25.5047 32.4901 26.7614 32.6433 27.9927C32.7903 29.0751 32.8867 30.1712 32.8021 31.2629C32.7255 32.323 32.4456 33.361 32.044 34.3433C31.6344 35.3491 31.0963 36.3401 31.0413 37.4485C30.9869 38.3641 31.0549 39.2921 31.3014 40.178C31.5961 41.3087 32.149 42.3565 32.3838 43.5038C32.6044 44.4657 32.5722 45.4697 32.3758 46.4329C32.2979 46.7702 32.3578 47.1162 32.4153 47.4523C34.4164 47.4529 36.4182 47.4511 38.4193 47.4529C38.8258 47.4325 39.2002 47.7878 39.2009 48.1943C39.2287 48.6212 38.8444 49.0148 38.4162 48.9962C34.0921 48.9969 29.7679 48.9981 25.4438 48.9956C25.0014 49.0086 24.619 48.5736 24.6845 48.1368C24.7178 47.7618 25.062 47.443 25.4413 47.4535C27.241 47.4504 29.0414 47.4529 30.8417 47.4523C30.7941 47.0408 30.7564 46.6207 30.8429 46.2117C30.9752 45.5655 31.0351 44.8982 30.943 44.2427C30.8442 43.4791 30.5563 42.7593 30.2912 42.0426C30.2387 42.131 30.1794 42.215 30.1145 42.2947C30.0867 42.2175 30.0614 42.1409 30.0367 42.0643C30.1127 42.0383 30.1899 42.013 30.2671 41.9876C29.8693 40.9262 29.5486 39.8222 29.4949 38.6835C29.4621 37.8983 29.4603 37.1007 29.645 36.3321C29.944 35.0167 30.6922 33.8596 31.0184 32.5529C31.4083 31.1356 31.3119 29.6442 31.1086 28.2052C31.0536 27.8846 31.0919 27.5522 31.0128 27.2365C30.5625 25.9539 30.0509 24.6849 29.3565 23.5129C28.8152 22.6096 28.1709 21.7348 27.2923 21.133C26.8166 20.7926 26.2519 20.6103 25.6835 20.4973C25.0292 20.3515 24.2823 20.2891 23.7009 20.6876C23.0732 21.1287 22.7155 21.8392 22.3633 22.499C21.8913 23.8817 21.6905 25.3546 21.7412 26.8139C21.7647 27.1512 21.5441 27.488 21.2216 27.593C20.8843 27.7172 20.4746 27.5652 20.3004 27.2513C20.1812 27.0672 20.1941 26.8405 20.1867 26.631C20.167 25.8779 20.2349 25.1272 20.3115 24.3791C19.9983 24.6904 19.6548 24.9759 19.3978 25.3385C18.9214 25.9737 18.725 26.7713 18.686 27.5534C18.5829 29.4736 18.6972 31.3969 18.7948 33.3146C19.7555 32.9056 20.7001 32.4034 21.4409 31.6539C22.2212 30.9045 22.7451 29.903 22.9521 28.8441C23.1405 27.8889 23.1103 26.901 22.9564 25.944C22.9187 25.6919 22.8353 25.4244 22.9465 25.1798C23.088 24.8196 23.5199 24.6114 23.8893 24.7318C24.1624 24.814 24.3725 25.0581 24.4238 25.3373C24.6468 26.5371 24.7123 27.7783 24.4985 28.9843C24.3088 30.0674 23.8758 31.1133 23.2048 31.9876C22.4449 32.9983 21.402 33.7681 20.2775 34.3316C19.3564 34.8067 18.3623 35.1119 17.3732 35.4103C17.2236 33.062 17.0729 30.7111 17.1038 28.3566C17.1267 27.4639 17.1662 26.5526 17.4708 25.7037C17.8279 24.6682 18.5575 23.7952 19.4361 23.1558C19.8296 22.8765 20.2226 22.5942 20.6279 22.3316C20.5309 22.2995 20.4357 22.2655 20.3393 22.2352C20.3826 22.1981 20.4691 22.1234 20.5123 22.0863C20.5926 22.1265 20.6736 22.1673 20.7539 22.208C21.2926 21.2047 21.8332 20.1396 22.7692 19.4451C23.4396 18.9354 24.3144 18.7859 25.138 18.86C26.3279 18.9743 27.5364 19.3074 28.4884 20.0586C29.9255 21.1627 30.8151 22.7974 31.5466 24.4192C32.2886 22.533 33.5509 20.905 34.9527 19.4618C35.6719 18.6895 36.4664 17.9753 37.3777 17.4353C38.436 16.7928 39.6469 16.4085 40.8795 16.3047Z" />
<path d="M31.8377 41.4023C31.8994 41.3177 32.0669 41.406 31.9779 41.4975C31.9174 41.5901 31.7506 41.4907 31.8377 41.4023Z" />
<path d="M11.5699 47.4876C11.6601 47.4592 11.7553 47.4536 11.8492 47.4518C15.1854 47.453 18.5223 47.4524 21.8585 47.4524C22.2076 47.4314 22.5443 47.6804 22.6376 48.0152C22.7772 48.4693 22.4078 48.9951 21.9277 48.9945C18.5686 49.0007 15.2089 48.9945 11.8498 48.9976C11.476 49.0248 11.109 48.748 11.0466 48.3767C10.9626 48.0035 11.2017 47.5933 11.5699 47.4876Z" />
<path d="M41.5807 47.4704C42.2746 47.4278 42.9727 47.4648 43.6677 47.4525C46.3856 47.4525 49.1034 47.4525 51.8212 47.4525C52.2561 47.4247 52.6422 47.825 52.6138 48.2563C52.6095 48.6677 52.2302 49.0187 51.8205 48.997C48.4633 48.9964 45.1054 48.9983 41.7476 48.9958C41.4356 49.0032 41.1396 48.7882 41.0327 48.4991C40.8548 48.0814 41.1408 47.5594 41.5807 47.4704Z" />
<path d="M54.9936 47.4826C55.1475 47.4418 55.3093 47.4529 55.4681 47.4517C56.0866 47.4572 56.7056 47.4467 57.3241 47.4554C57.7127 47.456 58.0482 47.8051 58.0599 48.1894C58.0883 48.5965 57.7411 48.9913 57.329 48.995C56.6475 49.0018 55.9655 48.9944 55.2834 48.9981C54.9763 49.0228 54.6724 48.851 54.5303 48.5804C54.3017 48.169 54.5451 47.6086 54.9936 47.4826Z" />
</svg>
