<svg   viewBox="0 0 62 54"  xmlns="http://www.w3.org/2000/svg">
<path d="M23.876 2.53539C25.2679 1.11867 27.2535 0.302611 29.2405 0.342655C29.8204 0.357844 30.4017 0.316419 30.9789 0.361986C31.3959 0.437931 31.6486 0.86046 31.6279 1.26504C31.6348 2.59614 31.6348 3.92725 31.6265 5.25697C31.65 5.67398 31.3172 6.11446 30.8823 6.12413C30.4238 6.16279 29.9571 6.19317 29.5291 6.37543C28.354 6.8242 27.5297 8.01998 27.491 9.27238C27.4648 10.1092 27.5366 11.0053 28.0157 11.7192C28.2794 12.1334 28.6951 12.4082 29.0914 12.6816C30.5882 12.1445 32.1789 11.9443 33.7626 11.9139C32.8375 11.1517 31.7467 10.6173 30.5992 10.2859C30.1408 10.1948 29.7749 9.73219 29.9047 9.25996C29.9806 8.83881 30.4363 8.54745 30.8505 8.63997C32.8748 9.17987 34.8397 10.2666 36.0534 12.0202C38.9117 12.2687 41.8487 12.9882 44.1381 14.7998C46.0795 16.3159 47.3167 18.5984 47.8221 20.9858C48.1673 22.5503 48.2653 24.1589 48.217 25.7579C47.6495 25.9388 47.0834 26.1238 46.5338 26.3531C46.6691 23.7157 46.4689 20.9389 45.1903 18.5735C44.1726 16.668 42.3513 15.2872 40.3339 14.5816C38.2903 13.8332 36.0962 13.6261 33.9352 13.5902C32.0642 13.5598 30.1629 13.8912 28.4866 14.7446C31.0176 15.1975 33.5707 16.1406 35.4127 17.9978C37.2561 19.7804 38.2144 22.2962 38.5347 24.801C39.0015 28.2641 38.4436 31.7507 37.8347 35.1585C37.2451 38.4103 36.5408 41.6663 35.2995 44.7386C34.6505 46.3031 33.8676 47.8261 32.8237 49.1669C35.3451 49.3754 38.0045 48.6877 39.87 46.9217C40.1696 47.3953 40.4831 47.8592 40.8186 48.3066C39.1423 49.7703 36.9855 50.6499 34.7665 50.8087C33.6536 50.8943 32.531 50.8501 31.4291 50.6678C29.6326 52.3151 27.2314 53.232 24.8053 53.3204C22.1417 53.4723 19.3759 52.739 17.3144 51.0006C17.1211 50.8749 16.9471 50.6112 16.6834 50.701C13.8541 51.1304 10.7983 50.6858 8.42884 49.0053C5.89505 47.2296 4.31954 44.4252 3.25631 41.5821C1.9832 38.1618 1.29417 34.562 0.693518 30.9733C0.116338 27.5419 -0.226106 23.9698 0.623095 20.5509C1.19199 18.2187 2.50238 16.0315 4.45762 14.6051C6.7042 12.9412 9.51416 12.2591 12.2592 12.0299C13.6331 10.0774 15.9225 9.02798 18.1815 8.48394C18.6717 8.34586 19.2075 8.76562 19.2102 9.27238C19.2213 9.64658 18.952 10.0042 18.5834 10.0815C17.1653 10.4544 15.7444 10.9722 14.6011 11.918C16.3105 11.9443 18.0296 12.1887 19.6259 12.8197C20.2472 12.1693 20.9984 11.5825 21.316 10.7084C21.675 9.71977 21.675 8.64825 21.6916 7.60988C21.7233 5.71955 22.5283 3.85959 23.876 2.53539ZM27.7216 2.17638C25.7498 2.66518 24.0983 4.26693 23.5612 6.22769C23.2643 7.16664 23.3831 8.15945 23.3002 9.12464C23.2257 10.2058 22.9978 11.3132 22.3847 12.2259C22.0602 12.7451 21.6115 13.1649 21.1972 13.6095C21.6432 13.8498 22.0464 14.1577 22.4469 14.4642C23.5929 14.4007 24.7404 14.3938 25.8865 14.467C26.3573 14.108 26.8434 13.7683 27.357 13.4728C26.7357 12.9012 26.2621 12.1693 26.0508 11.3477C25.6573 9.80261 25.7235 8.04484 26.6432 6.69164C27.3819 5.53866 28.6371 4.77369 29.9737 4.53343C29.9737 3.68975 29.9723 2.84607 29.9751 2.00239C29.2211 1.99273 28.4562 1.97478 27.7216 2.17638ZM13.0021 13.644C10.3496 13.7946 7.58793 14.3414 5.4159 15.9624C3.72579 17.1996 2.64461 19.1273 2.18342 21.146C1.53305 23.956 1.74294 26.8805 2.16961 29.7071C2.55347 32.1511 2.99257 34.5896 3.58494 36.9922C4.2215 39.5177 5.02928 42.0308 6.359 44.2843C7.13916 45.5712 8.11954 46.7574 9.35261 47.6328C11.1256 48.9128 13.3846 49.3132 15.5318 49.1752C14.4202 47.7626 13.5958 46.1484 12.9386 44.4818C11.932 41.901 11.2844 39.1974 10.7541 36.4841C10.2142 33.6051 9.70057 30.7012 9.6771 27.7643C9.65362 27.3942 9.85936 26.9924 10.2322 26.8847C10.7389 26.6748 11.3562 27.1153 11.3313 27.6593C11.3575 29.6021 11.5661 31.5408 11.9002 33.4546C12.3269 36.0422 12.8281 38.6216 13.553 41.1443C14.22 43.4075 15.0733 45.6527 16.4279 47.6024C17.6665 49.4044 19.4864 50.8736 21.6446 51.3789C24.1812 51.9782 27.027 51.7269 29.2363 50.266C30.972 49.1489 32.1858 47.4022 33.1095 45.5892C34.529 42.6688 35.3009 39.4887 35.9319 36.3184C36.5906 32.6951 37.3459 29.0097 36.9302 25.3105C36.6831 23.0985 35.9305 20.8395 34.3122 19.246C32.5558 17.4358 30.0372 16.6307 27.5973 16.2924C25.3493 16.0011 23.0627 15.9969 20.8147 16.2869C18.9976 16.5396 17.1708 17.0312 15.6146 18.0337C15.297 18.2684 14.8289 18.3084 14.521 18.0337C14.1095 17.7064 14.1496 17.0091 14.59 16.7233C16.1655 15.6614 18.0172 15.0925 19.8717 14.7487C17.7645 13.6634 15.3315 13.4618 13.0021 13.644Z" />
<path d="M46.085 28.1952C46.3529 27.9163 46.821 27.8555 47.1414 28.082C48.217 28.7503 49.3037 29.4006 50.3725 30.08C51.4757 29.402 52.5763 28.7144 53.6837 28.0433C54.0993 27.7961 54.6751 28.0226 54.8449 28.4645C55.0092 28.8511 54.8159 29.3164 54.4528 29.5111C53.3716 30.1863 52.2766 30.8381 51.1996 31.5216C51.2106 32.785 51.1982 34.0485 51.2065 35.3133C51.9383 35.4818 52.5818 35.8919 53.1189 36.4055C54.207 35.7648 55.3061 35.1435 56.3887 34.4945C56.426 33.22 56.466 31.9441 56.5143 30.671C56.5047 30.2526 56.8347 29.8618 57.2572 29.8287C57.7308 29.7638 58.1962 30.196 58.1644 30.6738C58.1354 31.9482 58.0843 33.2214 58.0429 34.4959C59.1848 35.1407 60.3654 35.7165 61.4977 36.3765C62.0459 36.6789 61.9561 37.5861 61.3776 37.8015C61.0047 38.0017 60.614 37.7698 60.2867 37.593C59.2732 37.0324 58.2417 36.5036 57.2324 35.9388C56.1249 36.5602 55.0341 37.2105 53.9364 37.8499C54.1352 38.5693 54.1186 39.3259 53.935 40.0467C55.0327 40.6722 56.1208 41.3143 57.2268 41.9274C58.3964 41.3226 59.5438 40.6709 60.7272 40.0937C61.2961 39.7982 62.021 40.4085 61.847 41.0188C61.8001 41.3502 61.5074 41.5449 61.2353 41.6871C60.168 42.2436 59.1034 42.8042 58.0415 43.3704C58.0857 44.6145 58.1285 45.86 58.1644 47.1055C58.2155 47.5156 57.9407 47.9353 57.5292 48.0168C57.0349 48.1507 56.5033 47.7227 56.5143 47.2159C56.4605 45.9842 56.4425 44.7525 56.3901 43.5209C56.408 43.3414 56.2064 43.2792 56.0932 43.1922C55.0949 42.6247 54.0993 42.0517 53.1023 41.48C52.5693 41.9909 51.9217 42.3762 51.2037 42.5626C51.2037 43.8302 51.2037 45.0978 51.2037 46.3667C52.3194 47.0516 53.431 47.7406 54.5329 48.4476C55.1004 48.7762 54.9706 49.7262 54.3451 49.9085C53.9129 50.0853 53.5207 49.7566 53.1728 49.5467C52.2435 48.9599 51.31 48.3813 50.3794 47.7972C49.2927 48.4628 48.2225 49.156 47.1345 49.8174C46.7271 50.1087 46.0892 49.9126 45.9221 49.4418C45.7412 49.0731 45.9249 48.6036 46.2728 48.4089C47.3623 47.7268 48.4531 47.0461 49.5426 46.364C49.5509 45.095 49.5467 43.826 49.544 42.557C48.826 42.3679 48.177 41.9826 47.6426 41.469C46.5697 42.129 45.4595 42.7255 44.3742 43.3634C44.3107 44.6946 44.3093 46.0298 44.2251 47.3595C44.1699 47.9767 43.2917 48.264 42.865 47.8318C42.6109 47.6205 42.5722 47.2753 42.5916 46.9674C42.633 45.7688 42.673 44.5717 42.7131 43.3731C41.5877 42.7504 40.4292 42.1898 39.3108 41.5573C38.8813 41.3433 38.7626 40.7316 39.0539 40.3602C39.279 40.0412 39.7457 39.9183 40.0895 40.1241C41.2619 40.6929 42.3872 41.3544 43.5595 41.9246C44.6462 41.2908 45.7398 40.6681 46.8334 40.044C46.6249 39.3287 46.6277 38.5665 46.8196 37.8485C45.726 37.2078 44.631 36.5698 43.5333 35.9374C42.3789 36.5588 41.2329 37.1967 40.0661 37.7932C39.6353 38.0294 39.065 37.7532 38.9338 37.2934C38.7888 36.8943 39.0249 36.4442 39.4033 36.2826C40.4996 35.6861 41.6015 35.0993 42.7048 34.5138C42.6882 33.2324 42.6095 31.9538 42.593 30.6738C42.5847 30.2333 42.9934 29.837 43.4339 29.8618C43.8606 29.8591 44.2361 30.2388 44.2417 30.6627C44.2997 31.951 44.3107 33.2407 44.3853 34.5276C45.4844 35.131 46.5559 35.7828 47.6412 36.4097C48.1646 35.878 48.8218 35.4983 49.5426 35.3064C49.5523 34.0388 49.5454 32.7698 49.5454 31.5022C48.4324 30.8215 47.3153 30.1449 46.2135 29.4462C45.7757 29.1935 45.7467 28.5418 46.085 28.1952ZM49.9803 36.9233C48.9295 37.0918 48.1756 38.202 48.3523 39.2417C48.4918 40.298 49.5578 41.1293 50.621 40.9636C51.7257 40.8752 52.5845 39.7499 52.4133 38.6618C52.2821 37.5295 51.1029 36.6596 49.9803 36.9233Z" />
</svg>
