<svg   viewBox="0 0 67 62"  xmlns="http://www.w3.org/2000/svg">
<path fill-rule="evenodd" clip-rule="evenodd" d="M57.728 0.479813C59.7685 0.389126 61.5887 2.20937 61.4981 4.24984C61.2742 9.39146 57.7845 15.0062 53.8004 18.9903C53.5075 19.2832 53.0326 19.2832 52.7397 18.9903C52.4468 18.6974 52.4468 18.2225 52.7397 17.9296C56.6072 14.0622 59.7995 8.78368 59.9995 4.18396C60.0511 3.0237 58.9553 1.927 57.795 1.97832C57.0517 2.01212 56.1627 2.11412 55.2336 2.28606C53.1845 2.68326 51.3967 3.67424 49.9667 5.06969L30.3375 24.77C25.3173 29.7902 20.7581 35.1978 16.6944 41.0284L13.528 45.5468C13.2903 45.886 12.8226 45.9683 12.4834 45.7305C12.1442 45.4928 12.0619 45.0251 12.2996 44.6859L15.4638 40.1707C15.4639 40.1706 15.4637 40.1709 15.4638 40.1707C19.5799 34.2651 24.1967 28.7895 29.2769 23.7093L48.915 4.00004C50.5424 2.41051 52.5933 1.26923 54.9514 0.812824L54.9574 0.811698C55.9475 0.628351 56.9073 0.517118 57.728 0.479813ZM32.4568 35.3381C32.7312 35.6484 32.7022 36.1224 32.3919 36.3968L17.394 49.6614C17.0837 49.9359 16.6097 49.9068 16.3353 49.5965C16.0609 49.2862 16.0899 48.8123 16.4002 48.5378L31.3982 35.2732C31.7084 34.9988 32.1824 35.0278 32.4568 35.3381Z" />
<path fill-rule="evenodd" clip-rule="evenodd" d="M21.5436 6.08788C21.7082 5.70778 22.1497 5.53309 22.5298 5.6977L27.0466 7.65378C27.4267 7.81839 27.6014 8.25996 27.4368 8.64006C27.2722 9.02017 26.8306 9.19485 26.4505 9.03024L21.9337 7.07417C21.5536 6.90956 21.3789 6.46798 21.5436 6.08788Z" />
<path fill-rule="evenodd" clip-rule="evenodd" d="M31.0049 10.211C31.1709 9.83144 31.6131 9.6583 31.9926 9.82423L40.2081 13.4163C40.5876 13.5822 40.7608 14.0244 40.5948 14.4039C40.4289 14.7835 39.9867 14.9566 39.6072 14.7907L31.3917 11.1986C31.0121 11.0327 30.839 10.5905 31.0049 10.211Z" />
<path fill-rule="evenodd" clip-rule="evenodd" d="M8.9629 12.5776C9.25579 12.8705 9.25579 13.3453 8.9629 13.6382L4.97961 17.6215C4.68672 17.9144 4.21184 17.9144 3.91895 17.6215C3.62606 17.3286 3.62606 16.8538 3.91895 16.5609L7.90224 12.5776C8.19513 12.2847 8.67 12.2847 8.9629 12.5776Z" />
<path fill-rule="evenodd" clip-rule="evenodd" d="M16.645 18.4814C16.9379 18.7743 16.9379 19.2492 16.645 19.542L12.6617 23.5253C12.3688 23.8182 11.8939 23.8182 11.601 23.5253C11.3081 23.2324 11.3081 22.7576 11.601 22.4647L15.5843 18.4814C15.8772 18.1885 16.3521 18.1885 16.645 18.4814Z" />
<path fill-rule="evenodd" clip-rule="evenodd" d="M28.7475 5.35321C29.7165 4.3887 31.2907 4.39008 32.258 5.35733L33.325 6.42428C34.2936 7.39291 34.2936 8.9703 33.325 9.93893L32.2224 11.0414C31.9295 11.3343 31.4547 11.3343 31.1618 11.0414C30.8689 10.7486 30.8689 10.2737 31.1618 9.98079L32.2643 8.87827C32.6471 8.49543 32.6471 7.86779 32.2643 7.48494L31.1973 6.41799C30.8145 6.03515 30.1869 6.03515 29.804 6.41799L29.7964 6.42557L29.7964 6.42551L27.2713 8.8795C26.9742 9.16818 26.4994 9.1614 26.2107 8.86435C25.922 8.5673 25.9288 8.09248 26.2259 7.8038L28.7475 5.35321Z" />
<path fill-rule="evenodd" clip-rule="evenodd" d="M19.3898 1.1254C20.3584 0.156768 21.9358 0.156768 22.9044 1.1254L23.9714 2.19235C24.94 3.16098 24.94 4.73837 23.9714 5.707L22.7622 6.91621C22.4693 7.2091 21.9944 7.2091 21.7015 6.91621C21.4086 6.62332 21.4086 6.14844 21.7015 5.85555L22.9107 4.64634C23.2936 4.2635 23.2936 3.63585 22.9107 3.25301L21.8438 2.18606C21.4609 1.80322 20.8333 1.80322 20.4504 2.18606L17.4925 5.14399L14.4874 3.83189L14.4763 3.82661C13.7845 3.49716 13.0911 3.26549 12.3581 3.09877C11.4303 2.8927 10.2114 2.70418 9.01938 2.78201C8.15851 2.83822 7.35637 3.02987 6.68938 3.41769L31.9229 21.9636C32.2567 22.209 32.3284 22.6784 32.0831 23.0121C31.8378 23.3459 31.3683 23.4176 31.0346 23.1723L4.2973 3.52114L4.9148 2.90365C6.03532 1.78313 7.53077 1.37601 8.92165 1.2852C10.3162 1.19414 11.6928 1.41434 12.6853 1.63489L12.6888 1.63567C13.5161 1.82369 14.3123 2.08822 15.1099 2.46695L17.1552 3.35997L19.3898 1.1254Z" />
<path fill-rule="evenodd" clip-rule="evenodd" d="M13.348 44.5048C13.3483 44.505 13.3487 44.5053 12.9137 45.1163L13.348 44.5048C13.6854 44.745 13.765 45.2137 13.5248 45.5512C13.2849 45.8883 12.8174 45.9673 12.4801 45.7282C12.4798 45.728 12.4803 45.7284 12.4801 45.7282L12.4788 45.7273L12.4716 45.7223C12.4635 45.7168 12.4499 45.7075 12.4309 45.6949C12.3928 45.6698 12.3333 45.6315 12.254 45.5833C12.0952 45.487 11.8579 45.3519 11.5548 45.2047C10.9464 44.9093 10.0846 44.5708 9.06763 44.3924C7.35486 44.092 5.17893 44.2372 2.97643 45.8799C3.09002 45.9142 3.20819 45.9524 3.3305 45.9949C4.48871 46.3971 6.01176 47.183 7.54028 48.7115C7.83317 49.0044 7.83317 49.4793 7.54028 49.7722C7.24739 50.0651 6.77251 50.0651 6.47962 49.7722C5.12738 48.4199 3.80522 47.7476 2.83841 47.4119C2.35373 47.2436 1.95641 47.1592 1.68741 47.117C1.55295 47.096 1.45078 47.0855 1.38606 47.0803C1.35371 47.0777 1.33077 47.0764 1.31787 47.0758L1.30616 47.0754L1.30869 47.0754C1.30904 47.0754 1.31005 47.0755 1.31954 46.3255L1.31005 47.0755C1.00801 47.0716 0.73775 46.887 0.624376 46.607C0.511001 46.327 0.576646 46.0064 0.790919 45.7935C3.76481 42.8387 6.92191 42.4931 9.32678 42.915C10.5148 43.1234 11.5113 43.5161 12.2099 43.8554C12.5603 44.0255 12.8387 44.1835 13.0322 44.301C13.1291 44.3598 13.2049 44.4085 13.2581 44.4437C13.2847 44.4613 13.3057 44.4755 13.3209 44.4859L13.3392 44.4986L13.3451 44.5027L13.3471 44.5042L13.348 44.5048Z" />
<path fill-rule="evenodd" clip-rule="evenodd" d="M17.4804 48.5438C17.4801 48.5435 17.4798 48.5432 16.932 49.0554L17.4804 48.5438C17.1974 48.2412 16.7223 48.2247 16.4197 48.5076C16.1175 48.7902 16.1013 49.264 16.3831 49.5666C16.3833 49.5668 16.3829 49.5664 16.3831 49.5666L16.3842 49.5677L16.3901 49.5742C16.3966 49.5815 16.4076 49.5938 16.4226 49.6109C16.4526 49.6453 16.4985 49.6992 16.5568 49.7714C16.6734 49.9159 16.8388 50.1332 17.0249 50.4141C17.3986 50.9778 17.8486 51.787 18.1606 52.7712C18.686 54.4289 18.8312 56.6048 17.4957 59.0061C17.4466 58.8981 17.3931 58.786 17.3347 58.6704C16.7822 57.576 15.8009 56.1709 14.0828 54.859C13.7535 54.6077 13.2829 54.6708 13.0315 55C12.7801 55.3292 12.8432 55.7999 13.1725 56.0512C14.6924 57.2118 15.5345 58.4329 15.9957 59.3465C16.227 59.8045 16.3634 60.1871 16.4409 60.4481C16.4797 60.5785 16.5037 60.6784 16.5174 60.7419C16.5243 60.7736 16.5286 60.7962 16.5309 60.8089L16.5329 60.8204L16.5325 60.8179C16.5324 60.8176 16.5323 60.8166 17.2743 60.7075L16.5323 60.8166C16.5762 61.1154 16.7951 61.3587 17.0877 61.4339C17.3802 61.5091 17.6893 61.4014 17.8719 61.1607C20.4053 57.8205 20.3281 54.6455 19.5905 52.318C19.226 51.1682 18.7043 50.2328 18.2753 49.5854C18.0601 49.2608 17.8664 49.0059 17.7243 48.8297C17.6532 48.7415 17.5948 48.6728 17.5528 48.6247C17.5319 48.6007 17.515 48.5818 17.5027 48.5681L17.4876 48.5517L17.4828 48.5464L17.481 48.5445L17.4804 48.5438Z" />
<path fill-rule="evenodd" clip-rule="evenodd" d="M11.4169 50.5961C11.7098 50.889 11.7098 51.3639 11.4169 51.6568L7.39804 55.6756C7.10514 55.9685 6.63027 55.9685 6.33738 55.6756C6.04448 55.3827 6.04448 54.9079 6.33738 54.615L10.3562 50.5961C10.6491 50.3032 11.124 50.3032 11.4169 50.5961Z" />
<path fill-rule="evenodd" clip-rule="evenodd" d="M52.6281 21.5116C52.74 21.4853 52.8565 21.4851 52.9685 21.5109L65.9685 24.5109C66.3721 24.604 66.6238 25.0067 66.5306 25.4103C66.4375 25.8139 66.0348 26.0656 65.6312 25.9725L52.8015 23.0118L35.9716 26.9718C35.5684 27.0666 35.1647 26.8167 35.0698 26.4135C34.9749 26.0103 35.2249 25.6065 35.6281 25.5116L52.6281 21.5116Z" />
<path fill-rule="evenodd" clip-rule="evenodd" d="M66.5275 26.06C66.6279 26.4618 66.3836 26.869 65.9818 26.9695L49.9818 30.9695C49.8682 30.9979 49.7495 30.9993 49.6352 30.9736L45.6352 30.0736C45.2311 29.9827 44.9772 29.5814 45.0682 29.1772C45.1591 28.7731 45.5604 28.5192 45.9645 28.6102L49.7907 29.4711L65.618 25.5143C66.0198 25.4138 66.427 25.6581 66.5275 26.06Z" />
<path fill-rule="evenodd" clip-rule="evenodd" d="M65.7999 24.4917C66.2141 24.4917 66.5499 24.8275 66.5499 25.2417V44.2417C66.5499 44.5697 66.3367 44.8597 66.0236 44.9576L50.0236 49.9576C49.8681 50.0061 49.701 50.0028 49.5476 49.948L35.5476 44.948C35.2491 44.8414 35.0499 44.5587 35.0499 44.2417V26.2417C35.0499 25.8275 35.3857 25.4917 35.7999 25.4917C36.2141 25.4917 36.5499 25.8275 36.5499 26.2417V43.7132L49.8157 48.451L65.0499 43.6903V25.2417C65.0499 24.8275 65.3857 24.4917 65.7999 24.4917Z" />
<path fill-rule="evenodd" clip-rule="evenodd" d="M49.7999 29.4917C50.2141 29.4917 50.5499 29.8275 50.5499 30.2417V43.2417C50.5499 43.6559 50.2141 43.9917 49.7999 43.9917C49.3857 43.9917 49.0499 43.6559 49.0499 43.2417V30.2417C49.0499 29.8275 49.3857 29.4917 49.7999 29.4917Z" />
<path fill-rule="evenodd" clip-rule="evenodd" d="M61.8114 39.6048C61.9423 39.9978 61.73 40.4225 61.337 40.5535L58.337 41.5535C57.9441 41.6845 57.5193 41.4721 57.3883 41.0792C57.2573 40.6862 57.4697 40.2615 57.8627 40.1305L60.8627 39.1305C61.2556 38.9995 61.6804 39.2119 61.8114 39.6048Z" />
</svg>
