<svg   viewBox="0 0 53 52"  xmlns="http://www.w3.org/2000/svg">
<path fill-rule="evenodd" clip-rule="evenodd" d="M48.8162 0.293866C50.6001 0.21458 52.1866 1.80108 52.1074 3.58501C52.0757 4.31246 51.9812 5.09401 51.8268 5.92809L51.8257 5.93404C51.439 7.932 50.5014 9.67987 49.1111 11.0702L32.5981 27.5832C32.5977 27.5836 32.5974 27.5839 32.597 27.5843C28.3543 31.857 23.7211 35.7379 18.7579 39.1971C18.7577 39.1973 18.7581 39.197 18.7579 39.1971L14.9661 41.8544C14.6269 42.0921 14.1592 42.0099 13.9214 41.6706C13.6837 41.3314 13.766 40.8637 14.1052 40.626L17.898 37.9681L17.8995 37.967C22.7909 34.5579 27.3552 30.7344 31.5337 26.5263L31.5355 26.5244L48.0504 10.0096C49.2277 8.83229 50.0221 7.35581 50.3524 5.6518C50.4962 4.87472 50.5808 4.16435 50.6088 3.51913C50.649 2.6154 49.7869 1.75242 48.8831 1.79237C48.2653 1.82048 47.5245 1.90538 46.7493 2.0488C45.0537 2.37759 43.5738 3.19753 42.389 4.3535L25.9076 20.8946L25.9066 20.8955C21.696 25.1062 17.8722 29.6416 14.4641 34.5315L11.8051 38.3259C11.5673 38.6651 11.0996 38.7474 10.7604 38.5096C10.4212 38.2719 10.3389 37.8042 10.5767 37.465L13.2335 33.6739C13.2336 33.6737 13.2333 33.674 13.2335 33.6739C16.6938 28.7091 20.575 24.106 24.8453 19.8356C24.8455 19.8353 24.8451 19.8358 24.8453 19.8356L41.3372 3.28391C42.7194 1.93382 44.4625 0.963565 46.4672 0.575569L46.4731 0.574442C47.3093 0.4196 48.1209 0.32547 48.8162 0.293866Z" />
<path fill-rule="evenodd" clip-rule="evenodd" d="M18.327 5.07567C18.4916 4.69557 18.9332 4.52088 19.3133 4.68549L23.1061 6.32802C23.4862 6.49263 23.6609 6.93421 23.4962 7.31431C23.3316 7.69441 22.8901 7.8691 22.51 7.70449L18.7172 6.06196C18.3371 5.89735 18.1624 5.45577 18.327 5.07567Z" />
<path fill-rule="evenodd" clip-rule="evenodd" d="M26.2719 8.53762C26.4379 8.1581 26.88 7.98496 27.2596 8.15089L34.1582 11.1672C34.5377 11.3331 34.7108 11.7753 34.5449 12.1548C34.379 12.5343 33.9368 12.7075 33.5573 12.5415L26.6587 9.52527C26.2791 9.35933 26.106 8.91714 26.2719 8.53762Z" />
<path fill-rule="evenodd" clip-rule="evenodd" d="M7.9583 10.4877C8.2512 10.7806 8.2512 11.2555 7.9583 11.5484L4.61352 14.8932C4.32063 15.1861 3.84575 15.1861 3.55286 14.8932C3.25997 14.6003 3.25997 14.1254 3.55286 13.8325L6.89764 10.4877C7.19054 10.1948 7.66541 10.1948 7.9583 10.4877Z" />
<path fill-rule="evenodd" clip-rule="evenodd" d="M14.4089 15.4453C14.7018 15.7381 14.7018 16.213 14.4089 16.5059L11.0641 19.8507C10.7713 20.1436 10.2964 20.1436 10.0035 19.8507C9.71059 19.5578 9.71059 19.0829 10.0035 18.79L13.3483 15.4453C13.6412 15.1524 14.116 15.1524 14.4089 15.4453Z" />
<path fill-rule="evenodd" clip-rule="evenodd" d="M24.4022 4.42085C25.2628 3.56471 26.6604 3.5661 27.5193 4.42502L28.4152 5.32094C29.2755 6.18125 29.2755 7.58192 28.4152 8.44223L27.4894 9.36801C27.1965 9.66091 26.7217 9.66091 26.4288 9.36801C26.1359 9.07512 26.1359 8.60025 26.4288 8.30735L27.3546 7.38157C27.6291 7.10704 27.6291 6.65613 27.3546 6.3816L26.4586 5.48568C26.1841 5.21115 25.7332 5.21115 25.4587 5.48568L25.4511 5.49326L25.451 5.4932L23.3307 7.55382C23.0336 7.8425 22.5588 7.83572 22.2701 7.53867C21.9815 7.24163 21.9882 6.7668 22.2853 6.47812L24.4022 4.42085Z" />
<path fill-rule="evenodd" clip-rule="evenodd" d="M16.5437 0.871308C17.404 0.0109963 18.8047 0.0109963 19.665 0.871308L20.5609 1.76723C21.4213 2.62754 21.4213 4.0282 20.5609 4.88852L19.5456 5.9039C19.2527 6.19679 18.7778 6.19679 18.4849 5.9039C18.192 5.611 18.192 5.13613 18.4849 4.84324L19.5003 3.82786C19.7748 3.55333 19.7748 3.10242 19.5003 2.82789L18.6044 1.93197C18.3298 1.65744 17.8789 1.65744 17.6044 1.93197L15.0626 4.47373L12.4623 3.33836L12.4512 3.33308C11.8791 3.06064 11.3055 2.86888 10.6978 2.73066C9.92397 2.5588 8.91315 2.40306 7.92851 2.46735C7.28735 2.50921 6.69357 2.64155 6.18809 2.89654L27.2241 18.3574C27.5578 18.6027 27.6295 19.0721 27.3842 19.4059C27.1389 19.7397 26.6695 19.8114 26.3357 19.5661L3.77155 2.98201L4.38904 2.36451C5.35849 1.39506 6.64728 1.04781 7.83078 0.970538C9.018 0.893022 10.1865 1.08043 11.025 1.26678L11.0285 1.26756C11.7304 1.42707 12.4069 1.65169 13.0848 1.97341L14.7253 2.68971L16.5437 0.871308Z" />
<path fill-rule="evenodd" clip-rule="evenodd" d="M48.9831 33.5992C49.3519 33.4017 49.4995 32.9459 49.3127 32.581L47.4521 28.9479C47.2652 28.583 46.8147 28.4473 46.4458 28.6448C46.077 28.8423 45.9294 29.2982 46.1163 29.663L47.9768 33.2962C48.1637 33.661 48.6142 33.7967 48.9831 33.5992Z" />
<path fill-rule="evenodd" clip-rule="evenodd" d="M43.2985 37.3068C43.5642 37.6303 44.0398 37.6861 44.3606 37.4314L49.1259 33.649C49.4468 33.3943 49.4915 32.9255 49.2258 32.602C48.96 32.2785 48.4845 32.2227 48.1637 32.4773L43.3983 36.2598C43.0775 36.5145 43.0328 36.9832 43.2985 37.3068Z" />
<path fill-rule="evenodd" clip-rule="evenodd" d="M45.0645 25.8455C45.4327 25.6468 45.5787 25.1904 45.3905 24.8263L41.9777 18.2204C41.7896 17.8563 41.3386 17.7222 40.9704 17.921C40.6022 18.1197 40.4562 18.5761 40.6443 18.9402L44.0571 25.5461C44.2452 25.9102 44.6962 26.0443 45.0645 25.8455Z" />
<path fill-rule="evenodd" clip-rule="evenodd" d="M49.2876 27.497C50.1234 26.5785 50.058 25.1825 49.141 24.3957L48.1912 23.5807C47.2868 22.8046 45.8864 22.9084 45.059 23.813L44.1612 24.7944C43.8778 25.1043 43.892 25.5792 44.193 25.8551C44.4941 26.1309 44.9679 26.1034 45.2513 25.7935L46.1492 24.812C46.4223 24.5134 46.9013 24.4779 47.1999 24.7341L48.1497 25.549C48.4344 25.7933 48.4538 26.2177 48.1934 26.5024L48.1861 26.5104L48.1861 26.5105L46.1905 28.7539C45.9114 29.0677 45.9324 29.5421 46.2374 29.8135C46.5424 30.0849 47.016 30.0506 47.2952 29.7368L49.2876 27.497Z" />
<path fill-rule="evenodd" clip-rule="evenodd" d="M44.4615 37.469C44.7746 37.1893 44.8094 36.7141 44.5393 36.4077L35.1944 25.8063C34.9243 25.4999 34.4516 25.4783 34.1385 25.758C33.8255 26.0377 33.7906 26.5128 34.0607 26.8193L43.4056 37.4206C43.6757 37.7271 44.1484 37.7487 44.4615 37.469Z" />
<path fill-rule="evenodd" clip-rule="evenodd" d="M14.1006 40.6293C14.4381 40.3891 14.9064 40.4679 15.1466 40.8054L14.5357 41.2401C15.1466 40.8054 15.1468 40.8057 15.147 40.8061L15.1476 40.8069L15.149 40.8088L15.1527 40.8141L15.164 40.8304C15.1731 40.8436 15.1854 40.8619 15.2006 40.8848C15.231 40.9307 15.2727 40.9957 15.3229 41.0784C15.4232 41.2437 15.5578 41.4808 15.7025 41.7788C15.9909 42.3727 16.325 43.2202 16.5024 44.2315C16.8622 46.2829 16.5652 48.9754 14.0522 51.5046C13.8393 51.7189 13.5186 51.7845 13.2386 51.6712C12.9602 51.5584 12.776 51.2904 12.7703 50.9904L12.77 50.9828C12.7696 50.9734 12.7686 50.9555 12.7665 50.9297C12.7624 50.8782 12.7539 50.7955 12.7367 50.6857C12.7023 50.4662 12.6331 50.1396 12.4943 49.74C12.2177 48.9435 11.6623 47.8494 10.541 46.7281C10.2481 46.4352 10.2481 45.9603 10.541 45.6674C10.8339 45.3745 11.3087 45.3745 11.6016 45.6674C12.8993 46.965 13.5683 48.2601 13.9113 49.2479C13.9199 49.2726 13.9282 49.297 13.9364 49.3212C15.1627 47.5679 15.2637 45.8515 15.025 44.4907C14.8776 43.6504 14.5977 42.9376 14.3531 42.4339C14.2314 42.1831 14.1198 41.9872 14.0406 41.8566C14.001 41.7914 13.9697 41.7428 13.9494 41.7121C13.9392 41.6967 13.9318 41.6858 13.9275 41.6796L13.9241 41.6746C13.6844 41.3372 13.7633 40.8693 14.1006 40.6293ZM13.9241 41.6746L13.9235 41.6739L13.9238 41.6742L13.9241 41.6746Z" />
<path fill-rule="evenodd" clip-rule="evenodd" d="M11.4022 38.7556C11.6306 38.41 11.5355 37.9447 11.1899 37.7164L10.7766 38.342C11.1899 37.7164 11.1896 37.7162 11.1892 37.716L11.1884 37.7154L11.1864 37.7141L11.1809 37.7106L11.1643 37.6999C11.1507 37.6912 11.1321 37.6795 11.1086 37.6652C11.0617 37.6364 10.9953 37.5969 10.9109 37.5496C10.7422 37.4551 10.5006 37.3288 10.1978 37.1946C9.59426 36.927 8.73565 36.6225 7.71876 36.4803C5.6561 36.1919 2.97556 36.5823 0.535103 39.1815C0.328349 39.4017 0.273876 39.7245 0.3969 40.0004C0.51926 40.2747 0.793448 40.4495 1.09352 40.4448L1.10108 40.4448C1.11057 40.4449 1.12848 40.4453 1.15427 40.4465C1.20589 40.4488 1.28891 40.4544 1.39918 40.4678C1.6198 40.4945 1.9486 40.5524 2.3527 40.6772C3.15831 40.926 4.27106 41.4431 5.43066 42.5248C5.73355 42.8074 6.20813 42.7909 6.49068 42.488C6.77323 42.1851 6.75675 41.7105 6.45386 41.428C5.11196 40.1762 3.79451 39.5525 2.79531 39.244C2.77042 39.2363 2.74572 39.2288 2.72124 39.2215C4.43093 37.935 6.14272 37.7745 7.51106 37.9659C8.3559 38.084 9.07807 38.339 9.58987 38.5659C9.84474 38.6789 10.0444 38.7836 10.1777 38.8582C10.2442 38.8955 10.2939 38.9251 10.3253 38.9444C10.341 38.954 10.3521 38.961 10.3585 38.965L10.3636 38.9683C10.7091 39.1962 11.174 39.101 11.4022 38.7556ZM10.3636 38.9683L10.3644 38.9688L10.3641 38.9686L10.3636 38.9683Z" />
<path fill-rule="evenodd" clip-rule="evenodd" d="M10.0189 42.4121C10.3118 42.7049 10.3118 43.1798 10.0189 43.4727L6.64428 46.8474C6.35139 47.1402 5.87652 47.1402 5.58362 46.8474C5.29073 46.5545 5.29073 46.0796 5.58362 45.7867L8.95827 42.4121C9.25116 42.1192 9.72603 42.1192 10.0189 42.4121Z" />
</svg>
