<svg   viewBox="0 0 59 63"  xmlns="http://www.w3.org/2000/svg">
<path d="M12.9897 2.00141C15.0312 0.586428 17.5498 -0.129096 20.0325 0.019199C22.7549 0.187267 25.3958 1.38599 27.32 3.32C29.3565 1.8939 31.8825 1.13636 34.3714 1.3761C36.6292 1.54911 38.8227 2.47472 40.5145 3.98115C42.4498 5.67295 43.7387 8.08769 44.0538 10.6408C44.2849 12.4414 44.0217 14.3013 43.3235 15.9758C44.1836 17.2115 44.7879 18.6475 44.8905 20.1614C45.0832 22.5292 44.1366 24.9563 42.4028 26.5789C42.0864 26.8668 41.7466 27.2573 41.2758 27.2128C40.6393 27.1646 40.2698 26.2662 40.7567 25.8188C41.5081 25.196 42.1828 24.4582 42.5944 23.5635C43.6769 21.4318 43.4372 18.6562 41.8751 16.8198C41.6712 16.5751 41.4006 16.2785 41.5501 15.9362C41.7948 15.1997 42.1322 14.4903 42.2866 13.7254C42.7031 11.5405 42.3002 9.1999 41.1213 7.3079C39.9967 5.45545 38.1776 4.03676 36.1003 3.41516C33.4927 2.61066 30.512 3.07779 28.3049 4.69173C27.9304 4.95125 27.577 5.39119 27.0716 5.3121C26.6576 5.27503 26.45 4.86104 26.1768 4.60275C24.4257 2.79108 21.9208 1.72954 19.401 1.72954C17.4015 1.70111 15.4032 2.33878 13.7744 3.49672C11.6316 4.98832 10.1671 7.40677 9.8236 9.99452C9.57026 11.8012 9.87056 13.6636 10.5923 15.3319C10.7665 15.7039 10.5255 16.0672 10.3315 16.3724C9.11673 18.1878 8.61252 20.453 8.8844 22.6169C9.17234 25.0576 10.4687 27.3685 12.4188 28.8675C14.0747 30.1861 16.1867 30.9017 18.3011 30.8819C18.7609 30.8226 19.0364 31.2341 19.1996 31.5986C19.8879 33.0507 21.0804 34.2544 22.5263 34.9563C24.5122 35.9561 26.964 36.0067 28.971 35.0379C29.2466 34.9093 29.4937 34.7128 29.794 34.6436C30.3489 34.5695 30.8679 35.1775 30.6887 35.7151C30.5726 36.1266 30.1326 36.2749 29.7952 36.4578C30.2784 36.7865 30.7382 37.182 31.0236 37.701C31.9665 39.5584 32.9539 41.3948 33.8956 43.2534C34.9584 43.2583 36.0212 43.2497 37.084 43.2559C37.7229 43.2349 38.3556 43.6056 38.6312 44.1864C38.9006 44.698 38.7869 45.2937 38.8091 45.8461C38.7869 46.5184 38.9352 47.2907 38.4705 47.853C37.9638 48.44 37.4102 48.9838 36.8961 49.5634C36.885 52.7777 36.9085 55.992 36.885 59.2063C36.9159 60.494 36.2362 61.7594 35.1401 62.4378C33.9265 63.2164 32.2545 63.1793 31.0829 62.334C30.2068 61.7335 29.6358 60.7423 29.5098 59.6919C22.7772 59.6895 16.0446 59.6895 9.31198 59.6919C9.19211 60.51 8.8535 61.3133 8.25167 61.8941C7.38662 62.7987 6.03342 63.1954 4.81617 62.9075C3.69036 62.6578 2.71285 61.8434 2.25066 60.7881C1.87869 59.9811 1.92688 59.0728 1.91947 58.2065C1.92441 55.3333 1.91329 52.4613 1.92565 49.5893C1.4165 49.0344 0.89994 48.487 0.388321 47.9358C-0.0911662 47.4007 0.0114048 46.6419 0.0052258 45.9833C0.0287059 45.3814 -0.0899301 44.7351 0.195538 44.1765C0.466177 43.6068 1.09396 43.2373 1.72298 43.2546C2.7907 43.246 3.85966 43.2682 4.92862 43.2448C5.73807 41.6654 6.5747 40.0997 7.39279 38.524C7.69556 37.9519 7.95385 37.3228 8.46917 36.9039C9.22671 36.2255 10.2314 35.8263 11.2522 35.8386C14.4146 35.8399 17.5782 35.8411 20.7418 35.8386C19.5147 35.0094 18.5149 33.8688 17.8204 32.5638C15.077 32.455 12.3879 31.2885 10.465 29.3248C8.61623 27.5329 7.4484 25.065 7.22225 22.502C6.98128 20.0638 7.56828 17.5464 8.9017 15.4864C8.11326 13.4362 7.84757 11.1685 8.31593 9.01083C8.89305 6.18828 10.6046 3.61783 12.9897 2.00141ZM8.95607 38.7255C8.01934 40.5445 7.05419 42.3488 6.11499 44.1679C5.99759 44.441 5.77761 44.7042 5.45878 44.724C4.15131 44.787 2.83396 44.6684 1.53143 44.7808C1.43257 45.4964 1.51166 46.2243 1.49065 46.946C1.97879 47.4539 2.44468 47.9828 2.93529 48.4882C3.1392 48.7218 3.41972 48.9578 3.40242 49.2989C3.4086 52.3909 3.39995 55.484 3.40613 58.5772C3.42096 59.142 3.37523 59.7438 3.64464 60.2641C4.04503 61.1143 5.02131 61.6482 5.95433 61.49C6.88241 61.3664 7.62512 60.5916 7.81667 59.6919C7.1098 59.6759 6.40169 59.7154 5.69482 59.6771C5.14983 59.6351 4.84459 58.8874 5.22027 58.4833C5.51192 58.1064 6.02601 58.2213 6.43876 58.2065C15.0868 58.209 23.7349 58.209 32.383 58.2053C32.7871 58.2189 33.3 58.115 33.5817 58.4883C33.9228 58.8887 33.6732 59.6141 33.1344 59.6697C32.4238 59.7241 31.7095 59.6697 30.9977 59.6956C31.12 60.1146 31.2893 60.5347 31.6119 60.8412C32.252 61.5394 33.3704 61.7174 34.2008 61.2651C34.9522 60.8783 35.4305 60.0466 35.3971 59.2025C35.428 55.9487 35.4008 52.6949 35.4107 49.441C35.4082 49.1889 35.4391 48.9208 35.6307 48.7391C36.1126 48.2262 36.5859 47.7047 37.0753 47.1993C37.1902 47.0621 37.3484 46.9249 37.3237 46.7272C37.3225 46.1044 37.3496 45.4791 37.3064 44.8575C37.2817 44.8303 37.231 44.7771 37.2051 44.75C35.9693 44.7153 34.7298 44.7537 33.4927 44.7351C33.2023 44.7524 32.9144 44.5967 32.797 44.3285C31.7836 42.4094 30.7962 40.4778 29.7891 38.5562C29.5246 38.0099 28.9945 37.6343 28.4272 37.4501C27.4176 37.1375 26.3635 37.4934 25.3328 37.397C23.9771 37.2672 22.6141 37.3426 21.2547 37.3228C17.918 37.3228 14.5802 37.3228 11.2435 37.3228C10.3105 37.3204 9.32434 37.8369 8.95607 38.7255Z" />
<path d="M27.5992 20.3504C27.137 19.6769 27.9724 18.6945 28.6966 19.1295C30.7134 20.5716 32.7265 22.0188 34.7384 23.4696C35.5516 22.3932 36.3783 21.3255 37.1989 20.2553C37.5004 19.8017 38.2567 19.8351 38.5397 20.2887C38.6905 20.5024 38.6831 20.7756 38.6559 21.0239C38.4223 22.9258 38.1912 24.8277 37.9626 26.7308C41.5983 30.2837 45.234 33.8391 48.8746 37.3883C49.2478 37.7739 49.1576 38.4202 48.8301 38.807C48.41 39.3372 47.9886 39.8661 47.5746 40.4024C47.3769 40.6768 47.0815 40.9326 46.7194 40.8918C46.1324 40.8868 45.7283 40.1293 46.0644 39.6449C46.4166 39.132 46.8282 38.6624 47.2113 38.1718C43.8363 34.8376 40.4453 31.5195 37.0481 28.2064C36.7441 27.8801 36.251 27.5749 36.3289 27.0608C36.4413 25.9696 36.5859 24.8809 36.7046 23.7909C36.3215 24.2939 35.9557 24.8129 35.5441 25.2948C35.25 25.6433 34.6976 25.61 34.3652 25.3356C33.3074 24.5731 32.2458 23.8156 31.1892 23.0506C32.603 25.432 34.055 27.7911 35.4749 30.17C35.7802 30.6421 35.4008 31.3193 34.8558 31.3663C34.0723 31.4627 33.2839 31.501 32.5004 31.5863C33.9253 31.936 35.36 32.2437 36.7874 32.586C37.0209 32.6355 37.2038 32.7961 37.362 32.9666C40.1833 36.0784 43.0096 39.1864 45.8284 42.3006C46.0212 42.4823 46.0929 42.7393 46.0953 42.9988C46.5031 48.9356 46.9295 54.8711 47.3324 60.8078C47.4226 61.4319 46.6725 61.9571 46.1225 61.6395C45.7184 61.4467 45.6381 60.9598 45.6356 60.5594C45.2674 55.0799 44.8843 49.6029 44.5123 44.1246C44.4604 43.8008 44.5444 43.4239 44.3689 43.1372C41.7886 40.2776 39.2021 37.4217 36.623 34.5608C36.4314 34.3693 36.2831 34.0826 35.9878 34.048C33.0083 33.3732 30.0313 32.6886 27.053 32.0114C26.5686 31.9434 26.2324 31.4145 26.3956 30.9486C26.4833 30.589 26.8207 30.3381 27.1852 30.3245C29.2181 30.1354 31.251 29.934 33.2839 29.7511C33.0491 29.2593 32.7377 28.8119 32.4596 28.3448C30.8457 25.6767 29.2082 23.021 27.5992 20.3504Z" />
<path d="M47.7118 41.7618C47.9157 41.4949 48.2629 41.3837 48.5892 41.4343C49.6964 41.5554 50.8074 41.6457 51.9135 41.7767C52.2311 41.8026 52.4572 42.0695 52.5684 42.3501C54.5828 47.2129 56.5959 52.077 58.6139 56.9386C58.7672 57.3118 59.0081 57.748 58.761 58.1386C58.4928 58.7107 57.5586 58.7503 57.2953 58.1583C55.2489 53.2399 53.2308 48.3103 51.1868 43.3931C50.1945 43.2893 49.1984 43.2028 48.2086 43.0829C47.6401 42.9914 47.3324 42.2055 47.7118 41.7618Z" />
<path d="M8.44445 43.304C8.59027 43.2633 8.73856 43.2472 8.89057 43.2521C15.9432 43.2583 22.9959 43.2509 30.0473 43.2559C30.4156 43.2373 30.7962 43.5005 30.8308 43.8849C30.9173 44.3396 30.4996 44.7895 30.0375 44.7363C22.9947 44.7413 15.9519 44.7339 8.90911 44.74C8.61622 44.7573 8.28132 44.6869 8.11078 44.4237C7.84014 44.0542 8.00945 43.4585 8.44445 43.304Z" />
<path d="M11.4079 45.6435C11.6439 45.557 11.9232 45.594 12.1197 45.7547C12.7166 46.2564 13.2455 46.8397 13.8696 47.3093C14.4689 47.7443 15.2413 47.7147 15.9469 47.7048C18.6261 47.7023 21.3066 47.7048 23.987 47.7035C24.5159 47.7085 25.0584 47.5664 25.4749 47.229C26.0631 46.7458 26.5809 46.1786 27.1803 45.709C27.6289 45.3901 28.3444 45.7856 28.3024 46.3417C28.3073 46.8101 27.855 47.051 27.5634 47.3402C26.9665 47.8555 26.4438 48.487 25.7122 48.8182C25.1363 49.1037 24.4875 49.1939 23.8523 49.1877C20.9692 49.1828 18.0849 49.1902 15.2018 49.184C14.2564 49.184 13.3036 48.8491 12.6066 48.2016C12.1148 47.7468 11.6044 47.3118 11.1298 46.8385C10.7492 46.4838 10.9309 45.8091 11.4079 45.6435Z" />
<path d="M5.12388 51.4504C5.24746 51.1304 5.60584 50.9598 5.9358 51.0229C7.30135 51.2033 8.66566 51.3899 10.0287 51.5839C11.2633 51.7656 12.3026 52.8765 12.3706 54.1284C12.3941 54.7871 12.3693 55.447 12.378 56.1069C10.1845 56.1044 7.99092 56.1119 5.79739 56.1032C5.19309 56.1625 4.82235 55.3382 5.21904 54.902C5.41306 54.6351 5.75908 54.6178 6.05814 54.6215C7.67456 54.6252 9.28974 54.624 10.9049 54.6227C10.9939 53.9356 10.5651 53.2016 9.86438 53.0632C8.45929 52.8395 7.04307 52.6899 5.63797 52.4675C5.18938 52.3934 4.91256 51.8558 5.12388 51.4504Z" />
<path d="M28.8091 51.6024C30.1635 51.4195 31.5167 51.223 32.8724 51.0488C33.2332 50.9684 33.6126 51.1909 33.7201 51.5431C33.882 51.9571 33.5731 52.4637 33.1294 52.5021C31.7441 52.7084 30.3526 52.8728 28.9685 53.0841C28.2443 53.2015 27.8291 53.9628 27.9045 54.6548C29.6049 54.6585 31.3041 54.6486 33.0046 54.6573C33.473 54.6449 33.8511 55.1541 33.7139 55.6014C33.6213 55.9042 33.3222 56.1551 32.9947 56.1316C30.8086 56.1464 28.6212 56.1328 26.4351 56.1378C26.4524 55.4247 26.4005 54.7104 26.4611 54.0011C26.5908 52.7925 27.6128 51.7717 28.8091 51.6024Z" />
<path d="M16.8602 54.6894C18.4494 54.6066 20.0485 54.6796 21.6415 54.6524C22.1024 54.593 22.5609 55.0268 22.4756 55.4964C22.4213 55.8943 22.032 56.1823 21.6341 56.1378C20.0683 56.1279 18.5001 56.1588 16.9356 56.123C16.1929 56.0303 16.1397 54.8612 16.8602 54.6894Z" />
</svg>
