<svg   viewBox="0 0 51 47"  xmlns="http://www.w3.org/2000/svg">
<path d="M34.5364 0.755492C34.8715 0.306614 35.4175 0.019109 35.9783 0.00241516C37.1703 -0.0544675 38.3303 0.90079 38.4749 2.09038C38.5256 3.19094 38.1979 4.26738 38.2177 5.3667C38.2091 8.44021 38.0495 11.544 38.6035 14.5848C38.7649 15.4832 39.0005 16.3679 39.3047 17.2286C38.8509 18.0979 38.4001 18.9889 38.2177 19.9608C38.1182 20.4647 38.1015 20.9872 38.1874 21.4948C38.2468 21.9146 38.4725 22.2831 38.6654 22.6528C39.2775 23.7138 40.0503 24.6951 40.4646 25.8599C40.8943 27.1027 40.7521 28.44 40.9716 29.7199C41.0322 30.1107 41.1614 30.486 41.2647 30.8674C42.0462 33.6615 42.7665 36.4729 43.5777 39.2589C43.9313 41.0742 44.8347 42.7887 44.779 44.6745C46.773 44.6708 48.767 44.6738 50.7616 44.6732C50.7616 45.1753 50.7616 45.6773 50.7616 46.18C33.8408 46.18 16.9207 46.18 0 46.18C0 45.6749 0 45.1703 0 44.6652C1.92226 44.6652 3.84453 44.6924 5.76617 44.6417C6.54645 42.571 7.85661 40.7477 9.33741 39.1216C10.3248 38.0309 11.387 37.0108 12.4536 35.998C12.6756 35.7668 12.9495 35.5739 13.104 35.2864C14.2571 33.28 14.732 30.9855 15.6712 28.8858C16.0792 27.8694 16.0038 26.7521 16.1874 25.6893C16.7705 23.6384 18.0936 21.7792 19.9114 20.6477C20.7529 20.1172 21.7162 19.8452 22.6356 19.4884C25.9645 18.2549 29.3168 17.0839 32.6265 15.7997C32.6605 15.0578 32.7119 14.3146 32.8466 13.5838C33.2677 11.2949 33.0773 8.94474 33.4785 6.65336C33.7487 5.23747 33.6207 3.77646 33.9231 2.3649C34.0449 1.80287 34.2285 1.24456 34.5364 0.755492ZM34.8017 8.39261C34.7207 11.2874 34.2687 14.1538 34.0647 17.04C30.0198 18.3236 26.0887 19.9293 22.0847 21.3285C24.1838 22.4092 26.3156 23.4245 28.4246 24.4848C28.8414 24.6895 29.247 24.9183 29.6785 25.0914C31.5136 25.8537 33.4921 26.1443 35.4163 26.5951C35.6747 27.7185 36.1242 28.7832 36.5248 29.8602C36.706 30.3271 36.842 30.8099 37.0281 31.2749C38.6678 35.6289 40.1882 40.0274 41.8582 44.3696C41.9176 44.4587 42.0029 44.5353 42.1092 44.5638C42.4419 44.6714 42.7949 44.5966 43.1319 44.5508C43.3341 43.4428 42.8425 42.3893 42.5155 41.3592C42.3219 40.817 42.2552 40.2432 42.0919 39.6941C41.2844 36.6651 40.4058 33.6553 39.6083 30.6238C39.1439 29.1659 39.5155 27.559 38.9121 26.132C38.6419 25.5693 38.329 25.0271 37.9828 24.5083C37.4449 23.6718 36.8736 22.8155 36.6899 21.82C36.6052 21.4107 36.6491 20.9909 36.6126 20.5772C36.5861 19.447 37.1419 18.4274 37.4152 17.3566C37.4721 17.176 37.4344 16.9875 37.4152 16.8051C37.205 15.0497 36.8006 13.3191 36.7004 11.5514C36.6584 10.9109 36.6943 10.2691 36.6875 9.62795C36.6973 7.42066 36.5904 5.20347 36.8649 3.00668C36.936 2.54853 36.8006 2.09533 36.7159 1.6483C36.387 1.62295 36.058 1.59822 35.7291 1.5772C35.0459 3.7882 35.2518 6.14018 34.8017 8.39261ZM20.1748 22.2646C19.1398 23.2322 18.208 24.3748 17.7666 25.7406C17.6262 26.1233 17.6145 26.5351 17.5774 26.937C17.5161 27.6888 17.4679 28.4586 17.1922 29.1696C16.2116 31.5642 15.5469 34.0943 14.3214 36.3838C13.3767 37.2519 12.4196 38.1082 11.5175 39.0214C9.88954 40.6698 8.38463 42.4975 7.44235 44.6318C9.47282 44.6813 11.5058 44.7171 13.5356 44.617C12.7238 44.037 11.7698 43.713 10.8646 43.3118C11.4804 42.6706 12.108 42.0412 12.7034 41.3802C14.1693 39.7714 15.5722 38.1064 17.0141 36.4766C19.2585 33.4933 21.4145 30.4458 23.6131 27.4291C25.6541 29.6414 27.632 31.9099 29.6946 34.1011C30.2721 34.6538 30.6764 35.3612 30.9615 36.1025C31.3943 37.1993 31.5884 38.3772 32.0701 39.4561C32.8423 41.306 33.8075 43.1343 35.2914 44.5149C35.3489 44.5768 35.4422 44.5675 35.5195 44.5867C36.8408 44.7567 38.1757 44.6782 39.5019 44.6219C38.7161 44.1267 37.7874 43.9164 36.8705 43.849C34.5735 38.5552 32.386 33.2145 30.1342 27.9015C30.0112 27.635 29.9438 27.3395 29.7577 27.1064C29.4287 26.6761 28.9403 26.4108 28.4611 26.1808C25.6634 24.9516 22.9923 23.4523 20.1748 22.2646ZM31.6298 27.3772C33.6096 32.4231 35.862 37.3552 37.8684 42.3899C38.4354 42.542 39.0098 42.6681 39.5743 42.8338C37.8702 37.8244 35.9795 32.8806 34.1469 27.9176C33.3116 27.7222 32.4831 27.4848 31.6298 27.3772ZM18.1388 37.5474C16.5856 39.2007 15.2211 41.0247 13.6061 42.6211C14.3221 43.2295 14.9552 43.9282 15.5308 44.6689C21.472 44.6423 27.4131 44.7381 33.3536 44.6225C32.6173 43.8002 31.9959 42.8783 31.4839 41.9014C30.8879 40.7372 30.3729 39.5241 30.0396 38.2566C29.762 37.2834 29.4893 36.2614 28.8247 35.47C27.1262 33.6108 25.4333 31.7466 23.7244 29.8967C21.8726 32.454 20.0474 35.0316 18.1388 37.5474Z" />
<path d="M42.7548 15.2984C44.873 14.9429 47.0642 16.1213 48.1394 17.9409C48.7676 18.8239 48.8325 19.9572 48.7652 21.0027C48.7219 21.4188 48.7491 21.8516 48.5995 22.2492C47.9966 24.0088 46.4441 25.4148 44.6269 25.8217C43.4281 26.0906 42.1346 25.8742 41.0755 25.2578C39.9941 24.6302 39.1427 23.6273 38.666 22.4742C38.3482 21.7199 38.1973 20.8896 38.3062 20.074C38.5733 17.7598 40.4529 15.7095 42.7548 15.2984ZM42.9421 16.849C41.6245 17.1279 40.5815 18.1734 40.0374 19.371C39.7783 19.8743 39.7542 20.4617 39.8309 21.0126C39.9997 22.055 40.6204 22.9967 41.4582 23.628C42.2601 24.2407 43.3285 24.5603 44.3271 24.3205C45.0152 24.1405 45.6502 23.7689 46.164 23.2786C46.8076 22.6535 47.2602 21.7954 47.2745 20.8859C47.2633 20.5056 47.2955 20.1198 47.2132 19.7451C46.8311 17.8803 44.8297 16.4676 42.9421 16.849Z" />
</svg>
