<svg  viewBox="0 0 38 36" xmlns="http://www.w3.org/2000/svg">
    <path fill-rule="evenodd" clip-rule="evenodd"
          d="M0.816895 0.183228H24.0169V17.4591C24.0169 17.7905 23.7483 18.0591 23.4169 18.0591C23.0855 18.0591 22.8169 17.7905 22.8169 17.4591V1.38323H2.01689V22.1832H18.2383C18.5697 22.1832 18.8383 22.4519 18.8383 22.7832C18.8383 23.1146 18.5697 23.3832 18.2383 23.3832H0.816895V0.183228Z"
          />
    <path fill-rule="evenodd" clip-rule="evenodd"
          d="M9.55605 0.183228C9.88743 0.183228 10.1561 0.451857 10.1561 0.783228V11.1428L12.9283 8.99886L15.687 11.1401V2.34773C15.687 2.01636 15.9557 1.74773 16.287 1.74773C16.6184 1.74773 16.887 2.01636 16.887 2.34773V13.5906L12.9269 10.5169L8.95605 13.5879V0.783228C8.95605 0.451857 9.22468 0.183228 9.55605 0.183228Z"
          />
    <path fill-rule="evenodd" clip-rule="evenodd"
          d="M32.5356 23.3185C32.7922 23.5282 32.8304 23.9061 32.6208 24.1628L28.2508 29.5134L25.0186 26.6385C24.771 26.4183 24.7488 26.0391 24.9691 25.7915C25.1893 25.5439 25.5685 25.5217 25.8161 25.7419L28.1131 27.7849L31.6914 23.4037C31.901 23.1471 32.2789 23.1089 32.5356 23.3185Z"
          />
    <path fill-rule="evenodd" clip-rule="evenodd"
          d="M28.1373 16.7456L28.1345 16.7482L28.1147 16.7657C28.0959 16.7822 28.0657 16.8081 28.0244 16.8419C27.9418 16.9096 27.8153 17.0089 27.647 17.1278C27.3102 17.3659 26.8083 17.6814 26.1597 17.9808C24.8638 18.5791 22.988 19.1112 20.6664 18.8408L20.0715 18.7716L20.0011 19.3664L20.597 19.4368C20.0011 19.3664 20.0012 19.366 20.0011 19.3664L20.001 19.3678L20.0006 19.3705L19.9996 19.3793L19.9962 19.4109C19.9933 19.438 19.9893 19.4773 19.9846 19.5278C19.9752 19.629 19.9628 19.7756 19.9507 19.9621C19.9264 20.3349 19.9028 20.8677 19.9049 21.5148C19.9091 22.8066 20.0154 24.5658 20.4281 26.4222C21.2512 30.1239 23.3299 34.3382 28.374 35.8391L28.5453 35.89L28.7166 35.839C33.752 34.3379 35.8305 30.1236 36.6556 26.4225C37.0694 24.5663 37.1774 22.8072 37.183 21.5154C37.1857 20.8684 37.1628 20.3356 37.139 19.9628C37.127 19.7764 37.1149 19.6297 37.1056 19.5286C37.1009 19.478 37.097 19.4388 37.0941 19.4117L37.0907 19.3801L37.0898 19.3712L37.0894 19.3686C37.0894 19.3683 37.0893 19.3671 36.4933 19.4368L37.0893 19.3671L37.0196 18.7715L36.4239 18.8408C34.1023 19.1112 32.2266 18.5791 30.9306 17.9808C30.282 17.6814 29.7801 17.3659 29.4433 17.1278C29.275 17.0089 29.1485 16.9096 29.0659 16.8419C29.0247 16.8081 28.9944 16.7822 28.9756 16.7657L28.9558 16.7482L28.9533 16.7459L28.9524 16.7451L28.5452 16.3671L28.1373 16.7456C28.1375 16.7454 28.1375 16.7454 28.1373 16.7456ZM35.9445 20.0887C33.6417 20.2373 31.7614 19.6861 30.4276 19.0703C29.7025 18.7355 29.1374 18.3811 28.7507 18.1078C28.6755 18.0546 28.6069 18.0044 28.5452 17.958C28.4834 18.0044 28.4148 18.0546 28.3396 18.1078C27.9529 18.3811 27.3878 18.7355 26.6627 19.0703C25.3288 19.6862 23.4482 20.2374 21.1451 20.0887C21.1234 20.4357 21.103 20.9228 21.1049 21.511C21.1089 22.7457 21.2109 24.414 21.5995 26.1617C22.369 29.6225 24.2255 33.2714 28.545 34.6364C32.856 33.2715 34.7127 29.6227 35.4844 26.1614C35.874 24.4136 35.9777 22.7451 35.983 21.5103C35.9855 20.9225 35.9657 20.4357 35.9445 20.0887Z"
          />
</svg>
