<svg  viewBox="0 0 29 28" xmlns="http://www.w3.org/2000/svg">
    <path fill-rule="evenodd" clip-rule="evenodd"
          d="M14.4615 4.5C9.21483 4.5 4.96153 8.75329 4.96153 14C4.96153 19.2467 9.21483 23.5 14.4615 23.5C19.7082 23.5 23.9615 19.2467 23.9615 14C23.9615 8.75329 19.7082 4.5 14.4615 4.5ZM3.96153 14C3.96153 8.20101 8.66254 3.5 14.4615 3.5C20.2605 3.5 24.9615 8.20101 24.9615 14C24.9615 19.799 20.2605 24.5 14.4615 24.5C8.66254 24.5 3.96153 19.799 3.96153 14ZM14.4615 7.5C14.7377 7.5 14.9615 7.72386 14.9615 8V13.691L18.6851 15.5528C18.9321 15.6763 19.0322 15.9766 18.9087 16.2236C18.7853 16.4706 18.4849 16.5707 18.2379 16.4472L14.2379 14.4472C14.0685 14.3625 13.9615 14.1894 13.9615 14V8C13.9615 7.72386 14.1854 7.5 14.4615 7.5Z"
          />
</svg>
