<svg  viewBox="0 0 15 14" xmlns="http://www.w3.org/2000/svg">
    <path d="M9.29425 7.07166L14.014 10.0554V3.96191L9.29425 7.07166Z" />
    <path d="M0.0140381 3.96191V10.0554L4.73379 7.07166L0.0140381 3.96191Z" />
    <path d="M13.139 2.1875H0.889033C0.452408 2.1875 0.105908 2.513 0.0402832 2.93213L7.01403 7.52675L13.9878 2.93213C13.9222 2.513 13.5757 2.1875 13.139 2.1875Z"
          />
    <path d="M8.49286 7.60048L7.25474 8.41598C7.18124 8.46411 7.09811 8.48773 7.01411 8.48773C6.93011 8.48773 6.84699 8.46411 6.77349 8.41598L5.53536 7.59961L0.0421143 11.0742C0.109489 11.4899 0.454239 11.8127 0.889114 11.8127H13.1391C13.574 11.8127 13.9187 11.4899 13.9861 11.0742L8.49286 7.60048Z"
          />
</svg>
