<svg   viewBox="0 0 49 51" xmlns="http://www.w3.org/2000/svg">
    <path fill-rule="evenodd" clip-rule="evenodd"
          d="M35.3796 29.7914C35.6593 30.0969 35.6383 30.5713 35.3327 30.851L33.5784 32.4567C32.7368 33.2583 31.6214 33.6432 30.5006 33.6432H19.5221C18.3833 33.6432 17.2773 33.2173 16.4507 32.4626L14.6899 30.851C14.3844 30.5713 14.3634 30.0969 14.643 29.7914C14.9227 29.4858 15.3971 29.4648 15.7027 29.7445L17.4621 31.3549C17.4623 31.355 17.462 31.3547 17.4621 31.3549C18.0078 31.8529 18.7517 32.1432 19.5221 32.1432H30.5006C31.2863 32.1432 32.0178 31.8737 32.5478 31.3667L32.5599 31.3555L34.32 29.7445C34.6256 29.4648 35.1 29.4858 35.3796 29.7914Z"
          />
    <path fill-rule="evenodd" clip-rule="evenodd"
          d="M42.3118 36.8786C42.3679 37.289 42.0808 37.6672 41.6704 37.7234L36.6604 38.4093C36.6601 38.4093 36.6607 38.4092 36.6604 38.4093C35.7504 38.5367 35.0991 39.2921 35.0991 40.2023V40.7053H41.5389C41.9531 40.7053 42.2889 41.041 42.2889 41.4553C42.2889 41.8695 41.9531 42.2053 41.5389 42.2053H33.5991V40.2023C33.5991 38.5471 34.7979 37.1546 36.4531 36.9237L36.455 36.9234L41.467 36.2372C41.8773 36.1811 42.2556 36.4682 42.3118 36.8786Z"
          />
    <path fill-rule="evenodd" clip-rule="evenodd"
          d="M7.2038 36.8786C7.25998 36.4682 7.63821 36.1811 8.0486 36.2372L13.0649 36.924C14.6808 37.1548 15.9164 38.5397 15.9164 40.2023V42.2053H7.94687C7.53265 42.2053 7.19687 41.8695 7.19687 41.4553C7.19687 41.041 7.53265 40.7053 7.94687 40.7053H14.4164V40.2023C14.4164 39.2999 13.7438 38.5372 12.8547 38.4092L7.84514 37.7234C7.43475 37.6672 7.14761 37.289 7.2038 36.8786Z"
          />
    <path fill-rule="evenodd" clip-rule="evenodd"
          d="M4.06885 33.1576C4.48306 33.1576 4.81885 33.4934 4.81885 33.9076V45.8408C4.81885 46.255 4.48306 46.5908 4.06885 46.5908C3.65463 46.5908 3.31885 46.255 3.31885 45.8408V33.9076C3.31885 33.4934 3.65463 33.1576 4.06885 33.1576Z"
          />
    <path fill-rule="evenodd" clip-rule="evenodd"
          d="M11.9811 20.2936L8.07438 27.752C7.94493 27.9991 7.68899 28.154 7.41 28.154H2.8754C2.64575 28.154 2.46191 28.3426 2.46191 28.5674V30.9242C2.46191 30.9766 2.47299 31.0364 2.49529 31.0908C2.5174 31.1447 2.544 31.1778 2.56379 31.1951C2.58308 31.212 2.6015 31.2299 2.61896 31.2486L4.61777 33.3966C4.89994 33.6998 4.88287 34.1744 4.57964 34.4566C4.27641 34.7388 3.80184 34.7217 3.51966 34.4185L1.5432 32.2945C1.13618 31.919 0.961914 31.3848 0.961914 30.9242V28.5674C0.961914 27.5393 1.7924 26.654 2.8754 26.654H6.9562L10.6836 19.538C10.7034 19.5003 10.7263 19.4643 10.7522 19.4305C11.6647 18.2371 13.1051 17.4952 14.6296 17.4952H34.916C36.4305 17.4952 37.8792 18.1998 38.7997 19.4388C38.823 19.4702 38.8438 19.5034 38.862 19.538L42.5893 26.654H46.6701C47.6983 26.654 48.5836 27.4844 48.5836 28.5674V30.9242C48.5836 31.4243 48.4027 31.9267 48.002 32.2949L46.2268 34.2025V45.8407C46.2268 46.2549 45.891 46.5907 45.4768 46.5907C45.0626 46.5907 44.7268 46.2549 44.7268 45.8407V33.9075C44.7268 33.7179 44.7986 33.5354 44.9278 33.3966L46.9266 31.2486C46.944 31.2299 46.9625 31.212 46.9818 31.1951C47.0357 31.148 47.0836 31.0672 47.0836 30.9242V28.5674C47.0836 28.3378 46.895 28.154 46.6701 28.154H42.1355C41.8566 28.154 41.6006 27.9991 41.4712 27.752L37.5619 20.2888C36.9296 19.467 35.9486 18.9952 34.916 18.9952H14.6296C13.6086 18.9952 12.6213 19.4868 11.9811 20.2936Z"
          />
    <path fill-rule="evenodd" clip-rule="evenodd"
          d="M38.1377 45.0907C38.5519 45.0907 38.8877 45.4265 38.8877 45.8407V46.2882C38.8877 47.8728 40.1927 49.1778 41.7773 49.1778C43.3619 49.1778 44.6669 47.8728 44.6669 46.2882V45.8407C44.6669 45.4265 45.0027 45.0907 45.4169 45.0907C45.8311 45.0907 46.1669 45.4265 46.1669 45.8407V46.2882C46.1669 48.7012 44.1903 50.6778 41.7773 50.6778C39.3643 50.6778 37.3877 48.7012 37.3877 46.2882V45.8407C37.3877 45.4265 37.7235 45.0907 38.1377 45.0907Z"
          />
    <path fill-rule="evenodd" clip-rule="evenodd"
          d="M4.09863 45.0907C4.51285 45.0907 4.84863 45.4265 4.84863 45.8407V46.2882C4.84863 47.8728 6.15366 49.1778 7.73825 49.1778C9.32285 49.1778 10.6279 47.8728 10.6279 46.2882V45.8407C10.6279 45.4265 10.9637 45.0907 11.3779 45.0907C11.7921 45.0907 12.1279 45.4265 12.1279 45.8407V46.2882C12.1279 48.7012 10.1513 50.6778 7.73825 50.6778C5.32523 50.6778 3.34863 48.7012 3.34863 46.2882V45.8407C3.34863 45.4265 3.68442 45.0907 4.09863 45.0907Z"
          />
    <path fill-rule="evenodd" clip-rule="evenodd"
          d="M7.19727 45.8407C7.19727 45.4265 7.53305 45.0907 7.94727 45.0907H41.5392C41.9534 45.0907 42.2892 45.4265 42.2892 45.8407C42.2892 46.2549 41.9534 46.5907 41.5392 46.5907H7.94727C7.53305 46.5907 7.19727 46.2549 7.19727 45.8407Z"
          />
    <path fill-rule="evenodd" clip-rule="evenodd"
          d="M21.1289 41.4552C21.1289 41.041 21.4647 40.7052 21.8789 40.7052H27.6367C28.0509 40.7052 28.3867 41.041 28.3867 41.4552C28.3867 41.8694 28.0509 42.2052 27.6367 42.2052H21.8789C21.4647 42.2052 21.1289 41.8694 21.1289 41.4552Z"
          />
    <path fill-rule="evenodd" clip-rule="evenodd"
          d="M10.8066 27.4041C10.8066 26.9898 11.1424 26.6541 11.5566 26.6541H37.9588C38.373 26.6541 38.7088 26.9898 38.7088 27.4041C38.7088 27.8183 38.373 28.1541 37.9588 28.1541H11.5566C11.1424 28.1541 10.8066 27.8183 10.8066 27.4041Z"
          />
    <path fill-rule="evenodd" clip-rule="evenodd"
          d="M26.5277 2.82364C24.5545 3.54062 22.7658 4.6333 21.5116 6.21182L21.51 6.21378C19.183 9.12256 18.4464 14.142 19.5289 18.0448C19.6397 18.4439 19.4058 18.8573 19.0067 18.968C18.6076 19.0787 18.1942 18.8449 18.0835 18.4457C16.8989 14.1747 17.6537 8.63395 20.3379 5.27772C22.2076 2.92518 25.0064 1.58045 27.7792 0.871834L29.5223 0.426392L28.6121 1.97762L28.6116 1.97849L28.6083 1.98406L28.5934 2.01016C28.5798 2.03408 28.5592 2.07081 28.5326 2.11927C28.4795 2.21623 28.4029 2.35982 28.3118 2.54132C28.1292 2.90516 27.8907 3.41707 27.667 4.00814C27.208 5.22116 26.8606 6.64296 27.0628 7.79319L27.0634 7.79661C27.1971 8.57796 27.7772 9.07024 28.4842 9.20349C29.1983 9.33806 29.9652 9.08889 30.4183 8.42508L30.4203 8.42208C30.6103 8.14668 30.7937 7.85494 30.9841 7.5521C31.9303 6.04714 33.0486 4.26843 35.9922 2.86216C38.5517 1.61528 41.6105 1.39378 44.3239 2.22376L46.0626 2.75559L44.4546 3.60425C42.4343 4.67055 40.0973 6.95227 39.0063 8.96643L39.0006 8.97696C38.4939 9.87764 38.1771 10.7518 38.2015 11.6314C38.2259 12.5101 38.6379 13.2928 39.2903 13.6423C40.1064 14.0564 41.3346 13.7116 42.1563 12.8386C42.5645 12.4049 43.0194 11.6993 43.4325 10.9093C43.8412 10.1278 44.1809 9.31786 44.3744 8.70998L44.8294 7.27983L45.7 8.50233C47.208 10.62 47.9137 13.3104 47.6243 15.8828L47.6241 15.8849C47.4323 17.5471 46.8567 19.1846 45.9197 20.5739L45.9159 20.5795C45.5575 21.1008 45.1351 21.5885 44.6792 22.0125C43.8549 22.8025 42.8783 23.3849 41.8569 23.8005L40.4603 24.3948C40.0791 24.557 39.6387 24.3795 39.4765 23.9983C39.3143 23.6172 39.4918 23.1768 39.873 23.0146L41.2864 22.4131C42.1704 22.054 42.9799 21.5645 43.6448 20.9262L43.6538 20.9175C44.0306 20.5676 44.3817 20.1629 44.678 19.7324C45.47 18.557 45.9676 17.1531 46.1338 15.7142C46.3268 13.997 45.9996 12.2063 45.2307 10.6376C45.0869 10.9581 44.929 11.2846 44.7617 11.6044C44.3246 12.4404 43.795 13.2861 43.2486 13.8667C42.1626 15.0206 40.2318 15.8098 38.6016 14.9748L38.5916 14.9697C37.3376 14.3035 36.7373 12.94 36.7021 11.673C36.6669 10.4068 37.1242 9.25418 37.6902 8.24679C38.6413 6.49351 40.3706 4.61708 42.1527 3.29787C40.279 3.08108 38.3312 3.39064 36.6468 4.21178L36.6413 4.21445C34.1107 5.42277 33.2194 6.83119 32.2893 8.30094C32.0859 8.6223 31.8807 8.94659 31.6561 9.27236C30.8262 10.4867 29.4309 10.9083 28.2064 10.6775C26.9748 10.4454 25.8399 9.53617 25.5852 8.05123C25.3107 6.4871 25.7835 4.74742 26.2641 3.4773C26.3512 3.24702 26.4402 3.02807 26.5277 2.82364Z"
          />
</svg>
