<svg   viewBox="0 0 42 33" xmlns="http://www.w3.org/2000/svg">
    <path d="M41.94 26.6914C41.94 24.6514 40.74 22.5514 38.46 22.5514H37.5C37.14 22.5514 36.84 22.4314 36.54 22.1914L32.04 18.4714C31.5329 18.0523 30.8977 17.8194 30.24 17.8114H21.9C20.94 17.8114 20.04 18.2914 19.5 19.1314L18.54 20.6314C18.24 21.0514 17.76 21.3514 17.28 21.3514C16.8914 21.3511 16.5069 21.4293 16.1494 21.5815C15.7919 21.7337 15.4689 21.9566 15.1999 22.2369C14.9308 22.5172 14.7212 22.849 14.5838 23.2124C14.4463 23.5758 14.3838 23.9632 14.4 24.3514V26.7514C14.3969 27.4347 14.6272 28.0985 15.0527 28.6331C15.4782 29.1677 16.0734 29.5411 16.74 29.6914C16.98 31.0714 18.18 32.0914 19.56 32.0914C20.94 32.0914 22.14 31.0714 22.38 29.6914H33.9C34.2 31.0714 35.34 32.0914 36.72 32.0914C38.16 32.0914 39.3 31.0714 39.54 29.6914C40.2278 29.5511 40.8447 29.1741 41.2832 28.626C41.7217 28.0778 41.9541 27.3932 41.94 26.6914ZM19.56 30.8314C18.6 30.8314 17.88 30.0514 17.88 29.0314C17.88 28.0714 18.66 27.2314 19.56 27.2314C20.52 27.2314 21.24 28.0114 21.24 29.0314C21.24 29.9914 20.46 30.8314 19.56 30.8314ZM36.78 30.8314C35.82 30.8314 35.1 30.0514 35.1 29.0314C35.1 28.0714 35.88 27.2314 36.78 27.2314C37.74 27.2314 38.46 28.0114 38.46 29.0314C38.46 29.9914 37.68 30.8314 36.78 30.8314ZM39.54 28.3714C39.4024 27.7257 39.0472 27.1469 38.5339 26.7318C38.0205 26.3168 37.3801 26.0907 36.72 26.0914C36.0428 26.096 35.3888 26.3392 34.8731 26.7781C34.3574 27.217 34.0128 27.8236 33.9 28.4914H22.38C22.08 27.1114 20.94 26.0914 19.56 26.0914C18.8998 26.0907 18.2594 26.3168 17.7461 26.7318C17.2327 27.1469 16.8775 27.7257 16.74 28.3714C16.3918 28.2483 16.0898 28.0211 15.8752 27.7205C15.6605 27.42 15.5435 27.0607 15.54 26.6914V24.2914C15.54 23.3314 16.32 22.4914 17.22 22.4914C18.12 22.4914 19.02 22.0114 19.5 21.2314L20.46 19.7314C20.76 19.2514 21.3 18.9514 21.84 18.9514H30.12C30.5094 18.9514 30.8884 19.0777 31.2 19.3114L35.7 23.0314C36.18 23.4514 36.78 23.6314 37.44 23.6314H38.4C40.08 23.6314 40.68 25.3714 40.68 26.5714C40.74 27.5914 40.2 28.1314 39.54 28.3714Z"
          />
    <path d="M33.3 22.4914H28.2V20.6914C28.2 20.3314 27.96 20.0914 27.6 20.0914C27.24 20.0914 27 20.3314 27 20.6914V23.0914C27 23.4514 27.24 23.6914 27.6 23.6914H33.36C33.72 23.6914 33.96 23.4514 33.96 23.0914C33.96 22.7314 33.66 22.4914 33.3 22.4914ZM25.26 22.4914H21.6L22.32 20.9914C22.44 20.6914 22.32 20.3314 22.02 20.2114C21.72 20.0914 21.36 20.2114 21.24 20.5114L20.1 22.9114C20.04 23.0914 20.04 23.3314 20.16 23.5114C20.28 23.6914 20.46 23.8114 20.64 23.8114H25.2C25.56 23.8114 25.8 23.5714 25.8 23.2114C25.8 22.8514 25.62 22.4914 25.26 22.4914ZM29.88 24.8914H28.74C28.38 24.8914 28.14 25.1314 28.14 25.4914C28.14 25.8514 28.38 26.0914 28.74 26.0914H29.88C30.24 26.0914 30.48 25.8514 30.48 25.4914C30.48 25.1314 30.18 24.8914 29.88 24.8914Z"
          />
    <path d="M14.28 30.8314C9.17997 29.2714 1.79998 24.3514 1.79998 19.6714V5.81143L14.1 2.03143L26.4 5.81143V14.6914C26.4 15.0514 26.64 15.2914 27 15.2914C27.36 15.2914 27.6 15.0514 27.6 14.6914V5.33143C27.6 5.09143 27.42 4.85143 27.18 4.73143L14.28 0.831434C14.2252 0.799838 14.1632 0.783203 14.1 0.783203C14.0368 0.783203 13.9747 0.799838 13.92 0.831434L1.01998 4.79143C0.779975 4.85143 0.599976 5.09143 0.599976 5.39143V19.7314C0.599976 25.4314 9.29998 30.5314 13.92 32.0314H14.1C14.34 32.0314 14.58 31.8514 14.7 31.6114C14.76 31.3114 14.58 30.9514 14.28 30.8314Z"
          />
</svg>
