<svg xmlns="http://www.w3.org/2000/svg"
     viewBox="0 0 26.8 30.9">
    <path d="M6.5,0.5C6.5,0.2,6.7,0,7,0h12.9c0.3,0,0.5,0.2,0.5,0.5v0.8h2.1c0.9,0,1.8,0.7,1.8,1.8v27.3c0,0.3-0.2,0.5-0.5,0.5H16
	c-0.3,0-0.5-0.2-0.5-0.5v-8.6h-4.2v8.6c0,0.3-0.2,0.5-0.5,0.5H3.1c-0.3,0-0.5-0.2-0.5-0.5V3.1c0-1,0.8-1.8,1.8-1.8h2.1V0.5z M7.5,1
	v0.8c0,0.3-0.2,0.5-0.5,0.5H4.4c-0.5,0-0.8,0.4-0.8,0.8v26.8h6.7v-8.6c0-0.3,0.2-0.5,0.5-0.5H16c0.3,0,0.5,0.2,0.5,0.5v8.6h6.7V3.1
	c0-0.4-0.4-0.8-0.8-0.8h-2.6c-0.3,0-0.5-0.2-0.5-0.5V1H7.5z"/>
    <path d="M5.2,5.7c0-0.3,0.2-0.5,0.5-0.5h2.6c0.3,0,0.5,0.2,0.5,0.5v3.9c0,0.3-0.2,0.5-0.5,0.5H5.7c-0.3,0-0.5-0.2-0.5-0.5V5.7z
	 M6.2,6.2v2.9h1.6V6.2H6.2z M11.6,5.7c0-0.3,0.2-0.5,0.5-0.5h2.6c0.3,0,0.5,0.2,0.5,0.5v3.9c0,0.3-0.2,0.5-0.5,0.5h-2.6
	c-0.3,0-0.5-0.2-0.5-0.5V5.7z M12.6,6.2v2.9h1.6V6.2H12.6z M18.1,5.7c0-0.3,0.2-0.5,0.5-0.5h2.6c0.3,0,0.5,0.2,0.5,0.5v3.9
	c0,0.3-0.2,0.5-0.5,0.5h-2.6c-0.3,0-0.5-0.2-0.5-0.5V5.7z M19.1,6.2v2.9h1.6V6.2H19.1z M5.2,13.5c0-0.3,0.2-0.5,0.5-0.5h2.6
	c0.3,0,0.5,0.2,0.5,0.5v3.9c0,0.3-0.2,0.5-0.5,0.5H5.7c-0.3,0-0.5-0.2-0.5-0.5V13.5z M6.2,14v2.9h1.6V14H6.2z M11.6,13.5
	c0-0.3,0.2-0.5,0.5-0.5h2.6c0.3,0,0.5,0.2,0.5,0.5v3.9c0,0.3-0.2,0.5-0.5,0.5h-2.6c-0.3,0-0.5-0.2-0.5-0.5V13.5z M12.6,14v2.9h1.6
	V14H12.6z M18.1,13.5c0-0.3,0.2-0.5,0.5-0.5h2.6c0.3,0,0.5,0.2,0.5,0.5v3.9c0,0.3-0.2,0.5-0.5,0.5h-2.6c-0.3,0-0.5-0.2-0.5-0.5V13.5
	z M19.1,14v2.9h1.6V14H19.1z M5.2,21.3c0-0.3,0.2-0.5,0.5-0.5h2.6c0.3,0,0.5,0.2,0.5,0.5v3.9c0,0.3-0.2,0.5-0.5,0.5H5.7
	c-0.3,0-0.5-0.2-0.5-0.5V21.3z M6.2,21.8v2.9h1.6v-2.9H6.2z M18.1,21.3c0-0.3,0.2-0.5,0.5-0.5h2.6c0.3,0,0.5,0.2,0.5,0.5v3.9
	c0,0.3-0.2,0.5-0.5,0.5h-2.6c-0.3,0-0.5-0.2-0.5-0.5V21.3z M19.1,21.8v2.9h1.6v-2.9H19.1z"/>
    <path d="M0,30.4c0-0.3,0.2-0.5,0.5-0.5h2.6c0.3,0,0.5,0.2,0.5,0.5c0,0.3-0.2,0.5-0.5,0.5H0.5C0.2,30.9,0,30.7,0,30.4z M23.2,30.4
	c0-0.3,0.2-0.5,0.5-0.5h2.6c0.3,0,0.5,0.2,0.5,0.5c0,0.3-0.2,0.5-0.5,0.5h-2.6C23.4,30.9,23.2,30.7,23.2,30.4z"/>
</svg>
