<svg  viewBox="0 0 13 14" xmlns="http://www.w3.org/2000/svg">
    <path d="M5.89941 0.457031H7.24707V6.30176H12.7988V7.64941H7.24707V13.4941H5.89941V7.64941H0.347656V6.30176H5.89941V0.457031Z"
          />
</svg>
