<svg   viewBox="0 0 39 41" xmlns="http://www.w3.org/2000/svg">
    <path d="M34.4878 4.23068C33.4954 3.31835 29.4779 0.397277 20.5227 0.357263C20.5227 0.357263 9.96681 -0.282971 4.82092 4.43876C1.95588 7.3038 0.947508 11.4893 0.84347 16.6912C0.739432 21.8851 0.603382 31.6247 9.99082 34.2657H9.99882L9.99082 38.2911C9.99082 38.2911 9.9348 39.9237 11.0072 40.2519C12.3037 40.652 13.0719 39.4115 14.3124 38.0751C14.9926 37.3388 15.929 36.2664 16.6412 35.4421C23.0596 35.9783 27.9974 34.7458 28.5576 34.5618C29.8541 34.1376 37.1928 33.2013 38.3852 23.4617C39.6176 13.442 37.785 7.09573 34.4878 4.23068ZM35.5762 22.7575C34.5678 30.8884 28.6216 31.4006 27.5252 31.7527C27.0611 31.9048 22.7235 32.9852 17.2655 32.6251C17.2655 32.6251 13.2 37.5309 11.9355 38.8033C11.7355 39.0034 11.5034 39.0834 11.3513 39.0434C11.1352 38.9874 11.0712 38.7313 11.0792 38.3552C11.0792 37.811 11.1112 31.6567 11.1112 31.6567C11.1032 31.6567 11.1032 31.6567 11.1112 31.6567C3.16432 29.4559 3.62849 21.1649 3.71652 16.8273C3.80455 12.4897 4.62085 8.9284 7.04574 6.53552C11.3913 2.59808 20.3626 3.1823 20.3626 3.1823C27.9334 3.21431 31.5587 5.49514 32.399 6.25542C35.192 8.6563 36.6166 14.3784 35.5762 22.7575Z"
          />
    <path d="M24.2121 16.9794C23.948 16.9794 23.724 16.7713 23.7079 16.4992C23.6199 14.7786 22.8116 13.9382 21.163 13.8502C20.8829 13.8342 20.6668 13.5941 20.6828 13.314C20.6988 13.0339 20.9389 12.8178 21.219 12.8338C23.3958 12.9539 24.6123 14.2023 24.7243 16.4432C24.7403 16.7233 24.5242 16.9634 24.2441 16.9714C24.2281 16.9794 24.2201 16.9794 24.2121 16.9794Z"
          />
    <path d="M26.805 17.8439H26.797C26.5169 17.8358 26.2928 17.6038 26.3008 17.3237C26.3408 15.595 25.8447 14.1945 24.7883 13.0421C23.7399 11.8897 22.2914 11.2654 20.3787 11.1294C20.0986 11.1054 19.8905 10.8653 19.9145 10.5852C19.9385 10.3051 20.1786 10.097 20.4587 10.121C22.6195 10.2811 24.3241 11.0334 25.5405 12.3618C26.765 13.6983 27.3572 15.3709 27.3172 17.3477C27.3092 17.6278 27.0771 17.8439 26.805 17.8439Z"
          />
    <path d="M29.462 18.884C29.1819 18.884 28.9578 18.6599 28.9578 18.3798C28.9338 15.2827 28.0455 12.9218 26.2368 11.1532C24.4522 9.40853 22.1873 8.52021 19.5224 8.4962C19.2423 8.4962 19.0182 8.26411 19.0182 7.98401C19.0182 7.70391 19.2503 7.47983 19.5224 7.47983C22.4594 7.50384 24.9564 8.4882 26.9331 10.4249C28.9178 12.3616 29.9342 15.0346 29.9662 18.3638C29.9742 18.6519 29.7501 18.884 29.462 18.884C29.47 18.884 29.47 18.884 29.462 18.884Z"
          />
    <path d="M21.283 23.2455C21.283 23.2455 21.9953 23.3096 22.3794 22.8374L23.1237 21.901C23.4838 21.4369 24.3561 21.1408 25.2044 21.6129C25.6766 21.877 26.5329 22.4052 27.0611 22.7974C27.6293 23.2135 28.7817 24.1739 28.7897 24.1819C29.3419 24.6461 29.47 25.3263 29.0938 26.0546C29.0938 26.0546 29.0938 26.0626 29.0938 26.0706C28.7097 26.7508 28.1895 27.3911 27.5413 27.9833C27.5333 27.9833 27.5333 27.9913 27.5253 27.9913C26.9891 28.4394 26.4609 28.6955 25.9487 28.7516C25.8847 28.7676 25.8126 28.7676 25.7166 28.7676C25.4925 28.7676 25.2684 28.7355 25.0444 28.6635L25.0284 28.6395C24.2281 28.4154 22.8996 27.8552 20.6908 26.6308C19.2502 25.8385 18.0578 25.0302 17.0414 24.2219C16.5052 23.7977 15.961 23.3256 15.4008 22.7654C15.3848 22.7494 15.3608 22.7254 15.3448 22.7093C15.3288 22.6933 15.3048 22.6693 15.2888 22.6533C15.2728 22.6373 15.2488 22.6133 15.2328 22.5973C15.2168 22.5813 15.1928 22.5573 15.1768 22.5413C14.6246 21.9811 14.1444 21.4369 13.7202 20.9007C12.9119 19.8923 12.1036 18.6919 11.3113 17.2514C10.0869 15.0345 9.52669 13.7061 9.30261 12.9138L9.2786 12.8978C9.20657 12.6737 9.17456 12.4496 9.17456 12.2255C9.17456 12.1295 9.17456 12.0575 9.19057 11.9934C9.25459 11.4732 9.51068 10.953 9.95084 10.4168C9.95084 10.4088 9.95885 10.4088 9.95885 10.4008C10.5511 9.7446 11.1913 9.23242 11.8715 8.84828C11.8715 8.84828 11.8796 8.84828 11.8876 8.84828C12.6078 8.47214 13.2881 8.60019 13.7602 9.15239C13.7602 9.15239 14.7286 10.3128 15.1447 10.881C15.5369 11.4172 16.0651 12.2655 16.3292 12.7377C16.8014 13.586 16.5052 14.4583 16.0411 14.8185L15.1047 15.5627C14.6326 15.9469 14.6966 16.6591 14.6966 16.6591C14.6966 16.6591 16.0811 21.9251 21.283 23.2455Z"
          />
</svg>
