<svg   viewBox="0 0 56 59"  xmlns="http://www.w3.org/2000/svg">
<path d="M5.85587 0.622933C7.75928 0.424183 9.66269 0.221612 11.5648 0.0203138C12.5866 -0.0968976 13.6543 0.299328 14.3575 1.04846C15.1067 1.92755 15.2685 3.13151 15.3373 4.24375C15.3882 4.78776 15.285 5.36872 15.5487 5.87197C16.2597 7.55624 16.21 9.55521 15.3181 11.163C14.3015 13.0129 12.4541 14.5545 10.2882 14.7163C8.42306 14.7915 6.42027 14.3915 4.99972 13.1059C4.0391 12.2523 3.43902 11.0955 2.89374 9.95398C2.34718 9.93996 1.79552 9.9973 1.25278 9.91703C0.764821 9.74376 0.44886 9.11439 0.692201 8.63535C1.07314 7.8429 1.45535 7.05045 1.83119 6.25672C1.99809 5.29737 1.73054 4.28579 2.03121 3.33918C2.32297 2.43716 2.95617 1.61668 3.82761 1.21026C4.46335 0.900673 5.14623 0.667524 5.85587 0.622933ZM5.44436 2.45882C4.60732 2.548 3.86073 3.17993 3.70785 4.01952C3.62503 4.85274 3.74352 5.69615 3.65179 6.52937C3.49126 7.0428 3.2097 7.50783 2.99439 7.99961C3.44285 8.18307 4.02381 8.26588 4.26078 8.74619C4.51559 9.25453 4.70414 9.79472 5.00099 10.2827C5.57813 11.3287 6.47888 12.2421 7.63315 12.6218C8.5683 12.9238 9.57988 13.0321 10.5532 12.8868C12.3356 12.4855 13.7345 10.9401 14.1626 9.19211C14.4047 8.20218 14.1295 7.18167 13.7702 6.258C13.495 5.66175 13.6441 4.98906 13.5523 4.35714C13.4644 3.58889 13.416 2.74675 12.9344 2.10591C12.6605 1.71351 12.1203 1.76192 11.7024 1.79887C9.61683 2.02565 7.52741 2.21803 5.44436 2.45882Z" />
<path d="M32.338 10.7212C35.2581 10.4358 38.196 10.3377 41.1301 10.3746C43.9215 10.4715 46.7117 11.083 49.2368 12.2921C51.4498 13.2884 53.0156 15.3421 53.9291 17.5398C55.0693 20.3797 55.2834 23.5265 54.9521 26.546C54.6107 29.3298 53.715 32.0345 52.4066 34.5113C51.181 36.8517 49.5795 39.0086 47.6137 40.7795C45.9753 42.2332 44.0107 43.4181 41.8206 43.771C39.814 44.0869 37.7819 43.6219 35.8811 42.9938C34.8618 42.6536 33.8808 42.2192 32.8947 41.7988C33.6095 43.9876 34.6924 46.0477 36.0875 47.881C37.5539 49.8812 39.2598 51.6968 40.6944 53.7186C40.8893 54.362 40.6995 55.0564 40.5428 55.6921C40.1376 56.998 39.2242 58.2415 37.8877 58.6912C36.6965 59.0976 35.3116 59.1371 34.1573 58.6046C31.4997 56.11 29.2433 53.1912 27.4533 50.0163C26.1869 47.7447 25.1524 45.3495 24.2873 42.8983C21.5533 42.7339 18.8205 42.5568 16.0876 42.3886C16.2061 43.7493 16.6151 45.0858 17.3145 46.2617C18.3491 48.0161 19.7327 49.5551 20.6181 51.4012C20.9659 52.2013 20.8169 53.1288 20.455 53.897C19.9301 54.9799 18.9657 55.9049 17.7643 56.161C16.4049 56.4515 14.8709 56.1839 13.8007 55.2641C12.2158 53.4575 10.7685 51.5209 9.55438 49.4443C8.36061 47.3867 7.38852 45.152 7.06364 42.7798C6.7859 40.749 7.19614 38.5653 8.46253 36.9192C9.12248 36.0503 10.0003 35.3496 10.9851 34.8846C12.8057 34.1316 14.8162 34.1647 16.7145 33.7252C16.5068 32.7569 16.0532 31.8549 15.4328 31.0854C13.9014 31.5491 12.2082 31.6982 10.6857 31.1172C8.99635 30.484 7.73251 29.1399 6.4865 27.8939C6.40114 28.6507 6.36801 29.4151 6.25845 30.1694C6.15525 30.8204 5.21629 31.1198 4.74362 30.6751C3.37785 29.5387 2.01845 28.3933 0.652685 27.2595C0.298503 26.9983 -0.012362 26.6084 0.000378358 26.1472C0.0640802 25.6796 0.416988 25.2656 0.873093 25.1356C1.79677 24.7942 2.78033 24.6732 3.7435 24.4948C3.3753 23.0819 3.7091 21.5594 4.48117 20.3414C5.02136 19.4496 6.12722 19.1273 7.10696 19.0419C7.96311 18.9489 8.8027 19.1604 9.61299 19.4114C10.4908 17.88 11.6298 16.4569 13.1115 15.4733C14.6735 14.4439 16.8037 14.1445 18.465 15.1166C19.9212 14.0439 21.5545 13.231 23.2554 12.622C26.178 11.5722 29.2586 11.0435 32.338 10.7212ZM27.2393 13.4068C24.7893 13.9534 22.3585 14.7318 20.2002 16.039C22.0106 17.178 23.7459 18.4533 25.2658 19.9618C26.9743 21.6116 28.4802 23.4998 29.5313 25.6389C30.5824 27.7512 31.1493 30.0674 31.5048 32.39C31.8577 34.7648 32.0207 37.1613 32.324 39.5412C33.64 40.1705 34.9689 40.7795 36.3563 41.2407C38.0227 41.7911 39.7987 42.3033 41.5671 42.0026C43.6616 41.5987 45.4644 40.3247 46.9881 38.885C49.1553 36.7599 50.7911 34.1265 51.8906 31.3058C52.9009 28.7182 53.4386 25.9268 53.2857 23.1456C53.18 20.688 52.6627 18.1335 51.1568 16.1295C49.8267 14.3229 47.7487 13.2005 45.5969 12.687C42.9278 12.0169 40.1504 12.1048 37.4239 12.2003C34.0057 12.3379 30.5849 12.6794 27.2393 13.4068ZM15.4162 16.3792C14.5664 16.606 13.839 17.1385 13.165 17.6838C12.1738 18.5947 11.3979 19.7197 10.7647 20.902C10.566 21.325 10.0156 21.5505 9.58496 21.3517C8.83455 21.0294 8.05866 20.6612 7.22035 20.7071C6.70946 20.7147 6.20749 20.953 5.89662 21.3619C5.30929 22.0384 5.20482 23.0246 5.45835 23.8616C5.77686 24.97 6.53874 25.8899 7.38979 26.6403C8.33895 27.4901 9.3964 28.2073 10.4195 28.9628C11.2068 29.5693 12.2209 29.8776 13.2121 29.7948C14.0122 29.7566 14.7639 29.4674 15.5156 29.2164C15.8596 29.075 16.2711 29.2087 16.503 29.4903C17.7388 30.8319 18.637 32.5735 18.6446 34.4285C18.6612 34.9049 18.2548 35.319 17.7898 35.3623C15.764 35.7382 13.6759 35.8388 11.7113 36.5039C10.315 37.1243 9.17981 38.3869 8.88551 39.9094C8.53897 41.6714 8.91991 43.4932 9.50724 45.1622C10.6845 48.3371 12.6439 51.1515 14.8021 53.7352C15.657 54.9315 17.7108 54.8207 18.516 53.618C18.9784 53.0855 19.1581 52.2395 18.7274 51.6356C17.5184 49.7003 16.0367 47.9281 15.0659 45.8489C14.3894 44.4513 13.9931 42.8575 14.267 41.3057C14.3422 40.8522 14.7919 40.4891 15.2582 40.5477C18.4446 40.749 21.6297 40.9706 24.8161 41.177C25.2378 41.1668 25.6671 41.4216 25.7869 41.837C26.2443 43.176 26.7526 44.4972 27.3208 45.7929C29.1695 50.0239 31.8437 53.9021 35.1931 57.0821C36.462 57.6223 38.0992 56.9292 38.6942 55.6985C38.9681 55.2016 39.1324 54.5098 38.7196 54.041C36.6455 51.4292 34.2758 49.0111 32.6973 46.0426C31.4385 43.7162 30.6537 41.135 30.4053 38.5016C30.0167 35.2222 29.8243 31.8855 28.8382 28.7131C28.2725 26.9091 27.4011 25.1981 26.2226 23.7164C24.76 21.8333 22.9738 20.2229 21.0615 18.8075C19.9161 17.9717 18.7122 17.2137 17.433 16.5996C16.8355 16.2301 16.0813 16.2378 15.4162 16.3792ZM2.54336 26.5052C3.25299 27.0951 3.95371 27.6964 4.66718 28.2812C4.70667 27.699 4.86975 27.1384 5.07359 26.5957C4.97931 26.5651 4.79331 26.5039 4.69903 26.4734C4.66081 26.3421 4.62258 26.2122 4.58436 26.081C3.91549 26.2759 3.22497 26.3727 2.54336 26.5052Z" />
</svg>
