<svg  viewBox="0 0 73 42"  xmlns="http://www.w3.org/2000/svg">
<path d="M52.1609 0.163229C52.4203 -0.0511298 52.8221 -0.0542546 53.0877 0.15323C59.3985 4.9035 65.7093 9.6544 72.0201 14.4053C72.2038 14.5434 72.4231 14.6709 72.4994 14.9028C72.6569 15.2652 72.4656 15.7308 72.0951 15.8714C71.8476 15.9814 71.5488 15.9358 71.3382 15.769C70.5377 15.169 69.7402 14.5653 68.9415 13.9641C68.9334 21.1923 68.9403 28.4199 68.9384 35.6481C68.9303 35.9293 68.989 36.2506 68.7984 36.4887C68.6509 36.6943 68.4041 36.8161 68.1516 36.803C60.2965 36.8036 52.4415 36.803 44.5865 36.8037C44.3227 36.7962 44.034 36.8449 43.799 36.6955C43.4453 36.5024 43.3247 35.9993 43.5415 35.6625C43.6734 35.4288 43.944 35.2925 44.2096 35.3025C51.9522 35.3038 59.6947 35.3025 67.4373 35.3031C67.4398 27.9174 67.4354 20.5317 67.4391 13.146C67.4241 13.0173 67.4904 12.841 67.3473 12.7654C62.4451 9.0707 57.5361 5.38534 52.6365 1.68624C46.5238 6.2884 40.4155 10.8974 34.3047 15.5021C34.1285 15.6277 33.9666 15.7777 33.7716 15.8739C33.401 16.0402 32.9229 15.8352 32.7867 15.4534C32.6567 15.139 32.7767 14.7547 33.0573 14.5634C39.425 9.76377 45.7939 4.96475 52.1609 0.163229Z" />
<path d="M51.9896 5.12723C52.1784 4.97662 52.3927 4.81413 52.649 4.83476C52.8521 4.82976 53.0352 4.93412 53.1864 5.06036C55.6025 6.8896 58.0248 8.71009 60.4396 10.54C60.7827 10.8093 60.7896 11.3774 60.4659 11.6649C60.2028 11.9117 59.7634 11.928 59.4853 11.6974C57.2005 9.97125 54.9144 8.247 52.6302 6.52088C50.3698 8.23513 48.1012 9.93875 45.8401 11.6511C45.6664 11.7905 45.4483 11.8917 45.2214 11.8574C44.8202 11.8274 44.5071 11.4186 44.5627 11.0243C44.5883 10.8181 44.6977 10.6243 44.8689 10.5043C47.2419 8.71072 49.6173 6.92085 51.9896 5.12723Z" />
<path d="M36.8102 14.6947C37.252 14.5078 37.8076 14.854 37.8201 15.3359C37.827 17.2332 37.822 19.1312 37.8226 21.0286C37.832 21.4217 37.4795 21.7729 37.0889 21.7716C36.6852 21.7879 36.3133 21.4279 36.3246 21.0223C36.3221 19.1481 36.3221 17.2738 36.3246 15.3996C36.3158 15.0909 36.5252 14.8034 36.8102 14.6947Z" />
<path d="M0.0359768 15.5177C0.134719 15.1215 0.59406 14.9046 0.972782 15.0321C2.59079 15.4009 4.13505 16.0539 5.59307 16.8382C7.92227 18.2156 10.2433 19.6062 12.5682 20.9911C13.1888 21.3823 13.8787 21.6591 14.5905 21.831C19.3714 22.8403 24.1529 23.8465 28.9345 24.8539C29.5494 24.9895 30.1825 25.0795 30.7568 25.352C31.7193 25.7988 32.5723 26.5569 32.9985 27.5425C33.2029 27.988 33.2154 28.4836 33.276 28.9623C33.3073 29.2298 33.3366 29.4979 33.3648 29.7667C33.6772 29.8904 33.9941 30.0154 34.2647 30.2198C34.8253 30.6241 35.1909 31.2747 35.2684 31.959C35.3265 32.409 35.2615 32.8652 35.1346 33.2983C34.9596 33.9039 34.8578 34.5432 34.5397 35.0969C33.8285 36.3756 32.4411 37.2949 30.9624 37.3186C30.2119 37.3186 29.4619 37.3199 28.712 37.318C28.297 37.3292 27.9402 36.9261 27.9895 36.5168C28.0158 36.1493 28.3508 35.845 28.7182 35.8506C29.3826 35.8487 30.0469 35.85 30.7118 35.8506C31.8461 35.9125 32.946 35.1644 33.3941 34.137C33.5391 33.7326 33.6247 33.3095 33.7416 32.8964C33.8772 32.4058 33.8004 31.8109 33.3954 31.4665C33.1629 31.2503 32.8286 31.2209 32.5755 31.0403C32.2224 30.8166 31.9536 30.4435 31.9086 30.0223C31.8468 29.5042 31.7918 28.9848 31.7311 28.4661C31.6799 28.0205 31.4068 27.6387 31.1006 27.3262C30.6675 26.9094 30.1231 26.6 29.5325 26.4763C24.4323 25.4014 19.3321 24.3277 14.2318 23.2515C13.3537 23.0234 12.5051 22.6716 11.7376 22.186C9.98774 21.1442 8.23912 20.1011 6.48988 19.0593C5.75243 18.6312 5.03748 18.1638 4.27566 17.7794C3.07888 17.207 1.83897 16.7008 0.536565 16.4277C0.149093 16.3377 -0.0958885 15.8939 0.0359768 15.5177Z" />
<path d="M46.5182 16.7733C50.5935 16.7733 54.6688 16.772 58.7442 16.7739C58.7429 20.8492 58.7442 24.9239 58.7435 28.9986C54.6688 28.9992 50.5941 28.9986 46.5188 28.9986C46.5163 24.9239 46.5182 20.8486 46.5182 16.7733ZM48.0181 18.2732C48.02 21.3486 48.0118 24.4246 48.0218 27.5C51.096 27.4969 54.1695 27.5 57.2436 27.4981C57.243 24.4233 57.2436 21.3479 57.2436 18.2732C54.1683 18.2732 51.0929 18.2732 48.0181 18.2732Z" />
<path d="M49.5779 20.013C49.806 19.6737 50.321 19.5918 50.6416 19.848C50.836 19.9849 50.9447 20.223 50.9391 20.4592C50.9397 21.8241 50.9391 23.1884 50.9397 24.5533C52.0671 24.5533 53.1945 24.5546 54.3226 24.5527C54.3213 23.189 54.3213 21.8248 54.322 20.4611C54.3176 20.1549 54.5057 19.853 54.7982 19.7487C55.1438 19.6018 55.5875 19.7699 55.7431 20.1124C55.8418 20.2968 55.8206 20.5105 55.8231 20.7117C55.82 22.4922 55.8231 24.2733 55.8212 26.0538C53.6939 26.0532 51.5665 26.0551 49.4392 26.0532C49.4386 24.2727 49.4404 22.4928 49.4379 20.7123C49.4354 20.4742 49.4229 20.2118 49.5779 20.013Z" />
<path d="M1.54834 21.4242C1.74332 21.3517 1.95393 21.3904 2.15517 21.4073C4.21939 21.6048 6.28424 21.7985 8.34846 21.9941C8.66969 22.0154 8.95279 22.2691 9.01154 22.5853C9.08528 22.8959 8.91029 23.2303 8.63344 23.3772C8.46783 23.4759 8.26784 23.4678 8.08348 23.4521C5.97114 23.2515 3.85817 23.0509 1.74582 22.8516C1.46459 22.8334 1.20899 22.6422 1.11274 22.3772C0.953381 22.0104 1.17087 21.5473 1.54834 21.4242Z" />
<path d="M35.5115 23.3871C35.6439 23.1759 35.8152 22.9553 36.0777 22.914C36.4576 22.8147 36.8845 23.074 36.9651 23.4596C37.2376 24.5058 37.5076 25.5532 37.78 26.6C38.9881 26.49 40.1955 26.3644 41.4041 26.26C41.9291 26.2294 42.3278 26.8925 42.0241 27.3325C41.2467 28.3474 40.458 29.3542 39.6849 30.3716C40.2274 30.8885 40.7811 31.3934 41.3248 31.909C41.4966 32.0621 41.6135 32.2852 41.5941 32.5202C41.591 32.8139 41.3704 33.062 41.1092 33.1708C40.5192 33.4333 39.9293 33.6976 39.3368 33.9538C39.0918 34.0695 38.7893 34.0113 38.5881 33.8364C38.2481 33.5464 38.2519 32.9445 38.6375 32.6946C38.9206 32.529 39.2349 32.4233 39.5274 32.2733C39.0881 31.8365 38.6231 31.4272 38.1813 30.9934C37.9075 30.7385 37.8819 30.2766 38.115 29.9873C38.6612 29.2767 39.2112 28.5692 39.7561 27.8574C38.9281 27.9349 38.1013 28.0287 37.2738 28.1099C36.9376 28.1568 36.582 27.9287 36.5064 27.5943C36.3183 26.8494 36.1227 26.1063 35.9377 25.3607C35.7677 25.6088 35.6064 25.8651 35.4202 26.1019C35.1371 26.4338 34.5547 26.4144 34.294 26.0657C34.1041 25.8194 34.0884 25.4532 34.2653 25.1957C34.6771 24.5902 35.0984 23.9915 35.5115 23.3871Z" />
<path d="M20.5545 29.4386C21.7338 29.2873 22.9581 29.4892 24.0199 30.0254C25.0298 30.5197 25.8878 31.3109 26.4797 32.2659C27.0834 33.2345 27.3977 34.3801 27.3796 35.5206C27.3709 36.6962 27.0028 37.8661 26.3397 38.836C25.686 39.8097 24.7404 40.5853 23.6574 41.0346C22.3256 41.5952 20.7895 41.6514 19.4202 41.1921C17.481 40.5646 15.9261 38.8923 15.4492 36.9093C15.0974 35.5031 15.2705 33.9726 15.9373 32.684C16.8216 30.9328 18.604 29.6717 20.5545 29.4386ZM21.0538 30.8672C19.6933 30.9416 18.3928 31.6697 17.6041 32.7777C16.9435 33.6833 16.6398 34.8407 16.7691 35.9537C16.886 36.9986 17.3778 37.9992 18.1372 38.7273C18.7852 39.3685 19.6321 39.8022 20.5295 39.9603C21.4863 40.1315 22.4987 39.989 23.3655 39.5466C24.4073 39.0285 25.241 38.0992 25.6354 37.0036C25.9935 36.0331 26.006 34.9363 25.6604 33.9607C25.3335 32.9958 24.6661 32.1565 23.8149 31.6003C23.0056 31.0672 22.0206 30.8097 21.0538 30.8672Z" />
<path d="M3.80637 35.8087C4.52445 35.7762 5.24689 35.805 5.96684 35.795C8.55102 35.795 11.1358 35.7956 13.72 35.795C14.1375 35.7731 14.5087 36.1756 14.4568 36.5899C14.44 36.9636 14.0881 37.268 13.72 37.2624C10.4884 37.2661 7.25612 37.2636 4.02448 37.2636C3.63701 37.2924 3.24891 36.9818 3.23267 36.5855C3.18767 36.2275 3.45952 35.8825 3.80637 35.8087Z" />
</svg>
