<svg   viewBox="0 0 57 51"  xmlns="http://www.w3.org/2000/svg">
<path d="M27.9755 0.576975C28.099 0.040905 28.8473 -0.198881 29.2447 0.195945C30.0475 1.04538 30.8181 1.92635 31.6176 2.77972C32.6563 2.0965 33.6969 1.41656 34.7342 0.731358C35.0784 0.478433 35.6211 0.59734 35.8267 0.971801C35.9837 1.20699 35.8989 1.49736 35.8536 1.75291C35.6487 2.95381 35.4351 4.15275 35.2361 5.35496C36.0185 5.56518 36.8016 5.7741 37.582 5.99286C38.0629 6.11242 38.3034 6.74506 38.0078 7.14843C37.5768 7.72523 37.1196 8.28232 36.6761 8.84927C36.4416 9.16592 35.9456 9.21847 35.6414 8.97409C35.3156 8.75795 35.2197 8.26853 35.447 7.94859C35.6381 7.69435 35.8365 7.44406 36.0317 7.19179C35.401 7.01376 34.767 6.84689 34.1383 6.66492C33.7626 6.56243 33.5169 6.15053 33.5891 5.77081C33.7481 4.8386 33.9077 3.90573 34.0726 2.97352C33.3782 3.43536 32.6832 3.89522 31.9947 4.3656C31.7056 4.59553 31.251 4.65728 30.9699 4.38268C30.4062 3.77434 29.8596 3.15024 29.2927 2.54519C29.2434 2.88418 29.2381 3.2317 29.1527 3.56478C28.9741 4.05486 28.2646 4.23552 27.8967 3.84924C27.624 3.60091 27.628 3.2074 27.693 2.87301C27.7915 2.10832 27.8658 1.33969 27.9755 0.576975Z" />
<path d="M3.47394 18.6811C10.4008 13.9465 17.3329 9.22041 24.2637 4.4917C25.7616 6.68394 27.2594 8.87617 28.7527 11.0717C21.8238 15.7991 14.8976 20.5311 7.96549 25.2539C6.4624 23.0676 4.97507 20.8688 3.47394 18.6811ZM5.6642 19.0957C6.57342 20.4142 7.4695 21.7419 8.37609 23.0617C9.85685 22.0684 11.3225 21.0507 12.8 20.0509C17.3855 16.9172 21.9769 13.7908 26.5624 10.6558C25.6604 9.33078 24.7538 8.009 23.8531 6.68262C17.7875 10.8168 11.7239 14.9529 5.6642 19.0957Z" />
<path d="M35.0134 10.6066C35.3011 10.3885 35.7261 10.4181 35.9955 10.6532C42.7864 15.7538 49.5766 20.8557 56.3675 25.9555C56.579 26.1112 56.8247 26.2768 56.8753 26.5553C56.9975 26.9784 56.69 27.456 56.2571 27.5237C56.0147 27.5762 55.7677 27.4869 55.5791 27.3371C48.8809 22.3003 42.1754 17.274 35.4805 12.2339C30.1506 16.2202 24.8366 20.2283 19.512 24.2212C19.512 32.3004 19.51 40.3795 19.5127 48.4587C30.1598 48.4587 40.8076 48.4593 51.4555 48.458C51.4594 41.3005 51.4496 34.1431 51.4601 26.9856C51.4502 26.5389 51.8831 26.152 52.3253 26.2085C52.7083 26.2426 53.0427 26.5902 53.0321 26.9804C53.0328 34.4072 53.0321 41.8333 53.0321 49.2601C53.044 49.7009 52.6242 50.0715 52.1899 50.036C41.0415 50.0347 29.8931 50.0366 18.7447 50.0353C18.3223 50.0537 17.9248 49.6852 17.9353 49.2569C17.934 41.3071 17.934 33.3574 17.9353 25.407C17.0675 26.058 16.1997 26.7097 15.3325 27.3614C15.0704 27.5769 14.6683 27.5986 14.3904 27.4015C13.9187 27.1111 13.947 26.3537 14.4187 26.0758C21.2838 20.92 28.1476 15.7617 35.0134 10.6066Z" />
<path d="M34.9451 15.8398C35.2124 15.6086 35.6362 15.5685 35.9246 15.7853C38.5235 17.7378 41.1204 19.6928 43.7186 21.6466C43.8776 21.755 44.0313 21.8884 44.0996 22.0756C44.2619 22.4369 44.0885 22.8942 43.7383 23.0715C43.4755 23.2075 43.1326 23.1885 42.8981 23.0039C40.4266 21.1394 37.9473 19.2849 35.4779 17.4172C32.9979 19.2803 30.5264 21.1559 28.0471 23.0196C27.7022 23.2745 27.1615 23.1701 26.9388 22.8035C26.7135 22.4757 26.7943 21.9836 27.1169 21.7497C29.7256 19.7782 32.337 17.8113 34.9451 15.8398Z" />
<path d="M0.000656878 25.2618C2.65539 25.2585 5.31077 25.2605 7.9655 25.2605C7.9655 33.6504 7.96616 42.0396 7.9655 50.4295C5.31077 50.4301 2.65604 50.4301 0.00131397 50.4295C-0.000656878 42.0403 -7.0177e-08 33.651 0.000656878 25.2618ZM1.57733 26.8385C1.57668 34.1766 1.57602 41.5147 1.57799 48.8528C3.1816 48.8528 4.78521 48.8535 6.38882 48.8528C6.38948 41.5134 6.38882 34.1746 6.38882 26.8358C4.78521 26.8398 3.1816 26.8345 1.57733 26.8385Z" />
<path d="M28.913 28.5038C33.2843 28.5038 37.6563 28.5032 42.0276 28.5045C42.0289 32.8784 42.0289 37.2524 42.0276 41.6264C37.6569 41.627 33.2863 41.627 28.9156 41.6264C28.911 37.2524 28.9169 32.8778 28.913 28.5038ZM30.4896 30.0805C30.4936 33.4033 30.4877 36.7269 30.4929 40.0497C33.8118 40.0504 37.1314 40.0497 40.451 40.0497C40.4523 36.7269 40.4523 33.404 40.451 30.0812C37.1307 30.0805 33.8099 30.0805 30.4896 30.0805Z" />
<path d="M32.4499 31.7479C32.9433 31.4161 33.6797 31.8372 33.6436 32.4304C33.6456 33.9164 33.6436 35.4025 33.6449 36.8885C34.8708 36.8885 36.0967 36.8885 37.3225 36.8885C37.3238 35.4064 37.3212 33.9243 37.3238 32.4423C37.2995 31.9581 37.787 31.537 38.262 31.65C38.6305 31.7052 38.913 32.0625 38.8999 32.4317C38.8999 34.4427 38.8999 36.4542 38.8999 38.4652C36.6222 38.4652 34.3452 38.4652 32.0676 38.4652C32.0663 36.4772 32.0689 34.49 32.0663 32.5027C32.0531 32.2084 32.1819 31.8924 32.4499 31.7479Z" />
</svg>
