<svg   viewBox="0 0 51 52"  xmlns="http://www.w3.org/2000/svg">
<path d="M50.3268 42.5015L42.515 41.4294V34.6523L50.1632 33.9442C50.5518 33.9038 50.8176 33.5801 50.7972 33.1957L50.061 25.3667C50.0201 24.9823 49.6929 24.7193 49.3043 24.7396L38.2205 25.7511C37.791 23.7483 36.9731 21.8669 35.787 20.1878L36.8708 19.1156C37.7502 18.2457 37.8933 16.8903 37.3003 15.8586L38.0774 15.0898C38.4863 15.3326 38.9567 15.454 39.4475 15.454C40.1632 15.454 40.8585 15.1707 41.3698 14.665L44.2328 11.8328C44.744 11.327 45.0303 10.6594 45.0303 9.93115C45.0303 9.44563 44.9076 8.98034 44.6622 8.57573L45.4598 7.78676C45.8892 8.02952 46.3596 8.1509 46.8299 8.1509C47.5252 8.1509 48.2205 7.88791 48.7522 7.36193L50.1428 5.98629L49.1612 5.01524L47.7706 6.39089C47.423 6.7348 46.9526 6.83595 46.5232 6.7348L47.0549 6.20882C47.3207 5.94583 47.3207 5.50076 47.0549 5.23777C46.789 4.97478 46.3391 4.97478 46.0733 5.23777L45.5416 5.76376C45.4393 5.33892 45.562 4.8534 45.8892 4.52972L47.2798 3.15408L46.2982 2.18303L44.9076 3.55868C44.0283 4.42857 43.8851 5.78399 44.4782 6.81572L43.6806 7.60469C43.2716 7.36193 42.8013 7.24055 42.3105 7.24055C41.5947 7.24055 40.8994 7.52377 40.3882 8.02952L37.5252 10.8617C36.6459 11.7316 36.5027 13.087 37.0958 14.1188L36.3187 14.8875C35.2757 14.2806 33.926 14.4222 33.0262 15.3123L31.9424 16.3845C30.3268 15.2719 28.5272 14.4829 26.6254 14.0581V10.4167C26.6254 10.0323 26.3187 9.72885 25.9301 9.72885H18.2614L19.1203 3.57891C19.1407 3.39684 19.0998 3.21477 18.9771 3.07316C18.8749 2.93155 18.7113 2.8304 18.5272 2.81017L2.80127 0.64555C2.43317 0.58486 2.06507 0.847851 2.02417 1.23222L0.919877 9.02079C0.899428 9.20287 0.940327 9.38494 1.06303 9.52655C1.16528 9.66816 1.32888 9.76931 1.51292 9.78954L9.32479 10.8617V17.6388L1.67652 18.3469C1.28798 18.3873 1.02213 18.711 1.04258 19.0954L1.77877 26.9244C1.81967 27.2885 2.10597 27.5515 2.47407 27.5515C2.49452 27.5515 2.51497 27.5515 2.53542 27.5515L7.95464 27.066C7.87285 27.6729 7.83194 28.3 7.83194 28.9069C7.83194 32.953 9.42704 36.7764 12.3309 39.6491C15.2348 42.5218 19.0794 44.0997 23.1898 44.0997C25.5416 44.0997 27.8115 43.5737 29.8769 42.5825H33.5784L32.7195 48.7526C32.699 48.9347 32.7399 49.1168 32.8626 49.2584C32.9649 49.4 33.1285 49.5011 33.3125 49.5214L49.0589 51.6658C49.0998 51.6658 49.1203 51.6658 49.1612 51.6658C49.5088 51.6658 49.7951 51.423 49.836 51.0791L50.9199 43.2905C50.9403 43.1084 50.8994 42.9264 50.7767 42.7848C50.6745 42.6229 50.5109 42.5218 50.3268 42.5015ZM38.4863 11.8732L41.3493 9.04103C41.5947 8.79826 41.9424 8.65665 42.29 8.65665C42.3923 8.65665 42.4945 8.67688 42.5968 8.69711L42.106 9.18264C41.8401 9.44563 41.8401 9.89069 42.106 10.1537C42.2491 10.2953 42.4127 10.356 42.5968 10.356C42.7808 10.356 42.9444 10.2953 43.0876 10.1537L43.5784 9.66816C43.5988 9.76931 43.6193 9.87046 43.6193 9.97161C43.6193 10.3155 43.4761 10.6594 43.2307 10.9022L40.3677 13.7344C40.1223 13.9772 39.7747 14.1188 39.427 14.1188C39.3248 14.1188 39.2225 14.0985 39.1203 14.0783L39.6929 13.5119C39.9587 13.2489 39.9587 12.8038 39.6929 12.5408C39.427 12.2778 38.9771 12.2778 38.7113 12.5408L38.1387 13.087C38.016 12.6824 38.1387 12.1969 38.4863 11.8732ZM37.7502 33.6812C37.8115 33.4992 37.8729 33.3373 37.9137 33.1553C37.9137 33.135 37.9342 33.0946 37.9342 33.0743C38.016 32.7709 38.0978 32.4674 38.1592 32.164C38.1796 32.0831 38.2001 32.0224 38.2001 31.9415C38.2205 31.8403 38.241 31.7392 38.2614 31.638C38.2819 31.5166 38.3023 31.375 38.3228 31.2536C38.3432 31.1525 38.3432 31.0716 38.3637 30.9704C38.3841 30.8288 38.4045 30.6872 38.425 30.5456C38.425 30.4647 38.4454 30.3635 38.4454 30.2826C38.4659 30.1207 38.4659 29.9589 38.4863 29.8173C38.4863 29.7364 38.4864 29.6757 38.5068 29.5948C38.5272 29.3722 38.5272 29.1295 38.5272 28.9069C38.5272 28.6844 38.5272 28.4619 38.5068 28.2394C38.5068 28.1787 38.5068 28.1382 38.5068 28.0775C38.4864 27.8752 38.4864 27.6931 38.4659 27.4908C38.4659 27.4099 38.4454 27.329 38.4454 27.2481C38.4454 27.2076 38.4454 27.1672 38.425 27.1267L48.7318 26.1759L49.3452 32.6495L37.7502 33.7015C37.7502 33.7015 37.7502 33.7015 37.7502 33.6812ZM33.9874 16.3036C34.335 15.9597 34.8054 15.8586 35.2348 15.9597L34.744 16.4452C34.4782 16.7082 34.4782 17.1533 34.744 17.4163C34.8872 17.5579 35.0508 17.6186 35.2348 17.6186C35.4189 17.6186 35.5825 17.5579 35.7256 17.4163L36.2164 16.9307C36.3187 17.3556 36.196 17.8411 35.8688 18.1648L34.9076 19.0954C34.6213 18.7717 34.335 18.448 34.0283 18.1446C33.7011 17.8209 33.3739 17.5174 33.0262 17.2342L33.9874 16.3036ZM17.7501 11.8328C17.7706 11.8328 17.7706 11.8125 17.791 11.8125C17.8115 11.7923 17.8319 11.7721 17.8524 11.7519C17.8728 11.7316 17.8728 11.7316 17.8933 11.7114C17.9137 11.6912 17.9342 11.6709 17.9342 11.6507C17.9342 11.6305 17.9546 11.6305 17.9546 11.6102C17.9751 11.59 17.9751 11.5496 17.9955 11.5293C17.9955 11.5091 18.016 11.5091 18.016 11.4889C18.0364 11.4484 18.0364 11.4079 18.0569 11.3675L18.0978 11.1045H25.2553V13.8355C25.153 13.8153 25.0303 13.8153 24.9281 13.7951C24.8258 13.7749 24.7031 13.7749 24.6009 13.7546C24.4373 13.7344 24.2737 13.7344 24.0896 13.7142C24.0283 13.7142 23.9465 13.7142 23.8851 13.6939C23.6602 13.6939 23.4352 13.6737 23.2103 13.6737C22.9649 13.6737 22.7399 13.6737 22.4945 13.6939C22.3718 13.6939 22.2696 13.7142 22.1469 13.7142C22.0242 13.7142 21.9219 13.7344 21.7992 13.7344C21.6356 13.7546 21.472 13.7749 21.3289 13.7951C21.2675 13.7951 21.2062 13.8153 21.1448 13.8153C20.9608 13.8355 20.7563 13.876 20.5722 13.8962C20.5518 13.8962 20.5313 13.8962 20.5109 13.9165C18.3023 14.3413 16.2369 15.1707 14.4168 16.4452C14.3964 16.4655 14.3555 16.4857 14.335 16.5059C14.1919 16.6071 14.0487 16.7082 13.9056 16.8296C13.8442 16.8701 13.7829 16.9105 13.7215 16.9712C13.5988 17.0724 13.4761 17.1533 13.3739 17.2544C13.3534 17.2747 13.333 17.2747 13.3125 17.2949L10.7154 17.5377V11.1045H11.1039L17.2594 11.9542C17.3003 11.9542 17.3207 11.9542 17.3616 11.9542H17.3821C17.4025 11.9542 17.423 11.9542 17.423 11.9542C17.4434 11.9542 17.4843 11.9542 17.5047 11.9339C17.5252 11.9339 17.5457 11.9339 17.5457 11.9137C17.5661 11.9137 17.607 11.8935 17.6274 11.8935C17.6479 11.8935 17.6479 11.8732 17.6684 11.8732C17.7092 11.853 17.7297 11.853 17.7501 11.8328ZM2.39227 8.53527L3.29207 2.10211L17.6684 4.06443L16.789 10.3357L16.7686 10.4976L11.2471 9.74908L2.39227 8.53527ZM8.20004 25.6499L3.10802 26.1152L2.49452 19.6416L10.0814 18.9538L11.7174 18.8121C11.6152 18.9335 11.4925 19.0549 11.3902 19.1763C11.288 19.2977 11.2062 19.3988 11.1039 19.5202C11.0835 19.5404 11.063 19.5607 11.0426 19.5809C9.65199 21.3409 8.69084 23.3639 8.20004 25.5285C8.22049 25.569 8.20004 25.6094 8.20004 25.6499ZM23.1898 42.7038C15.5007 42.7038 9.22254 36.5134 9.22254 28.8867C9.22254 27.9764 9.32479 27.066 9.48839 26.2163C9.50884 26.1557 9.50884 26.095 9.52929 26.014C9.57019 25.8522 9.59064 25.7106 9.63154 25.5488C9.65199 25.4881 9.65199 25.4476 9.67244 25.3869C9.71334 25.2048 9.77469 25.043 9.81559 24.8609C9.83604 24.8205 9.83603 24.8002 9.83603 24.7598C9.95873 24.335 10.1223 23.9303 10.2859 23.546C10.3064 23.5055 10.3268 23.4651 10.3473 23.4246C10.4086 23.2628 10.4904 23.1211 10.5518 22.9593C10.5722 22.9188 10.5927 22.8582 10.6336 22.8177C10.7154 22.6761 10.7767 22.5142 10.8585 22.3726C10.879 22.3322 10.8994 22.2917 10.9199 22.2513C11.0017 22.0894 11.1039 21.9276 11.1857 21.786C11.2062 21.7657 11.2062 21.7455 11.2266 21.7253C12.7808 19.2572 15.0508 17.2949 17.7501 16.162C17.7501 16.162 17.7706 16.162 17.7706 16.1418C17.9546 16.0609 18.1387 16.0002 18.3227 15.9192C18.425 15.8788 18.5068 15.8586 18.609 15.8181C18.7113 15.7776 18.8135 15.7372 18.9158 15.7169C19.0385 15.6765 19.1407 15.6563 19.2634 15.6158C19.3452 15.5956 19.4475 15.5551 19.5293 15.5349C19.652 15.4944 19.7747 15.4742 19.8974 15.4337C19.9792 15.4135 20.061 15.3933 20.1632 15.373C20.2859 15.3528 20.4086 15.3123 20.5313 15.2921C20.6336 15.2719 20.7154 15.2517 20.8176 15.2517C20.9403 15.2314 21.063 15.2112 21.1857 15.191C21.288 15.1707 21.3902 15.1707 21.5129 15.1505C21.6152 15.1303 21.7379 15.1303 21.8401 15.11C21.9628 15.0898 22.106 15.0898 22.2287 15.0898C22.3105 15.0898 22.4127 15.0696 22.4945 15.0696C22.7195 15.0494 22.9444 15.0494 23.1694 15.0494C23.3943 15.0494 23.6193 15.0494 23.8442 15.0696C23.9465 15.0696 24.0283 15.0898 24.1305 15.0898C24.2737 15.0898 24.3964 15.11 24.5395 15.1303C24.6418 15.1303 24.744 15.1505 24.8463 15.1707C24.969 15.191 25.0917 15.191 25.2144 15.2112C25.3166 15.2314 25.3984 15.2517 25.5007 15.2517C31.3698 16.2227 36.0119 20.8554 36.9526 26.6816C36.9731 26.7626 36.9731 26.8435 36.9935 26.9244C37.014 27.0458 37.0344 27.1874 37.0344 27.3088C37.0344 27.3897 37.0549 27.4908 37.0549 27.5718C37.0753 27.7134 37.0753 27.8348 37.0958 27.9764C37.0958 28.0573 37.1162 28.1382 37.1162 28.2191C37.1162 28.4417 37.1367 28.644 37.1367 28.8665C37.1367 29.1092 37.1367 29.3318 37.1162 29.5745C37.1162 29.5948 37.1162 29.6352 37.1162 29.6555C36.7072 36.9383 30.6131 42.7038 23.1898 42.7038ZM33.8033 40.9236L33.7624 41.1866H32.1878C32.1878 41.1866 32.1878 41.1866 32.2082 41.1866C32.3105 41.1259 32.3923 41.045 32.4741 40.9843C32.5763 40.9034 32.6786 40.8224 32.7808 40.7618C32.8422 40.7213 32.9035 40.6606 32.9649 40.6202C33.1285 40.4785 33.2921 40.3572 33.4557 40.2155C33.4966 40.1751 33.5375 40.1549 33.5579 40.1144C33.7215 39.9728 33.8851 39.8109 34.0487 39.6491C34.2123 39.4873 34.3759 39.3254 34.5395 39.1434C34.5804 39.1029 34.6009 39.0827 34.6213 39.0422C34.7645 38.9006 34.8872 38.7388 35.0099 38.5769C35.0303 38.5567 35.0712 38.5162 35.0917 38.496C35.2144 38.3544 35.3371 38.1925 35.4393 38.0509C35.5007 37.97 35.562 37.8891 35.6234 37.8082C35.6847 37.7272 35.7461 37.6463 35.787 37.5654C35.9301 37.3631 36.0528 37.181 36.1755 36.9787C36.196 36.9585 36.2164 36.918 36.2164 36.8978C36.5641 36.3314 36.8708 35.7649 37.1571 35.158L41.1039 34.7939V41.2068H40.7154L34.56 40.3572C34.2123 40.2965 33.8647 40.5595 33.8033 40.9236ZM48.5477 50.189L34.1714 48.2267L35.0508 41.9553L35.0712 41.7935L40.5927 42.542L49.4475 43.7558L48.5477 50.189Z" />
<path d="M17.9759 23.6689C16.5853 23.6689 15.4606 24.7815 15.4606 26.1572C15.4606 27.5328 16.5853 28.6455 17.9759 28.6455C19.3665 28.6455 20.4912 27.5328 20.4912 26.1572C20.4912 24.7815 19.3665 23.6689 17.9759 23.6689ZM17.9759 27.2698C17.342 27.2698 16.8512 26.7641 16.8512 26.1572C16.8512 25.53 17.3624 25.0445 17.9759 25.0445C18.5894 25.0445 19.1007 25.5503 19.1007 26.1572C19.1007 26.7641 18.5894 27.2698 17.9759 27.2698Z" />
</svg>
