<svg   viewBox="0 0 58 45"  xmlns="http://www.w3.org/2000/svg">
<g >
<path d="M44.8873 1.33132C45.0916 1.02506 45.3572 0.780042 45.6841 0.616699C45.9497 0.80046 46.3379 0.943385 46.3788 1.33132C46.8078 3.04642 47.2573 4.74111 47.6863 6.45621C49.5864 5.57824 51.3843 4.55734 53.2843 3.65896C53.5499 3.51603 53.8564 3.6998 54.1424 3.72021C54.1629 4.00606 54.3263 4.29191 54.2037 4.57776C53.5704 5.88451 52.8553 7.15041 52.1811 8.43674C51.8951 8.98802 51.5682 9.5393 51.4047 10.1314C52.7327 10.3969 53.9994 10.8256 55.3274 11.1319C56.0221 11.3565 56.9823 11.3361 57.2479 12.1732C57.0845 12.4999 56.8393 12.7449 56.5328 12.9491C55.307 13.5616 54.1629 14.3375 52.8962 14.8888C52.6919 14.4804 52.4671 14.0721 52.2628 13.6433C52.8757 13.2962 53.5091 12.9695 54.122 12.6224C54.2242 12.5611 54.4285 12.4386 54.5306 12.3774C53.2026 12.1119 51.9155 11.6832 50.5875 11.3973C50.138 11.2952 49.4229 11.1523 49.6068 10.5194C49.7703 9.62097 50.4445 8.90635 50.7509 8.0488C51.0983 7.37501 51.4864 6.72164 51.8133 6.02743C50.4036 6.70122 48.9939 7.41584 47.6046 8.13047C47.3186 8.29381 46.9713 8.1713 46.6648 8.13047C46.154 6.55829 45.9089 4.90445 45.3572 3.33227C45.2142 3.61812 45.0508 3.90397 44.9078 4.18982C44.6217 4.65943 44.3561 5.10863 44.0701 5.57824C43.6615 5.33322 43.2733 5.06779 42.8647 4.82278C43.1099 4.41442 43.355 3.98564 43.6002 3.55687C44.0088 2.80141 44.4991 2.1072 44.8873 1.33132Z" />
<path d="M25.6416 1.43359C26.132 1.43359 26.6019 1.43359 27.0922 1.43359C27.0922 2.14822 27.0922 2.84243 27.0922 3.55705C26.6223 3.55705 26.132 3.57747 25.6621 3.57747C25.6621 2.86284 25.6621 2.14822 25.6416 1.43359Z" />
<path d="M31.6891 2.69947C33.058 2.71988 34.3655 1.98484 35.714 2.27069C36 3.08741 36.1021 3.94496 36.2452 4.80251C36.3677 5.21086 36.3677 5.63964 36.3677 6.06841C35.5709 6.55844 34.5903 6.55844 33.6913 6.78304C33.8343 7.37515 33.9773 7.96727 34.1204 8.55939C34.7741 8.53897 35.4484 8.82482 35.6935 9.45778C35.9183 10.1316 36.1634 10.8258 36.1839 11.5404C36.1839 12.1121 35.7548 12.5409 35.2849 12.8063C35.6322 13.9701 36.143 15.0727 36.5312 16.2161C36.7355 16.7674 36.9398 17.2982 37.1441 17.8495C38.8194 17.9108 40.5152 17.8291 42.1905 17.8495C41.3937 17.0532 41.3733 15.8486 41.3937 14.8073C41.4141 13.4597 41.2098 11.9692 42.0679 10.8054C43.355 8.84524 46.624 8.82482 47.8907 10.8054C48.81 12.0917 48.524 13.7455 48.5444 15.2156C48.5853 16.1344 48.4219 17.1145 47.8089 17.8495C49.0756 17.8699 50.3423 17.8903 51.609 17.8903C52.794 17.9108 54.0199 17.7474 55.1436 18.2375C56.3694 18.85 57.1458 20.1976 57.1253 21.5656C57.1253 23.199 57.1662 24.8528 57.1253 26.4863C57.0845 27.6092 57.7383 28.6506 57.6565 29.7735C57.3705 30.1411 57.064 30.6107 56.5533 30.6923C55.7973 30.7944 55.0005 30.774 54.2446 30.7128C53.6521 30.6515 53.1209 30.1411 53.1005 29.5489C52.9983 28.5485 53.6317 27.6501 53.5295 26.6292C53.2435 25.1591 53.1618 23.6686 52.9166 22.1985C51.6908 22.2189 50.4854 22.1781 49.2595 22.1781C49.2799 26.2004 49.2391 30.2227 49.2799 34.2246C49.6273 35.9397 50.1585 37.6344 50.5671 39.3291C50.751 40.2683 51.0778 41.2075 51.18 42.1672C51.2617 43.0247 50.4036 43.6985 49.5864 43.5964C48.2176 43.5556 46.8487 43.6985 45.5003 43.5556C44.7035 43.331 45.0099 42.3714 45.0304 41.7588C45.3981 41.0442 46.0315 40.5542 46.7874 40.2887C46.6444 39.8191 46.4401 39.3904 46.2358 38.9412C45.6229 37.5323 44.9282 36.1643 44.397 34.7147C44.1518 33.8571 44.2949 32.9383 44.1927 32.0603C43.4981 32.6729 43.2529 33.6529 42.8851 34.4492C42.9873 35.5314 43.2529 36.6135 43.3959 37.6957C43.5185 38.2265 43.5389 38.7574 43.6615 39.2883C43.7841 40.1866 43.9475 41.0646 44.0905 41.963C44.2336 42.7185 43.6206 43.5352 42.8238 43.576C41.6593 43.6577 40.4947 43.5556 39.3302 43.6168C38.8399 43.5964 38.1248 43.7394 37.8592 43.2085C37.7366 42.7389 37.8388 42.2489 37.8592 41.7792C38.2474 41.0646 38.8807 40.4929 39.6979 40.3296C39.5958 39.86 39.4528 39.3904 39.2893 38.9412C39.228 38.737 39.1667 38.5328 39.1055 38.3286C38.7786 37.3077 38.4108 36.2868 38.0431 35.2864C37.9818 34.5513 37.9205 33.7754 38.2269 33.0812C39.0237 31.2232 39.6979 29.3039 40.5152 27.4459C40.699 26.9355 40.6378 26.3842 40.6378 25.8533C40.6378 24.6282 40.6378 23.4032 40.6378 22.1781C39.228 22.1577 37.8388 22.2598 36.429 22.1577C35.1828 22.0556 34.1408 21.2185 33.5279 20.1771C33.058 18.5437 32.5881 16.9103 32.1794 15.2564C31.873 13.8272 31.4848 12.4592 31.117 11.0912C30.8514 9.96822 31.73 9.00858 32.6902 8.53897C32.5881 8.17145 32.5063 7.80393 32.4042 7.43641C32.3633 7.27307 32.302 7.10972 32.2612 6.94638C31.8526 7.13014 31.4031 7.15056 30.9536 7.21181C30.5041 7.3139 30.0138 7.45683 29.5643 7.25265C29.217 6.84429 29.2374 6.29301 29.1557 5.78256C29.0331 5.04752 28.7879 4.31248 28.8697 3.55702C29.1353 2.98532 29.9116 3.06699 30.4428 2.98532L30.4633 2.88323C30.8719 2.86281 31.2601 2.82197 31.6687 2.80156L31.6891 2.69947ZM33.0171 3.98579C32.6698 4.04704 32.3225 4.1083 31.9751 4.16955C31.4644 4.29206 30.9332 4.33289 30.4224 4.41457C30.4633 4.88418 30.5041 5.33337 30.6063 5.78256C32.0364 5.70089 33.4257 5.35379 34.8354 5.10877C34.7741 4.61874 34.7129 4.14913 34.5903 3.67952C34.0591 3.80203 33.5483 3.8837 33.0171 3.98579ZM32.5268 10.5399C32.6494 11.7446 33.201 12.888 33.4053 14.0926C33.5892 14.0722 33.9569 14.011 34.1408 13.9905C33.9569 13.3576 33.63 12.7859 33.5279 12.1325C33.4666 11.8058 33.773 11.6425 33.9365 11.4179C34.2225 11.4179 34.4881 11.4179 34.7741 11.4179C34.6516 10.9483 34.5494 10.4787 34.4473 10.0091C33.7935 10.0703 32.7719 9.70279 32.5268 10.5399ZM42.8851 12.1938C44.2744 12.1325 45.6637 12.0508 47.053 12.2142C46.6852 11.3566 45.8476 10.642 44.8669 10.7237C43.9475 10.7237 43.2529 11.4179 42.8851 12.1938ZM43.2733 13.6434C42.64 13.8272 42.7217 14.9502 43.4163 14.9706C44.4379 15.0523 45.4798 15.0523 46.5014 14.991C47.2777 14.9706 47.2777 13.6434 46.5014 13.623C45.439 13.5413 44.3561 13.5618 43.2733 13.6434ZM33.6913 15.5831C33.7322 15.624 33.8139 15.7056 33.8548 15.7465C34.0591 16.8082 34.4268 17.8291 34.672 18.8908C34.7946 19.4625 35.101 20.0138 35.6322 20.3405C36.4699 20.9326 37.5527 20.6468 38.513 20.7284C43.2938 20.7488 48.0745 20.7284 52.8553 20.7284C53.5295 20.708 54.1629 21.2185 54.2855 21.8922C54.4898 22.9336 54.5511 23.9953 54.7349 25.0366C55.0618 25.0162 55.3683 25.0162 55.6952 24.9958C55.6748 23.689 55.7565 22.4027 55.6543 21.1164C55.5317 19.9526 54.3468 19.1971 53.2435 19.2992C48.0745 19.2992 42.8851 19.2992 37.7162 19.3196C37.0828 19.34 36.3269 19.2583 35.9796 18.6458C35.4484 17.5637 35.0806 16.4407 34.6924 15.3177C34.3451 15.379 34.0182 15.481 33.6913 15.5831ZM42.8851 16.3794C43.2529 17.237 44.0905 17.9312 45.0712 17.8495C45.9906 17.8495 46.7057 17.1553 47.053 16.3794C45.6637 16.4407 44.2744 16.4407 42.8851 16.3794ZM42.1088 22.1577C42.1088 22.6273 42.1088 23.0969 42.1088 23.5665C44.0088 23.5869 45.9293 23.6073 47.8294 23.5869C47.8294 23.0969 47.8294 22.6273 47.8294 22.1373C45.9089 22.1168 44.0088 22.1985 42.1088 22.1577ZM42.1088 24.9958C42.1088 25.4858 42.1088 25.9554 42.1088 26.4454C44.0088 26.425 45.9293 26.4658 47.8294 26.4046C47.8294 25.935 47.8294 25.4654 47.8294 24.9753C45.9293 25.0366 44.0088 24.9753 42.1088 24.9958ZM54.9597 26.4454C55.1027 27.4255 54.6532 28.3443 54.4898 29.3039C55.0618 29.3039 55.6543 29.2835 56.2264 29.2631C55.9608 28.3443 55.6543 27.4051 55.6543 26.4454C55.4705 26.4454 55.1231 26.4454 54.9597 26.4454ZM41.8227 27.9359C41.1281 29.8348 40.3313 31.7132 39.5754 33.6121C39.3915 34.1225 39.3915 34.6942 39.5754 35.2047C39.9635 36.3889 40.413 37.5323 40.7399 38.737C40.9034 39.5333 41.5571 40.35 41.2711 41.1667C40.6991 41.6567 39.8614 41.6363 39.2485 42.0855C40.3926 42.1876 41.5367 42.1876 42.7013 42.1468C42.497 41.1463 42.3744 40.1458 42.1701 39.1453C42.1292 38.737 42.0883 38.3082 42.0066 37.8998C41.8636 36.879 41.6593 35.8581 41.4958 34.8372C41.3528 34.1021 41.7819 33.4488 42.0679 32.8158C42.3744 32.1624 42.7013 31.5295 43.0282 30.8761C43.7024 30.6923 44.4174 30.6923 45.1121 30.774C45.3981 30.7944 45.6229 31.019 45.6433 31.3049C45.7454 32.0603 45.6229 32.8362 45.6841 33.6121C45.6637 34.4288 46.1745 35.123 46.4401 35.8785C46.8896 36.981 47.4412 38.0428 47.8907 39.1453C48.095 39.6966 48.4423 40.1866 48.5444 40.7583C48.5853 41.3096 47.9928 41.473 47.5638 41.6159C47.1552 41.7384 46.7465 41.8813 46.3584 42.0855C47.482 42.2693 48.6262 42.1263 49.7499 42.1876C49.6477 41.6976 49.5047 41.2075 49.4025 40.7379C49.3004 40.35 49.2187 39.9621 49.1369 39.5741C48.7896 38.0428 48.3606 36.5318 47.9724 35.0209C47.8702 34.6942 47.8294 34.3676 47.8294 34.0205C47.8498 31.9787 47.8294 29.9369 47.8294 27.8951C45.8272 27.9564 43.8045 27.7522 41.8227 27.9359Z" />
<path d="M21.5963 3.35253C21.9232 3.02584 22.2706 2.67874 22.5974 2.35205C23.0878 2.82166 23.5577 3.29127 24.0072 3.7813C23.6803 4.10799 23.3534 4.45509 23.0061 4.78178C22.5362 4.31216 22.0458 3.84255 21.5963 3.35253Z" />
<path d="M20.6565 6.41553C21.3716 6.43595 22.0867 6.43595 22.8017 6.43595C22.8017 6.90556 22.7813 7.39559 22.7813 7.8652C22.0662 7.84478 21.3716 7.84478 20.6565 7.8652C20.6565 7.37517 20.6565 6.90556 20.6565 6.41553Z" />
</g>
<path fill-rule="evenodd" clip-rule="evenodd" d="M15.9995 14.0161H19.0181V15.5161H15.9995V14.0161Z" />
<path fill-rule="evenodd" clip-rule="evenodd" d="M15.9995 37.5557H19.0181V39.0557H15.9995V37.5557Z" />
<path fill-rule="evenodd" clip-rule="evenodd" d="M0.812714 36.0371H3.83139V37.5371H0.812714V36.0371Z" />
<path fill-rule="evenodd" clip-rule="evenodd" d="M0.812714 15.5347H3.83139V17.0347H0.812714V15.5347Z" />
<path fill-rule="evenodd" clip-rule="evenodd" d="M18.1019 7.20029C18.2007 7.17785 18.3029 7.17564 18.4025 7.19378L29.5893 9.23113C29.9968 9.30534 30.267 9.69586 30.1927 10.1034C30.1185 10.5109 29.728 10.7811 29.3205 10.7069L18.2847 8.697L2.31271 12.327V40.6878L18.291 42.8667L33.3988 41.7336C33.8118 41.7026 34.1718 42.0123 34.2028 42.4254C34.2338 42.8385 33.924 43.1984 33.511 43.2294L18.3242 44.3684C18.2717 44.3723 18.219 44.3707 18.1668 44.3636L1.46138 42.0856C1.08976 42.0349 0.812714 41.7175 0.812714 41.3425V11.7283C0.812714 11.3782 1.05503 11.0746 1.3965 10.997L18.1019 7.20029Z" />
<path fill-rule="evenodd" clip-rule="evenodd" d="M18.2681 7.18164C18.6823 7.18164 19.0181 7.51743 19.0181 7.93164V43.6205C19.0181 44.0347 18.6823 44.3705 18.2681 44.3705C17.8539 44.3705 17.5181 44.0347 17.5181 43.6205V7.93164C17.5181 7.51743 17.8539 7.18164 18.2681 7.18164Z" />
<path fill-rule="evenodd" clip-rule="evenodd" d="M23.5928 17.8032C23.5928 17.389 23.9286 17.0532 24.3428 17.0532H26.6208C27.0351 17.0532 27.3708 17.389 27.3708 17.8032V34.518H28.8989C29.3131 34.518 29.6489 34.8538 29.6489 35.268C29.6489 35.6822 29.3131 36.018 28.8989 36.018H26.6208C26.2066 36.018 25.8708 35.6822 25.8708 35.268V18.5532H24.3428C23.9286 18.5532 23.5928 18.2174 23.5928 17.8032Z" />
<path fill-rule="evenodd" clip-rule="evenodd" d="M9.1561 10.2192C9.57031 10.2192 9.9061 10.555 9.9061 10.9692V42.1021C9.9061 42.5163 9.57031 42.8521 9.1561 42.8521C8.74188 42.8521 8.4061 42.5163 8.4061 42.1021V10.9692C8.4061 10.555 8.74188 10.2192 9.1561 10.2192Z" />
<path fill-rule="evenodd" clip-rule="evenodd" d="M8.4061 26.915C8.4061 26.5008 8.74188 26.165 9.1561 26.165H12.1934C12.6077 26.165 12.9434 26.5008 12.9434 26.915C12.9434 27.3293 12.6077 27.665 12.1934 27.665H9.1561C8.74188 27.665 8.4061 27.3293 8.4061 26.915Z" />
<path fill-rule="evenodd" clip-rule="evenodd" d="M6.12808 26.915C6.12808 26.5008 6.46387 26.165 6.87808 26.165H9.15609C9.57031 26.165 9.90609 26.5008 9.90609 26.915C9.90609 27.3293 9.57031 27.665 9.15609 27.665H6.87808C6.46387 27.665 6.12808 27.3293 6.12808 26.915Z" />
<defs>
<clipPath >
<rect   fill="white" transform="translate(20.6565 0.616699)"/>
</clipPath>
</defs>
</svg>
