<svg   viewBox="0 0 45 60"  xmlns="http://www.w3.org/2000/svg">
<path d="M7.01555 2.5404C8.10023 0.913383 10.0551 -0.0887122 12.0125 0.0061972C13.7603 0.0493378 15.423 0.975013 16.4584 2.3703C17.5308 2.35182 18.6253 2.61559 19.5029 3.24791C20.5703 3.97021 21.2902 5.15226 21.4972 6.42059C22.3157 6.91486 23.0059 7.64332 23.3634 8.53942C23.9205 9.83733 23.7627 11.4089 22.9702 12.5774C21.7857 14.4287 19.1566 15.1005 17.2251 14.0577C16.2649 13.5708 15.5044 12.713 15.126 11.7059C15.036 11.452 14.9091 11.1661 15.0175 10.8961C15.1605 10.4906 15.8113 10.4142 16.0209 10.8074C16.1934 11.1722 16.2785 11.5802 16.5151 11.9142C17.1696 12.9472 18.4466 13.5265 19.6558 13.3699C20.9524 13.2343 22.1308 12.252 22.4377 10.9738C22.7939 9.68326 22.2048 8.20045 21.0535 7.51513C20.8575 7.38325 20.6307 7.28834 20.468 7.11331C20.3657 6.9087 20.3657 6.67327 20.3177 6.45387C20.0625 4.94149 18.7017 3.73478 17.1918 3.56468C16.7888 3.50059 16.3808 3.5881 15.9777 3.55112C15.7065 3.43649 15.5857 3.13081 15.4046 2.91757C14.135 1.20304 11.5897 0.660703 9.71122 1.65294C8.91251 2.04613 8.26293 2.69941 7.80441 3.45622C7.61459 3.80997 7.16963 3.7015 6.84176 3.71506C5.19995 3.7015 3.63456 4.95381 3.33011 6.57467C3.25246 6.95554 3.31039 7.46706 2.87035 7.63963C1.78937 8.20045 1.07447 9.401 1.16075 10.6237C1.21375 12.0979 2.43032 13.4044 3.88231 13.6103C5.25541 13.8605 6.73822 13.1259 7.35081 11.8662C7.51968 11.5617 7.54803 11.1969 7.72675 10.8998C8.02997 10.4844 8.75104 10.7408 8.7535 11.2486C8.53533 12.6218 7.55666 13.8149 6.30804 14.3991C5.34909 14.8318 4.23853 14.9366 3.22287 14.6469C1.96317 14.3092 0.887116 13.3699 0.3608 12.1805C-0.0718386 11.1981 -0.117445 10.0567 0.235076 9.04355C0.555549 8.07843 1.25196 7.26492 2.11231 6.73614C2.32432 5.15719 3.35476 3.71629 4.79935 3.03714C5.48344 2.68831 6.25381 2.55889 7.01555 2.5404Z" />
<path d="M11.0794 2.31215C12.4094 2.07549 13.8687 2.53771 14.7451 3.58172C14.9904 3.90342 14.7833 4.45685 14.3606 4.48397C14.0808 4.56162 13.8687 4.32004 13.6839 4.15364C12.7607 3.23782 11.1731 3.17373 10.1315 3.92438C9.89858 4.09571 9.71616 4.3225 9.48566 4.49507C9.20217 4.69474 8.7572 4.52834 8.65366 4.20294C8.53287 3.92561 8.72515 3.64951 8.90881 3.45476C9.48566 2.85572 10.2585 2.44773 11.0794 2.31215Z" />
<path d="M14.0438 6.51533C14.4579 6.22814 15.0372 6.70885 14.8869 7.17107C14.7759 7.45333 14.5171 7.64438 14.3038 7.84776C12.7495 9.20361 10.0982 9.03721 8.78307 7.42745C8.38248 6.95783 9.1208 6.21088 9.57932 6.64352C10.2597 7.36335 11.2741 7.76148 12.2614 7.5618C12.9763 7.47059 13.5557 7.0133 14.0438 6.51533Z" />
<path d="M19.4388 7.80624C20.6825 7.52521 21.8288 8.68384 21.9669 9.86589C22.2418 11.223 21.2446 12.8377 19.7803 12.8488C19.2687 12.8857 18.984 12.1536 19.3871 11.8331C19.6878 11.6507 20.0958 11.7012 20.3682 11.4547C21.0585 10.8483 21.0116 9.57131 20.2277 9.06225C19.9331 8.86503 19.5042 8.97103 19.2552 8.69493C19.0062 8.43363 19.1282 7.96154 19.4388 7.80624Z" />
<path d="M3.32027 8.12531C3.6013 8.04766 3.92054 7.96878 4.19911 8.09573C4.55902 8.25843 4.61079 8.81926 4.29032 9.04852C4.02161 9.23095 3.64444 9.16315 3.39053 9.38132C2.68795 9.92859 2.67439 11.0959 3.30425 11.7023C3.57418 11.9673 3.97847 11.9352 4.31004 12.0634C4.55902 12.2101 4.66256 12.5799 4.49616 12.8264C4.31867 13.1888 3.84659 13.158 3.51625 13.0742C2.46855 12.8387 1.74502 11.7997 1.69941 10.7557C1.6119 9.66359 2.24175 8.46921 3.32027 8.12531Z" />
<path d="M11.7093 13.2797C12.068 13.1195 12.524 13.4153 12.5043 13.8134C12.5548 15.8756 12.5832 17.9389 12.6177 20.001C12.6719 20.4324 12.1814 20.7652 11.7968 20.5791C11.5133 20.4707 11.4554 20.1366 11.4603 19.8704C11.4282 17.897 11.3925 15.9224 11.358 13.9503C11.342 13.6865 11.4406 13.3783 11.7093 13.2797Z" />
<path d="M15.1543 13.9984C15.4588 13.7704 15.9728 13.9515 16.0418 14.3312C16.0887 14.5272 16.0024 14.7207 15.9494 14.9056C15.4477 16.3391 14.9584 17.7775 14.4703 19.2159C14.3655 19.5019 14.3113 19.8766 13.9846 19.9962C13.5532 20.1983 13.0392 19.6942 13.2352 19.2615C13.7566 17.6949 14.3088 16.1382 14.8339 14.5728C14.914 14.3706 14.9658 14.1303 15.1543 13.9984Z" />
<path d="M7.62569 14.1341C7.91165 13.9171 8.36894 14.0552 8.48357 14.3954C9.0974 15.9645 9.68288 17.5446 10.2955 19.115C10.4027 19.3713 10.4915 19.7288 10.2363 19.9297C9.9713 20.2218 9.43636 20.1282 9.3057 19.7497C8.67585 18.1462 8.07311 16.5315 7.45312 14.9242C7.31877 14.6616 7.35945 14.2955 7.62569 14.1341Z" />
<path d="M16.6187 15.124C16.7271 14.8812 16.7925 14.5558 17.0834 14.467C17.5419 14.2636 18.0473 14.8294 17.7983 15.2682C17.0304 17.3192 16.2329 19.3604 15.465 21.4114C15.5624 21.5815 15.709 21.743 15.7041 21.9525C15.746 22.9435 15.7682 23.9345 15.7978 24.9268C17.3373 24.5668 18.8731 24.1872 20.4126 23.8335C20.918 23.6621 21.3654 24.382 20.982 24.7567C20.0514 25.8019 19.0851 26.8176 18.1422 27.8517C17.8858 28.1709 17.3706 28.0785 17.182 27.7358C17.0994 27.5263 17.108 27.2625 17.2732 27.0949C17.7749 26.5205 18.3172 25.9831 18.8152 25.4062C17.6516 25.6577 16.5016 25.9695 15.3368 26.216C15.0434 26.2851 14.7156 26.0706 14.6872 25.7662C14.6194 24.9526 14.633 24.1342 14.596 23.3195C13.9464 23.9801 13.2932 24.6371 12.651 25.3052C12.4242 25.5751 12.0026 25.5233 11.7808 25.2768C11.1189 24.647 10.4446 24.0282 9.7889 23.391C9.79137 24.1453 9.83574 24.9009 9.81479 25.6565C9.80493 26.0188 9.39447 26.2691 9.06044 26.1433C7.70829 25.8524 6.36107 25.5418 5.01015 25.246C5.73368 26.004 6.55582 26.6647 7.2584 27.4412C7.58257 27.9417 6.86274 28.574 6.41531 28.1771C5.17285 27.0394 3.97478 25.8524 2.73972 24.7049C2.47348 24.4941 2.40323 24.0689 2.65098 23.8162C2.83586 23.6054 3.13662 23.6288 3.38067 23.6942C5.13958 24.096 6.90341 24.4769 8.66232 24.8762C8.65245 23.7952 8.5748 22.713 8.65369 21.6345C7.8106 19.5502 6.89971 17.4905 6.04676 15.4099C5.8705 15.0426 6.20453 14.5755 6.60759 14.6235C6.89108 14.6149 7.0809 14.8565 7.16719 15.1006C8.08423 17.297 9.02223 19.4849 9.93681 21.6826C9.83697 21.6592 9.63853 21.6111 9.53992 21.5877C10.2524 22.2373 10.9463 22.9065 11.6501 23.566C11.8436 23.7311 12.0026 23.974 12.2455 24.0627C13.0318 23.3219 13.711 22.469 14.5294 21.7602C14.257 21.7861 14.1338 22.1054 13.9144 22.2286C14.8117 19.8584 15.7214 17.493 16.6187 15.124Z" />
<path d="M20.2794 18.8845C20.3497 18.1412 21.528 18.0845 21.7055 18.7994C21.7893 19.4884 21.7191 20.1898 21.7413 20.8837C22.9788 20.8837 24.2163 20.8837 25.4551 20.8837C25.4625 20.2526 25.4403 19.6203 25.46 18.9905C25.4501 18.5997 25.815 18.2719 26.1959 18.2793C26.578 18.2645 26.9292 18.6071 26.9255 18.9892C26.9527 19.6203 26.9243 20.2514 26.9342 20.8837C30.5925 20.8862 34.2508 20.8776 37.9092 20.8874C38.2839 20.8763 38.6105 21.219 38.6056 21.59C38.6167 22.4886 38.6228 23.3896 38.6031 24.2881C38.6043 24.6086 38.3418 24.8317 38.062 24.9303C37.0969 25.3001 36.1256 25.6539 35.1617 26.0236C35.1617 26.5352 35.1617 27.0454 35.1617 27.557C34.6687 27.5545 34.1756 27.5557 33.6838 27.5533C33.6925 26.8421 33.6604 26.1296 33.6937 25.4184C33.7073 25.1226 33.939 24.8884 34.2101 24.8009C35.1802 24.4324 36.1502 24.0613 37.1277 23.7113C37.1351 23.2614 37.1339 22.8127 37.1326 22.3628C31.5095 22.3628 25.8852 22.3628 20.2622 22.3628C20.277 21.2042 20.2351 20.0431 20.2794 18.8845Z" />
<path d="M3.94396 28.6909C4.29032 28.6367 4.64407 28.6699 4.99413 28.6638C17.6516 28.6662 30.3078 28.6626 42.9653 28.665C43.425 28.6059 43.849 29.0052 43.8047 29.4699C43.8059 33.371 43.8059 37.2734 43.8047 41.1746C43.3104 41.1758 42.8174 41.1758 42.3256 41.1758C42.3268 40.0924 42.3256 39.0089 42.3268 37.9255C40.2252 37.9242 38.1249 37.9242 36.0246 37.9255C36.0246 38.5775 36.0233 39.2295 36.0258 39.8828C35.5328 39.8804 35.0397 39.8816 34.5467 39.8803C34.543 39.2283 34.5442 38.5763 34.5455 37.9255C32.4402 37.923 30.3337 37.9242 28.2284 37.9242C28.2309 38.3618 28.2309 38.8006 28.221 39.2382C27.7305 39.232 27.2399 39.2332 26.7481 39.2308C26.7493 38.7957 26.7493 38.3593 26.7481 37.9242C24.649 37.9242 22.5487 37.9255 20.4496 37.9242C20.4471 38.3606 20.4471 38.7969 20.4471 39.2332C19.9541 39.2332 19.461 39.2345 18.968 39.2308C18.968 38.7957 18.968 38.3606 18.968 37.9255C16.8627 37.9242 14.7562 37.9242 12.651 37.9255C12.651 38.5763 12.651 39.2283 12.6522 39.8803C12.1592 39.8816 11.6661 39.8816 11.1731 39.8803C11.1706 39.2283 11.1719 38.5763 11.1719 37.9255C9.07153 37.9242 6.9712 37.9242 4.87087 37.9255C4.87087 39.0089 4.87087 40.0924 4.87087 41.1758C4.37783 41.1746 3.8848 41.1746 3.39176 41.1758C3.39176 37.2759 3.39176 33.3772 3.39176 29.4785C3.34739 29.1223 3.59021 28.7636 3.94396 28.6909ZM4.8721 30.1429C4.86964 32.2432 4.87087 34.3436 4.87087 36.4451C6.9712 36.4451 9.07153 36.4451 11.1719 36.4439C11.1706 34.3436 11.1743 32.2445 11.1706 30.1441C9.0703 30.1429 6.9712 30.1454 4.8721 30.1429ZM12.651 30.1429C12.651 32.2432 12.651 34.3436 12.651 36.4439C14.7562 36.4451 16.8627 36.4451 18.968 36.4451C18.9692 34.3448 18.9655 32.2445 18.9692 30.1441C16.864 30.1417 14.7575 30.1454 12.651 30.1429ZM20.4483 30.1441C20.4471 32.2445 20.4471 34.3448 20.4496 36.4451C22.5487 36.4439 24.649 36.4451 26.7481 36.4451C26.7493 34.3448 26.7481 32.2445 26.7493 30.1454C24.649 30.1429 22.5487 30.1429 20.4483 30.1441ZM28.2284 30.1454C28.2297 32.2445 28.2284 34.3448 28.2284 36.4451C30.3362 36.4414 32.4427 36.4525 34.5504 36.439C34.5381 34.3411 34.5504 32.2432 34.543 30.1454C32.4377 30.1429 30.3337 30.1429 28.2284 30.1454ZM36.0221 30.1441C36.0283 32.2445 36.0233 34.3448 36.0246 36.4439C38.1249 36.4451 40.2252 36.4451 42.3268 36.4439C42.3256 34.3436 42.3268 32.2432 42.3256 30.1417C40.224 30.1466 38.1237 30.1417 36.0221 30.1441Z" />
<path d="M21.2372 40.6201C22.72 40.4216 24.2299 40.4056 25.7139 40.5966C31.2532 41.3189 36.7912 42.0412 42.3292 42.7635C43.1785 42.8424 43.886 43.5512 44.0105 44.3869C44.1362 45.0229 43.8675 45.6318 43.7048 46.232C42.8679 49.1089 42.0346 51.9858 41.1952 54.8614C41.1127 55.3273 40.5395 55.6133 40.1266 55.3705C39.7815 55.2127 39.6557 54.7862 39.7815 54.4436C40.6887 51.2894 41.6143 48.1389 42.5252 44.9859C42.6312 44.6999 42.5289 44.255 42.1678 44.2377C38.6462 43.7706 35.121 43.3182 31.5983 42.856C29.175 42.5651 26.7641 42.1719 24.3334 41.955C24.3236 44.043 24.3371 46.1322 24.3273 48.2214C24.3593 48.6652 23.918 49.0436 23.4854 48.9573C23.0762 48.9179 22.8161 48.4852 22.8518 48.0982C22.8494 46.0509 22.8506 44.0023 22.8518 41.955C20.5444 42.1435 18.258 42.5281 15.9592 42.8005C12.3847 43.2664 8.81018 43.7348 5.23444 44.1983C4.91767 44.218 4.56268 44.4238 4.56515 44.78C4.61938 45.1572 4.76236 45.5147 4.8659 45.8795C5.71269 48.7379 6.56934 51.5938 7.41119 54.4534C7.58499 54.8725 7.2867 55.3816 6.8442 55.4481C6.45717 55.527 6.0726 55.2324 5.99372 54.8565C5.11981 51.9426 4.26193 49.0251 3.39049 46.1112C3.27832 45.7045 3.12055 45.3051 3.08357 44.8811C3.03427 43.8359 3.88969 42.8461 4.93369 42.7475C10.3682 42.0351 15.8027 41.3288 21.2372 40.6201Z" />
<path d="M17.3631 45.0708C17.9424 44.775 18.576 45.2348 18.8028 45.7685C19.1824 46.598 19.143 47.6432 18.6068 48.3964C18.3529 48.7415 17.8931 48.9991 17.4654 48.8228C16.7863 48.5702 16.5139 47.7838 16.4609 47.1194C16.4177 46.3651 16.6383 45.4455 17.3631 45.0708Z" />
<path d="M29.0654 45.0538C29.657 44.7827 30.2425 45.2584 30.4878 45.7724C30.8711 46.6205 30.8304 47.7014 30.2462 48.4509C29.9454 48.8564 29.3242 49.024 28.9014 48.706C28.242 48.1969 28.0472 47.2737 28.1754 46.4861C28.2555 45.9166 28.5366 45.3275 29.0654 45.0538Z" />
<path d="M13.3202 55.5799C16.271 55.2989 19.2724 55.5565 22.132 56.3404C24.2299 56.9185 26.2686 57.7246 28.4194 58.0969C32.5733 58.8685 36.9379 58.4962 40.8883 56.9937C41.7462 56.6597 42.593 56.2985 43.4546 55.9743C43.9833 55.7266 44.5935 56.3034 44.4332 56.847C44.3593 57.202 43.9932 57.3548 43.6912 57.4744C42.5918 57.8935 41.5157 58.3791 40.394 58.7378C35.6338 60.3106 30.3953 60.3673 25.5919 58.9412C23.6197 58.3643 21.6821 57.6371 19.6471 57.2981C16.2476 56.6966 12.715 56.8766 9.39318 57.8146C7.44939 58.3483 5.62886 59.2296 3.74792 59.9383C3.30912 60.1491 2.75692 59.7892 2.73843 59.311C2.68913 58.9387 2.98495 58.6281 3.31898 58.5233C5.35399 57.7271 7.34462 56.7928 9.47084 56.2615C10.7342 55.9337 12.0223 55.7032 13.3202 55.5799Z" />
</svg>
