<svg   viewBox="0 0 65 51"  xmlns="http://www.w3.org/2000/svg">
<path fill-rule="evenodd" clip-rule="evenodd" d="M46.6545 29.0062C46.6552 29.0061 46.656 29.0061 46.6567 29.006L59.9443 27.9741C61.1429 27.83 61.9477 28.8189 61.9089 29.8458C61.9085 29.8572 61.9078 29.8686 61.9068 29.88L60.7673 43.5182C60.7328 43.9309 60.3702 44.2376 59.9574 44.2031C59.5447 44.1686 59.238 43.8061 59.2725 43.3933L60.4103 29.776C60.4116 29.6545 60.3668 29.5685 60.3207 29.5221C60.2809 29.4821 60.2222 29.4503 60.1174 29.4641C60.1043 29.4658 60.0912 29.4672 60.078 29.4682L46.7685 30.5019L46.7642 30.5022C45.6746 30.5804 44.6133 30.8029 43.5278 31.1832L30.9449 35.5905C30.8568 35.6278 30.787 35.7008 30.7504 35.7907C30.7134 35.8815 30.722 35.9569 30.7448 36.0048L34.5851 43.0987C34.7823 43.4629 34.6469 43.9181 34.2826 44.1153C33.9184 44.3125 33.4632 44.177 33.266 43.8128L29.42 36.7084L29.4121 36.6934C28.921 35.735 29.4359 34.5694 30.408 34.1897C30.4163 34.1865 30.4246 34.1834 30.433 34.1805L43.032 29.7675C44.2365 29.3456 45.4274 29.0945 46.6545 29.0062Z" />
<path fill-rule="evenodd" clip-rule="evenodd" d="M29.7566 17.6172C29.6794 17.2116 29.9424 16.8072 30.3441 16.714L53.0568 11.4405C53.4585 11.3472 53.8466 11.6004 53.9239 12.006L54.2626 13.7855C54.3297 14.1383 54.1389 14.499 53.8082 14.6444L49.9019 16.3621L50.0953 17.3781L48.6408 17.7158L48.3317 16.0916C48.2645 15.7388 48.4553 15.3782 48.7861 15.2327L52.6923 13.515L52.6092 13.0781L31.3509 18.0139L31.434 18.4508L35.6359 18.2859C35.9917 18.272 36.2978 18.5172 36.365 18.8701L36.6741 20.4942L35.2196 20.8319L35.0263 19.816L30.8244 19.9808C30.4686 19.9948 30.1625 19.7495 30.0953 19.3967L29.7566 17.6172Z" />
<path fill-rule="evenodd" clip-rule="evenodd" d="M39.1361 12.3471C39.5372 12.2494 39.9221 12.4999 39.9959 12.9065L40.2055 14.0609L42.9366 13.3959L42.727 12.2414C42.6532 11.8348 42.9186 11.426 43.3197 11.3283C43.7208 11.2307 44.1057 11.4811 44.1795 11.8877L44.5227 13.7785C44.5965 14.1851 44.3312 14.5939 43.9301 14.6915L39.7465 15.7103C39.3454 15.808 38.9604 15.5575 38.8866 15.1509L38.5434 13.2602C38.4696 12.8536 38.735 12.4447 39.1361 12.3471Z" />
<path fill-rule="evenodd" clip-rule="evenodd" d="M44.9311 29.6821C45.3364 29.5969 45.7341 29.8564 45.8193 30.2618L46.8958 35.382C46.981 35.7874 46.7215 36.1851 46.3161 36.2703C45.9108 36.3555 45.5131 36.096 45.4279 35.6906L44.3514 30.5704C44.2662 30.165 44.5257 29.7673 44.9311 29.6821Z" />
<path d="M50.8207 35.0279C51.4177 34.8806 51.7826 34.0965 51.6356 33.2766C51.4887 32.4566 50.8857 31.9113 50.2887 32.0586C49.6917 32.2058 49.3268 32.9899 49.4737 33.8099C49.6207 34.6298 50.2237 35.1752 50.8207 35.0279Z" />
<path d="M41.6043 36.9654C42.2013 36.8181 42.5661 36.034 42.4192 35.2141C42.2723 34.3941 41.6693 33.8488 41.0723 33.9961C40.4753 34.1433 40.1104 34.9274 40.2573 35.7474C40.4042 36.5673 41.0073 37.1127 41.6043 36.9654Z" />
<path fill-rule="evenodd" clip-rule="evenodd" d="M46.5232 25.6099L54.1225 24.0124L54.429 25.4703L46.8297 27.0678L46.5232 25.6099Z" />
<path fill-rule="evenodd" clip-rule="evenodd" d="M52.8233 25.347C52.7511 24.9401 53.0172 24.5295 53.4176 24.4297L59.6942 22.8661C60.0946 22.7663 60.4777 23.0153 60.5498 23.4221L61.0864 26.4467L59.6365 26.8079L59.2306 24.5199L54.4039 25.7223L54.6475 27.0951L53.1975 27.4564L52.8233 25.347Z" />
<path fill-rule="evenodd" clip-rule="evenodd" d="M40.396 27.0835L47.3212 25.4518C47.7221 25.3574 48.1088 25.6096 48.1849 26.0151L48.483 27.6043L47.0311 27.9464L46.8707 27.0915L40.6715 28.5521L40.396 27.0835Z" />
<path fill-rule="evenodd" clip-rule="evenodd" d="M34.2517 28.3755L41.1769 26.7436C41.5778 26.6491 41.9645 26.9012 42.0406 27.3068L42.3386 28.8961L40.8867 29.2383L40.7264 28.3833L34.5272 29.8441L34.2517 28.3755Z" />
<path fill-rule="evenodd" clip-rule="evenodd" d="M28.2461 30.514C28.1739 30.1071 28.44 29.6965 28.8404 29.5967L35.117 28.0331C35.5174 27.9333 35.9005 28.1823 35.9727 28.5891L36.3469 30.6985L34.897 31.0597L34.6534 29.6869L29.8267 30.8893L30.2326 33.1773L28.7827 33.5386L28.2461 30.514Z" />
<path fill-rule="evenodd" clip-rule="evenodd" d="M45.3863 20.1943C45.3018 19.7922 45.5583 19.398 45.9593 19.3136L52.1036 18.0216C52.5046 17.9373 52.8982 18.1949 52.9827 18.5969C53.0672 18.999 52.8106 19.3933 52.4096 19.4776L46.2653 20.7696C45.8643 20.854 45.4708 20.5964 45.3863 20.1943Z" />
<path fill-rule="evenodd" clip-rule="evenodd" d="M51.5335 19.3481C51.4649 18.9404 51.7331 18.5248 52.1324 18.4199L58.6033 16.7201C59.0027 16.6152 59.382 16.8607 59.4506 17.2683L60.5399 23.7427L59.0937 24.1226L58.1286 18.3864L53.1039 19.7064L54.069 25.4425L52.6228 25.8224L51.5335 19.3481Z" />
<path fill-rule="evenodd" clip-rule="evenodd" d="M39.1207 21.1929L46.3147 19.303C46.7141 19.1981 47.0934 19.4436 47.162 19.8513L48.2513 26.3259L46.8051 26.7058L45.84 20.9694L39.3691 22.6693L39.1207 21.1929Z" />
<path fill-rule="evenodd" clip-rule="evenodd" d="M32.9764 22.4849L40.1704 20.5951C40.5698 20.4902 40.9491 20.7357 41.0177 21.1433L42.107 27.6177L40.6608 27.9976L39.6957 22.2614L33.2248 23.9613L32.9764 22.4849Z" />
<path fill-rule="evenodd" clip-rule="evenodd" d="M26.9563 24.5151C26.8877 24.1074 27.1558 23.6918 27.5552 23.5869L34.0261 21.8871C34.4255 21.7822 34.8048 22.0277 34.8734 22.4353L35.9627 28.9096L34.5165 29.2895L33.5514 23.5534L28.5267 24.8733L29.4918 30.6095L28.0456 30.9894L26.9563 24.5151Z" />
<path fill-rule="evenodd" clip-rule="evenodd" d="M46.6351 46.1636C42.6713 44.922 38.8942 45.6704 34.3799 46.7324L23.9399 49.1954C23.5368 49.2905 23.1329 49.0407 23.0378 48.6376C22.9426 48.2344 23.1924 47.8305 23.5955 47.7354L34.036 45.2724C38.5229 44.2168 42.6796 43.3531 47.0822 44.7318C47.0826 44.732 47.083 44.7321 47.0835 44.7322L49.1967 45.3863C49.1969 45.3864 49.1966 45.3863 49.1967 45.3863C52.97 46.5472 57.0811 46.4505 60.8014 45.0511L62.8104 44.2475C63.195 44.0937 63.6315 44.2808 63.7853 44.6654C63.9391 45.0499 63.7521 45.4864 63.3675 45.6403L61.3514 46.4467L61.3372 46.4522C57.2975 47.9736 52.8426 48.0776 48.7556 46.82L46.6375 46.1644L46.6351 46.1636Z" />
<path d="M19.6602 9.98193C19.6831 9.78747 19.8115 9.62736 20.0111 9.6071C20.1916 9.56268 20.3784 9.65046 20.4902 9.81701L23.6771 15.6701L26.8187 13.3681C26.9636 13.2538 27.1606 13.2551 27.3042 13.3378C27.4478 13.4205 27.5354 13.6061 27.515 13.7789L26.8857 17.6261L29.2905 17.669C29.4443 17.6652 29.5879 17.7479 29.659 17.8877C29.7301 18.0276 29.7339 18.1814 29.6728 18.3275L28.5001 20.4675C28.4149 20.6327 28.2319 20.6987 28.059 20.6783C27.9942 20.6707 27.951 20.6656 27.8887 20.6363C27.6828 20.5244 27.6054 20.2524 27.7173 20.0465L28.5517 18.5457L26.3655 18.5068C26.2333 18.5131 26.1088 18.4546 26.0326 18.3579C25.9563 18.2613 25.9284 18.1266 25.9412 18.0185L26.4852 14.7089L23.8 16.6704C23.7033 16.7467 23.5686 16.7746 23.4415 16.7377C23.3144 16.7008 23.214 16.6232 23.1594 16.5291L20.4044 11.4719L19.8125 17.2295C19.7972 17.3591 19.7171 17.4811 19.6205 17.5573C19.5022 17.631 19.37 17.6373 19.2429 17.6004L16.3758 16.6486L17.0298 18.3469C17.1123 18.5758 16.9953 18.8248 16.7881 18.9099C16.5593 18.9925 16.3102 18.8754 16.2251 18.6682L15.2575 16.1003C15.1889 15.9389 15.231 15.7686 15.3543 15.6517C15.4776 15.5348 15.6365 15.4878 15.8068 15.5299L19.0336 16.5898L19.6602 9.98193Z" />
<path fill-rule="evenodd" clip-rule="evenodd" d="M0.18396 48.877C1.39551 48.9181 2.60468 49.046 3.80142 49.2608L3.80432 49.2613L8.2574 50.0426L8.26028 50.043C11.0638 50.5236 14.0323 50.6051 16.85 50.2029L16.8524 50.2025L23.7226 49.2657C24.133 49.2097 24.4203 48.8317 24.3644 48.4213C24.3084 48.0108 23.9303 47.7235 23.5199 47.7795L16.645 48.717L16.6402 48.7176C13.9904 49.0962 11.1791 49.0214 8.51514 48.5649L8.51373 48.5646L4.06641 47.7844L4.06499 47.7841C2.78109 47.5538 1.48374 47.4178 0.18396 47.3762V48.877ZM0.18396 39.8976H7.24638V46.1788C7.24638 46.593 7.58217 46.9288 7.99638 46.9288C8.41059 46.9288 8.74638 46.593 8.74638 46.1788V39.8976V38.3976V37.5851C8.74638 37.1709 8.41059 36.8351 7.99638 36.8351C7.58217 36.8351 7.24638 37.1709 7.24638 37.5851V38.3976H0.18396V39.8976ZM0.18396 33.6477H22.539L20.7578 38.3976H18.9338H18.1838V39.8976H18.9338H21.2775C21.5901 39.8976 21.87 39.7037 21.9798 39.4109L24.3235 33.161C24.4099 32.9307 24.3778 32.6726 24.2377 32.4705C24.0976 32.2683 23.8672 32.1477 23.6212 32.1477H0.18396V33.6477ZM0.18396 28.9602H1.74644H2.49644V27.4602H1.74644H0.18396V28.9602ZM0.18396 23.4915H7.99638H8.74638V21.9915H7.99638H0.18396V23.4915ZM0.18396 18.804H13.4963V22.7415C13.4963 23.1557 13.8321 23.4915 14.2463 23.4915H20.5275V29.7727V30.5227H22.0275V29.7727V22.7415C22.0275 22.3273 21.6917 21.9915 21.2775 21.9915H14.9963V18.054C14.9963 17.6398 14.6605 17.304 14.2463 17.304H0.18396V18.804ZM0.18396 2.39795H5.6839V6.33541C5.6839 6.41602 5.69689 6.4961 5.72238 6.57258L8.02762 13.4883V14.9291V15.6791H9.52762V14.9291V13.3666C9.52762 13.286 9.51463 13.2059 9.48914 13.1294L7.1839 6.2137V1.64795C7.1839 1.23374 6.84811 0.897949 6.4339 0.897949H0.18396V2.39795ZM6.4339 27.4602H5.6839V28.9602H6.4339H9.55886H10.3089V27.4602H9.55886H6.4339ZM13.4963 27.4602H14.2463H17.3713H18.1213V28.9602H17.3713H14.2463H13.4963V27.4602ZM15.0276 36.8351C14.6133 36.8351 14.2776 37.1709 14.2776 37.5851C14.2776 37.9993 14.6133 38.3351 15.0276 38.3351H16.6213V46.1788C16.6213 46.593 16.9571 46.9288 17.3713 46.9288C17.7855 46.9288 18.1213 46.593 18.1213 46.1788V37.5851C18.1213 37.1709 17.7855 36.8351 17.3713 36.8351H15.0276Z" />
</svg>
