<svg   viewBox="0 0 32 48"  xmlns="http://www.w3.org/2000/svg">
<path fill-rule="evenodd" clip-rule="evenodd" d="M8.37034 5.40388C8.78663 2.41312 11.3485 0.117432 14.4371 0.117432C16.9761 0.117432 19.1482 1.65544 20.0898 3.85649C23.384 3.3277 26.8529 4.41043 29.2618 7.05702C32.7479 10.8797 32.7797 16.6163 29.5921 20.4852C31.3835 23.8894 30.7513 28.1994 27.7757 30.9296C25.3314 33.1802 21.923 33.7581 18.9969 32.697C18.6075 32.5558 18.4063 32.1257 18.5475 31.7363C18.6887 31.3469 19.1189 31.1457 19.5083 31.2869C21.9258 32.1636 24.7417 31.6848 26.7605 29.8254L26.7616 29.8244C29.3398 27.4588 29.7932 23.6568 28.0381 20.7848L27.7435 20.3027L28.1256 19.8865C31.1558 16.5856 31.2345 11.4461 28.1533 8.06751L28.1527 8.06694C25.9642 5.66223 22.7492 4.76848 19.7712 5.4453L19.0896 5.6002L18.8871 4.93119C18.3043 3.00528 16.5326 1.61743 14.4371 1.61743C11.9379 1.61743 9.88925 3.61258 9.81336 6.1167L9.79242 6.8079L9.10179 6.84301C7.53683 6.92259 5.97177 7.53281 4.72511 8.67337L4.72311 8.67521L4.7231 8.67521C1.83348 11.2997 1.64253 15.7873 4.27487 18.6856L4.28027 18.6915L4.28024 18.6915C4.48094 18.9173 4.71157 19.1235 4.9814 19.3633L5.50805 19.8315L5.07363 20.3863C2.8585 23.2152 2.93917 27.3272 5.44763 30.0764C7.79681 32.6385 11.5079 33.2 14.4444 31.6784C14.8122 31.4878 15.2648 31.6315 15.4554 31.9992C15.6459 32.367 15.5023 32.8196 15.1345 33.0102C11.6114 34.8358 7.16002 34.1643 4.34133 31.0893L4.34021 31.0881C1.49213 27.9673 1.25257 23.3867 3.48476 20.0264C3.37546 19.9203 3.26648 19.8087 3.16182 19.6911C-0.0165658 16.1885 0.204087 10.7543 3.7136 7.56574C5.0527 6.341 6.69409 5.62045 8.37034 5.40388Z" />
<path fill-rule="evenodd" clip-rule="evenodd" d="M17.021 14.0649C17.4352 14.0649 17.771 14.4007 17.771 14.8149V46.5267C17.771 46.9409 17.4352 47.2767 17.021 47.2767C16.6068 47.2767 16.271 46.9409 16.271 46.5267V14.8149C16.271 14.4007 16.6068 14.0649 17.021 14.0649Z" />
<path fill-rule="evenodd" clip-rule="evenodd" d="M21.8659 20.0549C22.2801 20.0549 22.6159 20.3907 22.6159 20.8049V22.8603C22.6159 25.9465 20.1072 28.4552 17.021 28.4552C16.6068 28.4552 16.271 28.1194 16.271 27.7052C16.271 27.291 16.6068 26.9552 17.021 26.9552C19.2788 26.9552 21.1159 25.1181 21.1159 22.8603V20.8049C21.1159 20.3907 21.4517 20.0549 21.8659 20.0549Z" />
<path fill-rule="evenodd" clip-rule="evenodd" d="M9.91525 11.2754C10.3295 11.2754 10.6653 11.6112 10.6653 12.0254V15.0204C10.6653 18.5134 13.5027 21.3762 17.021 21.3762C17.4352 21.3762 17.771 21.712 17.771 22.1262C17.771 22.5404 17.4352 22.8762 17.021 22.8762C12.6702 22.8762 9.16525 19.3378 9.16525 15.0204V12.0254C9.16525 11.6112 9.50104 11.2754 9.91525 11.2754Z" />
</svg>
