<svg   viewBox="0 0 42 22" xmlns="http://www.w3.org/2000/svg">
    <path d="M21.0429 20.2929L40.6894 0.646423L41.3965 1.35353L21.0429 21.7071L0.689377 1.35353L1.39648 0.646423L21.0429 20.2929Z"
          />
</svg>
