<svg   viewBox="0 0 37 46"  xmlns="http://www.w3.org/2000/svg">
<path d="M13.6154 19.7874V20.4919C13.6154 20.8559 13.9106 21.1511 14.2746 21.1511C14.6387 21.1511 14.9338 20.8559 14.9338 20.4919V19.7874C14.9338 19.4233 14.6387 19.1282 14.2746 19.1282C13.9106 19.1282 13.6154 19.4233 13.6154 19.7874Z" />
<path d="M22.07 19.7874V20.4919C22.07 20.8559 22.3651 21.1511 22.7292 21.1511C23.0932 21.1511 23.3884 20.8559 23.3884 20.4919V19.7874C23.3884 19.4233 23.0932 19.1282 22.7292 19.1282C22.3651 19.1282 22.07 19.4233 22.07 19.7874Z" />
<path d="M15.6186 16.8093C15.5304 16.4561 15.1722 16.2413 14.8193 16.3297L12.0011 17.0342C11.6479 17.1225 11.4332 17.4804 11.5215 17.8336C11.5964 18.1331 11.8652 18.3331 12.1605 18.3331C12.2134 18.3331 12.2672 18.3267 12.3209 18.3132L15.139 17.6087C15.4923 17.5203 15.707 17.1625 15.6186 16.8093Z" />
<path d="M24.8433 18.333C25.1386 18.333 25.4074 18.1331 25.4823 17.8336C25.5706 17.4804 25.3559 17.1225 25.0027 17.0342L22.1845 16.3297C21.8317 16.2413 21.4735 16.4561 21.3852 16.8093C21.2968 17.1624 21.5116 17.5203 21.8648 17.6087L24.6829 18.3132C24.7366 18.3266 24.7903 18.333 24.8433 18.333Z" />
<path d="M34.3345 40.381L27.0169 38.0942C26.1108 37.811 25.502 36.9829 25.502 36.0335V34.5827C25.502 34.2187 25.2068 33.9236 24.8428 33.9236C24.4787 33.9236 24.1836 34.2187 24.1836 34.5827V36.0335C24.1836 37.1294 24.6873 38.1247 25.5098 38.7688C23.6567 40.6218 21.1377 41.6736 18.5019 41.6736C15.8713 41.6736 13.3461 40.6212 11.4934 38.7693C12.3163 38.1253 12.8202 37.1296 12.8202 36.0336V32.288C14.5274 33.2942 16.4799 33.8329 18.5019 33.8329C21.3691 33.8329 24.097 32.7511 26.1831 30.7868C28.1075 28.9749 29.319 26.573 29.6347 23.9693H30.4792C31.2363 23.9693 31.9694 23.6543 32.4907 23.105C33.0193 22.548 33.2884 21.8175 33.2481 21.0484C33.1981 20.0933 32.6459 19.2729 31.8429 18.8143V8.51464C31.8429 4.26636 28.3866 0.810059 24.1382 0.810059H14.9792C13.5759 0.810059 12.3294 1.65724 11.7904 2.92365H10.7519C7.66895 2.92365 5.1609 5.43179 5.1609 8.51464V16.5535C5.1609 16.9175 5.45604 17.2126 5.82008 17.2126C6.18413 17.2126 6.47926 16.9175 6.47926 16.5535V8.51464C6.47926 6.15873 8.39598 4.24201 10.7519 4.24201H12.2606C12.561 4.24201 12.8234 4.0389 12.8987 3.74807C13.1458 2.79445 14.0013 2.12842 14.9792 2.12842H24.1382C27.6596 2.12842 30.5245 4.9933 30.5245 8.51464V18.4284C30.4698 18.4255 30.4149 18.4236 30.3595 18.4236H29.7746C28.9726 18.4236 28.3201 17.7712 28.3201 16.9692V13.4464C28.3201 11.529 26.7601 9.96905 24.8428 9.96905C24.4787 9.96905 24.1836 10.2642 24.1836 10.6282C24.1836 10.9923 24.4787 11.2874 24.8428 11.2874C26.0333 11.2874 27.0017 12.256 27.0017 13.4464V16.9692C27.0017 18.0026 27.5704 18.9051 28.4108 19.382V21.1964C28.4108 21.9984 27.7584 22.6508 26.9564 22.6508H10.0474C9.24544 22.6508 8.59303 21.9984 8.59303 21.1964V19.382C9.43344 18.9051 10.0021 18.0025 10.0021 16.9692V13.4464C10.0021 12.256 10.9706 11.2874 12.161 11.2874H22.0244C22.3884 11.2874 22.6836 10.9923 22.6836 10.6282C22.6836 10.2642 22.3884 9.96905 22.0244 9.96905H12.161C10.2436 9.96905 8.68373 11.529 8.68373 13.4464V16.9692C8.68373 17.7712 8.03123 18.4236 7.22923 18.4236H6.64432C5.10166 18.4236 3.83288 19.5765 3.7558 21.0483C3.71554 21.8174 3.98457 22.5479 4.51324 23.1049C5.03452 23.6542 5.76761 23.9692 6.5247 23.9692H7.36924C7.68495 26.5729 8.89643 28.9748 10.8208 30.7867C11.0408 30.9939 11.2682 31.1905 11.5019 31.3778V36.0335C11.5019 36.9829 10.8931 37.8111 9.98698 38.0942L2.66929 40.381C1.20978 40.837 0.229095 42.1709 0.229095 43.7V45.1509C0.229095 45.5149 0.524232 45.8101 0.888275 45.8101C1.25232 45.8101 1.54745 45.5149 1.54745 45.1509V43.7001C1.54745 42.7507 2.15627 41.9226 3.06251 41.6394L7.34788 40.3002C8.59901 41.9316 10.2118 43.288 12.0317 44.2341C14.0147 45.2651 16.2521 45.8101 18.5019 45.8101C20.7395 45.8101 22.966 45.2707 24.9409 44.2504C26.773 43.3037 28.3974 41.9407 29.6554 40.3L33.9412 41.6394C34.8474 41.9226 35.4562 42.7507 35.4562 43.7001V45.1509C35.4562 45.5149 35.7513 45.8101 36.1154 45.8101C36.4794 45.8101 36.7745 45.5149 36.7745 45.1509V43.7001C36.7746 42.1709 35.794 40.8371 34.3345 40.381ZM29.7292 19.7409C29.7302 19.7408 29.7301 19.7409 29.7292 19.7409V19.7409ZM29.7292 21.1965V19.7421H30.3596C31.1866 19.7421 31.8918 20.359 31.9315 21.1173C31.9527 21.5217 31.8116 21.9053 31.5343 22.1975C31.2568 22.4899 30.8821 22.651 30.4791 22.651H29.3158C29.5776 22.2278 29.7292 21.7295 29.7292 21.1965ZM6.5247 22.6509C6.12181 22.6509 5.74705 22.4898 5.46949 22.1974C5.19219 21.9052 5.05121 21.5216 5.07231 21.1172C5.11203 20.3589 5.81718 19.742 6.64423 19.742H7.27458V21.1964C7.27458 21.7294 7.4262 22.2277 7.68793 22.6508H6.5247V22.6509ZM8.69885 23.9692H28.3049C28.234 24.4831 28.1231 24.9839 27.9764 25.469H15.6838C15.3197 25.469 15.0246 25.7641 15.0246 26.1282C15.0246 26.4922 15.3197 26.7874 15.6838 26.7874H26.3004C24.4271 28.1651 21.5608 28.9917 18.5019 28.9917C15.4429 28.9917 12.5767 28.1651 10.7034 26.7874H12.8657C13.2298 26.7874 13.5249 26.4922 13.5249 26.1282C13.5249 25.7641 13.2298 25.469 12.8657 25.469H9.0273C8.8807 24.9839 8.76987 24.4831 8.69885 23.9692ZM10.2685 28.0955C12.3602 29.5015 15.3037 30.3101 18.5019 30.3101C21.7001 30.3101 24.6436 29.5014 26.7353 28.0954C24.9514 30.7645 21.9113 32.5144 18.5019 32.5144C15.0925 32.5144 12.0524 30.7645 10.2685 28.0955ZM24.3356 43.079C22.5216 44.0164 20.5588 44.4917 18.5019 44.4917C14.7134 44.4917 11.1048 42.7805 8.69709 39.8786L10.2623 39.3895C12.3838 41.6804 15.377 42.9919 18.502 42.9919C21.6332 42.9919 24.6197 41.6826 26.7426 39.3898L28.3072 39.8788C27.2135 41.1967 25.8527 42.2952 24.3356 43.079Z" />
</svg>
