<svg   viewBox="0 0 31 45"  xmlns="http://www.w3.org/2000/svg">
<path d="M6.34802 13.8417C9.15536 9.08274 12.2059 4.46886 15.4539 0C17.443 2.69919 19.3208 5.47903 21.1442 8.29199C23.2227 11.5356 25.2311 14.8299 27.0077 18.2505C28.3129 16.9478 29.615 15.6419 30.9202 14.3399C30.9183 19.4144 30.9221 24.489 30.9177 29.5636C30.9083 32.1709 30.2513 34.7876 28.9617 37.0574C28.5804 36.8448 28.2022 36.6279 27.8191 36.4204C29.0324 34.2425 29.6444 31.7402 29.5994 29.2486C29.5987 25.3417 29.5994 21.4348 29.5987 17.5279C28.6179 18.5055 27.6415 19.487 26.6601 20.464C24.1472 15.4088 21.1436 10.6155 18.0074 5.92785C17.1654 4.69577 16.3334 3.45557 15.4539 2.24975C12.3115 6.69798 9.32164 11.2606 6.62995 15.9983C4.86028 14.2292 3.09249 12.4589 1.32157 10.6911C1.32095 16.3983 1.32157 22.1055 1.32095 27.8133C1.3322 29.0392 1.26781 30.2725 1.45034 31.4902C1.65725 33.0067 2.11545 34.4913 2.80682 35.8572C2.41613 36.0609 2.01919 36.2528 1.62537 36.451C0.741478 34.6851 0.196388 32.7491 0.0488635 30.7788C-0.0167723 30.0399 0.00385635 29.2986 0.000730836 28.5584C0.000730836 21.5373 0.000730836 14.5155 0.000730836 7.49436C2.1167 9.60971 4.23268 11.7251 6.34802 13.8417Z" />
<path d="M16.114 7.05918C16.4816 6.81727 16.8441 6.56723 17.2079 6.32031C17.4536 6.68787 17.708 7.04918 17.9456 7.42174C17.5843 7.66678 17.2161 7.90182 16.8591 8.15249C16.5985 7.79618 16.3684 7.41987 16.114 7.05918Z" />
<path d="M17.3323 8.8897C17.6943 8.63966 18.0606 8.39524 18.435 8.16333C18.6838 8.52401 18.9076 8.90095 19.1576 9.26164C18.7913 9.5048 18.4219 9.74296 18.0518 9.9805C17.8037 9.62169 17.583 9.24601 17.3323 8.8897Z" />
<path d="M18.5287 10.7081C18.9038 10.4849 19.2657 10.2417 19.6333 10.0073C21.383 12.7472 23.0695 15.5301 24.6029 18.3975C24.2134 18.6012 23.8302 18.8163 23.4389 19.0163C22.1712 16.6472 20.7966 14.3362 19.3714 12.0583C19.0957 11.6051 18.7919 11.1688 18.5287 10.7081Z" />
<path d="M5.66977 22.9193C5.72853 22.8693 5.78167 22.7824 5.87231 22.8005C12.1871 22.8005 18.5025 22.8005 24.8173 22.8012C25.6431 23.6251 26.4669 24.4514 27.2933 25.2753C27.2958 26.1017 27.2933 26.9281 27.2946 27.7545C27.5778 27.7545 27.8609 27.7539 28.1441 27.7551C28.1478 29.1016 28.1453 30.4481 28.1453 31.7945C27.8616 31.7945 27.5784 31.7933 27.2952 31.7958C27.2933 36.1965 27.294 40.5978 27.2946 44.9986C19.3014 45.0011 11.3076 44.9992 3.31376 44.9998C3.31314 40.5978 3.31439 36.1965 3.31314 31.7945C3.02934 31.7939 2.74492 31.7945 2.46112 31.7951C2.46237 30.4481 2.46175 29.1016 2.46112 27.7551C2.74492 27.7539 3.02934 27.7551 3.31314 27.7545C3.31626 26.9262 3.30939 26.0986 3.31689 25.271C4.10452 24.4902 4.88715 23.7051 5.66977 22.9193ZM6.33551 24.122C5.77042 24.6915 5.20095 25.2559 4.63523 25.8248C4.63273 26.468 4.6346 27.1113 4.6346 27.7551C11.747 27.7539 18.8601 27.7551 25.9731 27.7545C25.9744 27.1088 25.9731 26.4636 25.9737 25.8179C25.4487 25.2885 24.9179 24.7652 24.3941 24.2345C24.3372 24.1845 24.286 24.1033 24.1978 24.1214C18.2437 24.122 12.2896 24.1201 6.33551 24.122ZM3.78759 29.0722C3.77696 29.5392 3.78571 30.0061 3.78259 30.4724C11.4626 30.4749 19.1432 30.4731 26.8239 30.4737C26.8276 30.0074 26.8233 29.541 26.8264 29.0753C19.1464 29.0735 11.467 29.0791 3.78759 29.0722ZM4.6346 31.7964C4.63335 35.7596 4.6346 39.7233 4.63398 43.6865C11.747 43.6877 18.8601 43.6871 25.9731 43.6871C25.9737 39.7227 25.9737 35.7589 25.9731 31.7945C18.8601 31.7951 11.7476 31.7927 4.6346 31.7964Z" />
<path d="M16.6591 25.4585C17.0992 25.4566 17.5393 25.4572 17.9793 25.4585C17.9806 25.8979 17.9812 26.338 17.9793 26.7787C17.5393 26.7774 17.0998 26.7787 16.6597 26.7781C16.6591 26.338 16.6597 25.8985 16.6591 25.4585Z" />
<path d="M18.8613 25.458C19.302 25.4568 19.7427 25.4587 20.1834 25.4568C20.184 25.8969 20.1834 26.3376 20.1834 26.7776C19.7433 26.7789 19.3033 26.7789 18.8632 26.7783C18.862 26.3382 18.8645 25.8981 18.8613 25.458Z" />
<path d="M21.0629 25.4568C22.2231 25.4593 23.3827 25.4562 24.5429 25.458C24.5441 25.8981 24.5447 26.3388 24.5429 26.7789C23.3814 26.7776 22.22 26.7789 21.0592 26.7783C21.0604 26.3376 21.0542 25.8969 21.0629 25.4568Z" />
<path d="M5.92356 33.0923C12.1765 33.0898 18.43 33.0923 24.6835 33.0911C24.6854 36.1903 24.6841 39.2896 24.6841 42.3882C18.4306 42.392 12.1771 42.3895 5.92356 42.3895C5.92293 39.2908 5.92356 36.1916 5.92356 33.0923ZM7.24377 34.4125C7.2444 36.631 7.24315 38.8501 7.2444 41.0686C12.6178 41.0705 17.9905 41.068 23.3639 41.0705C23.3589 38.8501 23.3727 36.6291 23.3571 34.4094C17.9862 34.4163 12.6147 34.41 7.24377 34.4125Z" />
<path d="M10.7769 36.0153C11.2163 36.0121 11.6558 36.0146 12.0958 36.0134C12.0977 36.3703 12.0952 36.7272 12.0977 37.0848C14.2356 37.0842 16.3734 37.0848 18.5113 37.0842C18.5119 36.7279 18.51 36.3709 18.5125 36.0146C18.9501 36.0103 19.3883 36.0184 19.8259 36.0103C19.8421 36.3684 19.8227 36.7272 19.8371 37.0854C20.311 37.0829 20.7848 37.0854 21.2586 37.0842C21.2661 37.5218 21.2599 37.9593 21.2617 38.3969C20.7854 38.3969 20.3085 38.3981 19.8315 38.3963C19.8321 38.7532 19.8321 39.1101 19.8315 39.4677C19.3914 39.4677 18.9514 39.4683 18.5113 39.4677C18.5107 39.1108 18.5125 38.7538 18.51 38.3975C16.3722 38.3975 14.2343 38.3969 12.0971 38.3975C12.0965 38.7538 12.0971 39.1108 12.0965 39.4677C11.6564 39.4683 11.2163 39.4671 10.7769 39.4683C10.775 39.1114 10.775 38.7545 10.7763 38.3981C10.2999 38.3963 9.82298 38.3975 9.34602 38.3969C9.3454 37.9599 9.34602 37.5224 9.3454 37.0854C9.82235 37.0823 10.2987 37.0861 10.775 37.0836C10.7769 36.7272 10.7744 36.3709 10.7769 36.0153Z" />
</svg>
