<svg   viewBox="0 0 37 46"  xmlns="http://www.w3.org/2000/svg">
<path fill-rule="evenodd" clip-rule="evenodd" d="M0.842348 0.358643H36.141H36.9592V1.17682V44.5405V45.3586H36.141H0.842348H0.0241699V44.5405V1.17682V0.358643H0.842348ZM35.2644 33.5534L25.0956 43.7223H35.2644V33.5534ZM22.7579 43.7807L35.2644 31.2742V24.5534L16.0372 43.7807H22.7579ZM35.2644 2.05344H1.66053V43.7807H13.6995L27.4917 29.9885C27.0242 28.1768 26.3229 26.6573 25.5047 25.4301C24.5696 24.0275 23.4008 23.034 22.1151 22.3911C21.0631 23.0924 19.7774 23.4431 18.4333 23.4431C17.0891 23.4431 15.8034 23.034 14.7514 22.3911C13.0566 23.2677 11.5372 24.8457 10.4268 27.008C9.37481 29.1119 8.7904 31.8002 8.7904 35.1314H7.15403C7.15403 31.5664 7.85533 28.5859 8.96572 26.3067C10.0761 24.0275 11.654 22.3327 13.4073 21.2807C12.2969 20.0534 11.654 18.4755 11.654 16.7223C11.654 14.8521 12.4138 13.1573 13.641 11.9301C14.8683 10.7028 16.5631 9.94305 18.4333 9.94305C20.3034 9.94305 21.9982 10.7028 23.2255 11.9301C24.4527 13.1573 25.2125 14.8521 25.2125 16.7223C25.2125 18.4755 24.5696 20.0534 23.4592 21.2807C24.7449 22.0405 25.8553 23.1508 26.8488 24.5534C27.667 25.7223 28.3683 27.1249 28.8359 28.7612L35.2644 22.3327V2.05344ZM22.0566 13.0405C21.1216 12.1054 19.8359 11.521 18.4333 11.521C17.0307 11.521 15.7449 12.1054 14.8099 13.0405C13.8748 13.9755 13.2904 15.2612 13.2904 16.6638C13.2904 18.0664 13.8748 19.3522 14.8099 20.2872C15.7449 21.2223 17.0307 21.8067 18.4333 21.8067C19.8359 21.8067 21.1216 21.2223 22.0566 20.2872C22.9917 19.3522 23.5761 18.0664 23.5761 16.6638C23.5761 15.2612 22.9917 13.9755 22.0566 13.0405Z" />
</svg>
