<svg  viewBox="0 0 86 66"  xmlns="http://www.w3.org/2000/svg">
<path d="M15.7764 0.526361C16.5955 -0.216145 17.9878 -0.169197 18.7427 0.642494C19.3061 1.25528 20.1005 1.77787 20.2265 2.66616C20.4081 3.48774 20.0016 4.29572 19.4148 4.84797C20.1734 5.17907 20.9344 5.50646 21.6954 5.83262C22.3267 5.22107 22.9272 4.57864 23.5894 4.00045C24.4023 3.29254 25.7428 3.36543 26.4927 4.13511C27.0276 4.71083 27.7541 5.1976 27.9505 6.00558C28.189 6.82222 27.869 7.70804 27.2525 8.27017C29.0365 9.0485 30.818 9.82931 32.602 10.6064C34.5935 8.63092 36.5567 6.62702 38.5371 4.64041C39.6453 3.55939 40.6707 2.35606 42.0285 1.57279C43.6877 0.541187 45.6558 0.149549 47.5855 0.064303C49.2707 -0.00858854 50.8187 1.50237 50.8064 3.18505C50.7335 5.17907 50.3344 7.22127 49.2571 8.9299C48.5838 10.0702 47.5905 10.9585 46.6688 11.8913C44.7094 13.8507 42.7488 15.8114 40.7893 17.772C41.7616 19.6573 42.7376 21.5401 43.7075 23.4267C44.4574 22.5149 45.9325 22.2481 46.869 23.0276C47.3693 23.4724 47.9475 23.8566 48.3219 24.4224C48.7703 25.1872 48.6542 26.2213 48.0711 26.8847C47.5201 27.5234 46.9493 28.1436 46.3946 28.7786C46.8134 29.5533 47.2137 30.339 47.6041 31.1297C48.1044 30.4366 48.9272 29.9375 49.8044 30.0314C50.7273 30.0734 51.3339 30.8418 52.001 31.3756C52.9289 32.1675 52.8819 33.7093 52.0047 34.521C51.4562 35.1091 50.9262 35.7132 50.3715 36.2939C50.8854 37.4033 51.5822 38.4337 51.9084 39.6247C52.4038 41.3259 52.6558 43.2087 52.027 44.9112C51.749 45.7216 51.1609 46.3665 50.5716 46.967C44.8614 40.2585 39.1524 33.5463 33.4421 26.8378C33.1752 26.5165 32.8404 26.2237 32.7577 25.795C29.4158 29.2259 25.8713 32.4628 22.0809 35.3933C19.6866 37.2785 17.1576 38.9822 14.6719 40.7415C15.4836 42.3303 15.9271 44.1526 15.6664 45.9366C15.4317 47.7502 14.4804 49.4193 13.1782 50.6844C12.82 51.1032 12.0206 50.871 11.9514 50.3212C11.8081 48.6781 10.9322 47.1844 9.78816 46.0305C9.48177 45.7723 9.39035 45.2719 9.67821 44.9655C9.929 44.627 10.4775 44.5998 10.7605 44.9112C11.7921 45.9106 12.5963 47.1473 13.0806 48.5014C13.9553 47.3067 14.3791 45.7883 14.2296 44.3144C14.1221 43.1037 13.686 41.9387 13.0411 40.9132C12.8125 40.5797 12.946 40.1127 13.2808 39.9064C15.6145 38.2471 17.9953 36.6485 20.2747 34.9127C24.2578 31.9031 27.9814 28.56 31.4691 24.9908C36.5764 19.8822 41.6875 14.776 46.7924 9.66499C47.6547 8.82241 48.3009 7.77228 48.7209 6.64555C49.1002 5.56947 49.2534 4.42791 49.3213 3.29377C49.3856 2.319 48.438 1.43318 47.4694 1.55179C46.1499 1.64568 44.807 1.84088 43.6024 2.4166C42.4967 2.91819 41.5281 3.68541 40.7028 4.57123C36.6913 8.58644 32.7058 12.6288 28.6868 16.6379C26.3234 19.0136 23.9131 21.3462 21.6596 23.8294C19.2085 26.5104 16.9068 29.3284 14.7683 32.2639C13.5266 33.9848 12.3196 35.7305 11.1052 37.4713C10.9544 37.6776 10.7889 37.9185 10.5146 37.9593C10.1897 38.0346 9.91912 37.8073 9.6535 37.664C7.98193 36.6818 5.87919 36.3186 4.02478 36.9734C3.43053 37.1624 2.89188 37.4812 2.36557 37.8086C3.72086 38.2817 4.95878 39.0823 5.96197 40.109C6.18682 40.3165 6.27577 40.655 6.14482 40.9404C5.97309 41.4408 5.24541 41.5446 4.90937 41.148C3.87653 40.1226 2.58548 39.2985 1.13877 39.0292C0.815083 38.9563 0.41109 39.0107 0.181296 38.7203C-0.074442 38.4411 -0.055909 37.9741 0.213419 37.711C1.37845 36.5484 2.84369 35.644 4.47078 35.3142C6.39808 34.9102 8.43164 35.3228 10.1551 36.2371C12.0577 33.5203 13.9306 30.7764 16.0062 28.1869C18.6711 24.8104 21.5781 21.6303 24.6259 18.5985C17.4307 13.2972 10.2255 8.01072 3.0253 2.71682C3.59855 2.12627 4.19651 1.52337 4.97361 1.20709C6.60688 0.510301 8.45882 0.649907 10.1563 1.01807C11.4634 1.27875 12.6383 1.92983 13.8602 2.43019C14.5026 1.79888 15.1241 1.14656 15.7764 0.526361ZM16.6931 1.70251C15.8567 2.52656 15.0314 3.36419 14.1987 4.19318C12.941 3.69159 11.7377 3.04915 10.4504 2.62416C8.82698 2.17939 7.02446 1.94713 5.42455 2.6081C5.59751 2.75635 5.77418 2.90213 5.9595 3.03556C12.5457 7.85876 19.1059 12.7178 25.7008 17.5274C27.6244 15.5952 29.5541 13.6703 31.4827 11.743C29.5418 10.8745 27.5824 10.048 25.6439 9.17699C25.2276 9.02132 25.0781 8.45919 25.3314 8.10338C25.6353 7.70804 26.0393 7.40288 26.3679 7.02854C26.6064 6.78639 26.594 6.35769 26.3617 6.1143C26.0652 5.78815 25.7489 5.47928 25.429 5.17783C25.1856 4.93321 24.7581 4.92951 24.5073 5.16424C23.7698 5.82521 23.1038 6.56277 22.3725 7.22992C22.1513 7.44365 21.8091 7.52025 21.5311 7.3757C20.2907 6.84322 19.0503 6.31198 17.8161 5.76714C17.3738 5.60406 17.1996 4.96781 17.532 4.62188C17.8791 4.2253 18.2967 3.89544 18.634 3.48897C18.8687 3.22459 18.8156 2.78106 18.5524 2.55374C18.2485 2.24982 17.9508 1.93601 17.6345 1.64444C17.3751 1.39118 16.9266 1.43936 16.6931 1.70251ZM33.5446 24.9957C34.0462 25.0908 34.3082 25.5492 34.6195 25.9013C39.9332 32.1477 45.2481 38.3929 50.5617 44.6381C51.2338 42.9863 50.857 41.1245 50.2887 39.4999C49.7686 38.346 49.1644 37.2316 48.5764 36.111C49.3794 35.2018 50.2208 34.3271 51.0226 33.4178C51.3018 33.146 51.24 32.6641 50.9324 32.4405C50.5494 32.1317 50.2183 31.7289 49.7599 31.53C49.2398 31.383 48.8964 31.8735 48.5912 32.2046C48.2379 32.5653 47.9241 33.1497 47.331 33.0706C46.927 33.0755 46.7022 32.6864 46.5515 32.3689C46.0054 31.215 45.3716 30.1055 44.8206 28.9553C44.6711 28.6761 44.8144 28.3499 45.0084 28.1337C45.6632 27.3875 46.3414 26.6598 46.9839 25.9038C47.2631 25.5702 47.0827 25.1007 46.7442 24.8932C46.2846 24.5707 45.8806 23.9011 45.2382 24.0864C44.5797 24.4076 44.319 25.244 43.6247 25.5047C43.1231 25.6295 42.792 25.1687 42.6932 24.7412C41.7085 22.7793 40.672 20.8409 39.6811 18.8802C37.6315 20.9138 35.6103 22.9782 33.5446 24.9957Z" />
<path d="M6.34865 9.98272C6.79588 9.76405 7.37407 10.1161 7.39013 10.6116C7.42349 10.897 7.23446 11.128 7.0405 11.3108C5.96195 12.3733 4.90193 13.4556 3.82338 14.5181C3.50711 14.8455 2.90791 14.7404 2.70036 14.3439C2.5101 14.0511 2.59411 13.6458 2.85232 13.421C3.88145 12.3894 4.91676 11.3652 5.93971 10.3299C6.0682 10.2051 6.19051 10.0704 6.34865 9.98272Z" />
<path d="M12.8039 14.8574C13.1918 14.719 13.6687 14.9834 13.7404 15.3936C13.8194 15.6691 13.7021 15.9619 13.492 16.1447C12.5222 17.1121 11.5524 18.0782 10.5863 19.0505C10.4009 19.2296 10.2317 19.4372 10.0007 19.5632C9.57567 19.7374 9.04689 19.4508 8.98141 18.9924C8.92582 18.7058 9.08519 18.4377 9.28286 18.2475C10.2935 17.2393 11.3053 16.2337 12.3097 15.2194C12.4567 15.0785 12.6025 14.9179 12.8039 14.8574Z" />
<path d="M48.7691 18.1822C52.9029 16.0325 57.6359 15.0417 62.2849 15.3999C67.1921 15.7557 71.9844 17.5743 75.8847 20.5752C79.3551 23.2302 82.1015 26.8081 83.7966 30.8332C85.735 35.3982 86.2736 40.5414 85.3273 45.4103C84.4835 49.8628 82.4203 54.0782 79.4107 57.4683C76.5988 60.6483 72.9703 63.0933 68.9736 64.5215C64.3605 66.1893 59.2568 66.45 54.4942 65.2837C49.8056 64.1632 45.463 61.6601 42.131 58.1786C40.5373 56.4947 39.161 54.6045 38.08 52.5536C38.4518 52.4387 38.8151 52.2991 39.1931 52.204C39.6996 52.9836 40.1357 53.8163 40.6917 54.5674C43.4715 58.5518 47.4966 61.6453 52.0566 63.3181C56.7612 65.0725 62.0205 65.306 66.8598 63.9581C71.4742 62.6819 75.7007 60.017 78.8078 56.37C81.6716 53.0342 83.5828 48.8955 84.292 44.5578C85.0407 40.0113 84.4575 35.2499 82.5982 31.0321C80.855 27.0033 77.9863 23.4674 74.3973 20.9385C70.3487 18.0759 65.4019 16.4958 60.4404 16.5155C56.7291 16.5007 53.0301 17.3964 49.7056 19.0359C50.6284 20.7581 51.518 22.4988 52.4482 24.2161C52.8708 24.1111 53.2463 23.8628 53.6602 23.7207C58.1548 21.8873 63.382 21.9898 67.8148 23.9616C71.8609 25.7172 75.2052 29.0146 77.035 33.0261C79.1068 37.454 79.2575 42.7219 77.4698 47.2696C75.8526 51.5146 72.5651 55.0875 68.4782 57.0667C63.9738 59.3103 58.5341 59.5278 53.853 57.6931C50.2059 56.2921 47.0333 53.6865 44.9713 50.3669C45.3568 50.2557 45.7398 50.1322 46.119 49.9987C48.3021 53.3283 51.6563 55.877 55.4776 57.0149C58.1499 57.8265 61.0223 57.9785 63.7613 57.4312C67.9618 56.6047 71.8176 54.1437 74.3108 50.6597C77.051 46.8817 78.1394 41.9559 77.219 37.3774C76.3542 32.9186 73.6338 28.8515 69.8224 26.3769C65.8282 23.7417 60.706 22.8967 56.0842 24.1506C55.0229 24.4274 53.995 24.8202 53.0067 25.2922C53.9271 27.0317 54.8401 28.7762 55.7642 30.5157C57.7557 29.6101 60.0092 29.2728 62.1737 29.6237C64.5964 29.9931 66.8882 31.1804 68.5709 32.9656C70.2289 34.7051 71.2975 36.9919 71.5681 39.3788C71.8325 41.6496 71.3741 43.9957 70.2844 46.0045C69.1824 48.0418 67.433 49.7282 65.3414 50.7289C63.2646 51.758 60.8567 52.0891 58.5748 51.6975C56.0867 51.2861 53.7702 49.9901 52.0813 48.1208C52.5001 47.9924 52.919 47.8614 53.3353 47.7206C54.8314 49.2426 56.8304 50.2557 58.9405 50.5707C60.8654 50.8648 62.8742 50.5843 64.6372 49.7591C66.7474 48.7954 68.5017 47.0719 69.4913 44.9729C70.5451 42.7862 70.7552 40.2066 70.0695 37.8765C69.5172 35.9702 68.3856 34.2319 66.8561 32.9643C65.0684 31.483 62.7556 30.6442 60.4317 30.6602C59.0122 30.659 57.6025 30.9851 56.309 31.5633C57.6087 34.0095 58.8973 36.4619 60.1871 38.9118C60.9222 38.8327 61.7092 39.1972 62.0304 39.8829C62.49 40.7477 62.0465 41.9374 61.1372 42.2957C60.2724 42.6824 59.153 42.2265 58.8145 41.3407C58.5378 40.7032 58.7256 39.9632 59.1481 39.4381C55.6493 32.8729 52.1703 26.2941 48.7209 19.703C48.5578 19.3596 48.2996 19.0272 48.312 18.6294C48.3799 18.4144 48.585 18.2884 48.7691 18.1822Z" />
<path d="M37.0039 37.3454C37.3078 37.2157 37.6896 37.317 37.8724 37.5962C38.0899 37.8878 38.0232 38.3214 37.7649 38.5673C36.8235 39.6014 35.8772 40.6305 34.9345 41.6633C34.748 41.856 34.5911 42.0957 34.339 42.2094C33.9598 42.3959 33.4149 42.1488 33.347 41.7201C33.2679 41.436 33.4001 41.1506 33.599 40.9529C34.5861 39.883 35.5658 38.8057 36.5493 37.7321C36.6889 37.5913 36.8161 37.4232 37.0039 37.3454Z" />
<path d="M8.45141 41.5112C8.95177 41.3209 9.53861 41.8262 9.41012 42.3501C9.39653 42.5737 9.21122 42.717 9.07161 42.8677C7.99306 43.9302 6.93305 45.0112 5.85573 46.0749C5.63088 46.3245 5.23554 46.3653 4.95756 46.1824C4.55851 45.9637 4.48068 45.346 4.81796 45.0372C5.8582 43.9784 6.92069 42.9394 7.96218 41.8818C8.11043 41.7422 8.25374 41.5791 8.45141 41.5112Z" />
<path d="M42.1768 43.4632C42.5733 43.2248 43.154 43.4707 43.2454 43.9265C43.3208 44.2057 43.1997 44.4874 43.0008 44.6826C41.9482 45.8131 40.9203 46.9657 39.8665 48.095C39.6058 48.4001 39.0832 48.4433 38.8028 48.1419C38.5161 47.8849 38.5186 47.3957 38.7867 47.1264C39.6985 46.1059 40.6362 45.1064 41.5553 44.0921C41.7567 43.8784 41.9272 43.6263 42.1768 43.4632Z" />
</svg>
