<svg  viewBox="0 0 46 27"  xmlns="http://www.w3.org/2000/svg">
<path fill-rule="evenodd" clip-rule="evenodd" d="M3.32581 0.645501L14.2861 5.84461C14.2864 5.84477 14.2868 5.84494 14.2871 5.84511C15.3897 6.36378 16.4761 6.61697 17.623 6.61697H43.1464C44.3341 6.61697 45.3027 7.58557 45.3027 8.77322V12.992C45.3027 13.4062 44.9669 13.742 44.5527 13.742H0.958923C0.54471 13.742 0.208923 13.4062 0.208923 12.992V9.47635C0.208923 8.28869 1.17752 7.3201 2.36517 7.3201H3.78363L1.50078 6.29574C0.75199 5.97187 0.208923 5.22039 0.208923 4.34353V2.58572C0.208923 1.00129 1.82262 -0.0996931 3.32581 0.645501ZM2.66258 1.99092C2.19917 1.75921 1.70892 2.06345 1.70892 2.58572V4.34353C1.70892 4.58916 1.86586 4.82026 2.09811 4.9198L2.10976 4.92479L2.10972 4.92489L7.59409 7.38583C7.9168 7.53063 8.09447 7.88122 8.02043 8.2271C7.94639 8.57297 7.64076 8.8201 7.28705 8.8201H2.36517C2.00595 8.8201 1.70892 9.11712 1.70892 9.47635V12.242H43.8027V8.77322C43.8027 8.414 43.5056 8.11697 43.1464 8.11697H17.623C16.239 8.11697 14.9351 7.80782 13.6474 7.20184L13.6453 7.20085L2.67655 1.99772L2.66258 1.99092Z" />
<path fill-rule="evenodd" clip-rule="evenodd" d="M37.5214 19.3671C35.994 19.3671 34.7558 20.6053 34.7558 22.1327C34.7558 23.6601 35.994 24.8983 37.5214 24.8983C39.0488 24.8983 40.287 23.6601 40.287 22.1327C40.287 20.6053 39.0488 19.3671 37.5214 19.3671ZM33.2558 22.1327C33.2558 19.7769 35.1656 17.8671 37.5214 17.8671C39.8773 17.8671 41.787 19.7769 41.787 22.1327C41.787 24.4885 39.8773 26.3983 37.5214 26.3983C35.1656 26.3983 33.2558 24.4885 33.2558 22.1327Z" />
<path fill-rule="evenodd" clip-rule="evenodd" d="M7.99017 19.3671C6.46276 19.3671 5.22455 20.6053 5.22455 22.1327C5.22455 23.6601 6.46276 24.8983 7.99017 24.8983C9.51759 24.8983 10.7558 23.6601 10.7558 22.1327C10.7558 20.6053 9.51759 19.3671 7.99017 19.3671ZM3.72455 22.1327C3.72455 19.7769 5.63433 17.8671 7.99017 17.8671C10.346 17.8671 12.2558 19.7769 12.2558 22.1327C12.2558 24.4885 10.346 26.3983 7.99017 26.3983C5.63433 26.3983 3.72455 24.4885 3.72455 22.1327Z" />
<path fill-rule="evenodd" clip-rule="evenodd" d="M19.9349 15.5674C20.0659 15.1744 20.4906 14.962 20.8836 15.093L22.7558 15.7171L24.628 15.093C25.021 14.962 25.4457 15.1744 25.5767 15.5674C25.7077 15.9603 25.4953 16.3851 25.1023 16.516L22.993 17.2192C22.839 17.2705 22.6726 17.2705 22.5186 17.2192L20.4093 16.516C20.0163 16.3851 19.8039 15.9603 19.9349 15.5674Z" />
<path fill-rule="evenodd" clip-rule="evenodd" d="M22.4773 20.7332C22.6561 20.6617 22.8555 20.6617 23.0343 20.7332L30.0656 23.5457C30.4502 23.6995 30.6372 24.136 30.4834 24.5206C30.3296 24.9052 29.8931 25.0923 29.5085 24.9384L22.7558 22.2373L16.0031 24.9384C15.6185 25.0923 15.182 24.9052 15.0282 24.5206C14.8744 24.136 15.0614 23.6995 15.446 23.5457L22.4773 20.7332Z" />
<path fill-rule="evenodd" clip-rule="evenodd" d="M17.833 18.3537C17.9785 18.7415 17.782 19.1738 17.3941 19.3193L11.7691 21.4286C11.3813 21.5741 10.949 21.3776 10.8036 20.9897C10.6581 20.6019 10.8546 20.1696 11.2425 20.0242L16.8675 17.9148C17.2553 17.7693 17.6876 17.9658 17.833 18.3537Z" />
<path fill-rule="evenodd" clip-rule="evenodd" d="M27.6786 18.3537C27.824 17.9658 28.2563 17.7693 28.6441 17.9148L34.2691 20.0242C34.657 20.1696 34.8535 20.6019 34.708 20.9897C34.5626 21.3776 34.1303 21.5741 33.7425 21.4286L28.1175 19.3193C27.7296 19.1738 27.5331 18.7415 27.6786 18.3537Z" />
<path fill-rule="evenodd" clip-rule="evenodd" d="M10.1104 15.5161C10.2697 15.1337 10.7088 14.9529 11.0911 15.1122L19.5286 18.6278C19.911 18.7871 20.0918 19.2263 19.9325 19.6086C19.7732 19.991 19.3341 20.1718 18.9517 20.0124L10.5142 16.4968C10.1319 16.3375 9.95105 15.8984 10.1104 15.5161Z" />
<path fill-rule="evenodd" clip-rule="evenodd" d="M35.4012 15.5161C35.5605 15.8984 35.3797 16.3375 34.9974 16.4968L26.5599 20.0124C26.1775 20.1718 25.7384 19.991 25.5791 19.6086C25.4198 19.2263 25.6006 18.7871 25.983 18.6278L34.4205 15.1122C34.8028 14.9529 35.2419 15.1337 35.4012 15.5161Z" />
</svg>
