<svg   viewBox="0 0 48 65"  xmlns="http://www.w3.org/2000/svg">
<path d="M3.56441 0.368051C3.75408 0.0283768 4.25243 -0.121626 4.57723 0.115155C4.76071 0.268876 4.90451 0.461028 5.05947 0.640783C7.83761 3.90488 10.6244 7.1603 13.4001 10.4256C13.8228 8.29462 14.2232 6.15987 14.6547 4.03133C14.7514 3.40281 15.6997 3.29867 15.9526 3.87389C18.7655 9.2467 21.5796 14.622 24.3862 19.9985C25.0742 21.3039 25.4164 22.7841 25.3904 24.2581C25.3532 26.5403 24.4098 28.7991 22.787 30.4082C21.0651 32.1537 18.6006 33.1404 16.1497 33.0537C13.1856 32.978 10.317 31.3218 8.80085 28.7693C8.07439 27.4899 7.43223 26.1635 6.73305 24.868C4.52765 20.637 2.30488 16.4146 0.101959 12.181C-0.255071 11.6455 0.395765 10.9104 0.969741 11.1967C2.95944 12.0534 4.9355 12.9434 6.92272 13.8026C5.84172 9.68059 4.75079 5.55987 3.66482 1.4379C3.58548 1.09079 3.40945 0.720123 3.56441 0.368051ZM5.63593 3.45735C6.98347 8.5376 8.31737 13.6228 9.65871 18.7043C9.20871 18.822 8.75746 18.9398 8.3087 19.0613C8.00621 17.8836 7.68761 16.7109 7.38389 15.5332C5.67188 14.7745 3.95243 14.0319 2.2429 13.2682C4.69129 17.958 7.14711 22.6428 9.59797 27.33C10.1534 28.4805 10.9864 29.497 12.024 30.2458C13.7286 31.4669 15.9526 31.9503 18.0055 31.4954C19.9023 31.1049 21.6143 29.9346 22.699 28.3354C23.8271 26.6891 24.2449 24.5816 23.8531 22.6254C23.5928 21.2196 22.7895 20.0146 22.1672 18.7526C19.9841 14.5947 17.8159 10.4294 15.6328 6.27145C15.2881 8.05784 14.9311 9.84051 14.589 11.6257C14.5282 11.7831 14.6658 11.8984 14.7501 12.0087C15.4803 12.8542 16.203 13.7059 16.927 14.5563C16.5712 14.8538 16.2191 15.1575 15.8671 15.4588C12.4579 11.4571 9.04011 7.46279 5.63593 3.45735Z" />
<path d="M15.5907 17.4074C17.4056 17.1483 19.3197 17.6417 20.7726 18.7636C22.3073 19.9153 23.3189 21.7339 23.4999 23.6443C23.6325 24.972 23.3734 26.3356 22.7548 27.5171C21.7358 29.5563 19.6383 30.9944 17.3783 31.2547C15.2361 31.5262 12.9911 30.7204 11.5084 29.1522C11.2146 28.8522 11.2952 28.277 11.6807 28.0947C12.003 27.941 12.3638 27.7737 12.4902 27.408C12.8262 26.7497 12.2882 25.8993 11.5629 25.872C11.1861 25.8274 10.891 26.0902 10.5675 26.2315C10.2402 26.348 9.86829 26.1584 9.72944 25.8509C9.36373 24.1873 9.62407 22.3934 10.4621 20.9083C11.496 19.0202 13.4646 17.7012 15.5907 17.4074ZM12.3266 20.6616C11.4055 21.7178 10.9282 23.1224 10.9518 24.5195C12.0291 24.3038 13.2167 24.8294 13.7051 25.8286C14.2233 26.7956 13.9903 28.06 13.1894 28.8026C13.7336 29.1646 14.3076 29.4956 14.9411 29.6716C16.5589 30.1737 18.4011 29.87 19.7759 28.882C21.23 27.8815 22.1362 26.1447 22.1375 24.3819C22.1561 23.1087 21.7098 21.843 20.9238 20.8463C19.7895 19.3835 17.8804 18.5727 16.0407 18.7587C14.6188 18.8863 13.2626 19.5855 12.3266 20.6616Z" />
<path d="M17.9386 20.2376C19.0704 19.7727 20.4762 20.5822 20.6522 21.7897C20.8816 22.9066 20.0126 24.0992 18.8671 24.186C17.7006 24.3558 16.565 23.3244 16.5972 22.1517C16.5848 21.3161 17.1526 20.514 17.9386 20.2376ZM18.308 21.5963C17.8902 21.8157 17.8915 22.4988 18.3117 22.7182C18.7245 22.9872 19.3233 22.6302 19.2923 22.1393C19.3134 21.6545 18.7059 21.326 18.308 21.5963Z" />
<path d="M13.8563 21.1144C14.8183 20.8281 15.8782 21.6574 15.8435 22.6554C15.8844 23.5913 14.9583 24.3934 14.0422 24.2409C13.3517 24.1653 12.7604 23.5864 12.6736 22.8959C12.5335 22.1161 13.0827 21.288 13.8563 21.1144ZM14.2195 22.881C14.5133 22.8475 14.4687 22.5661 14.3026 22.4012C14.0757 22.4756 13.9145 22.7769 14.2195 22.881Z" />
<path d="M16.9344 25.924C17.8059 25.5831 18.8572 26.1918 19.0196 27.1042C19.2167 27.9423 18.6092 28.8646 17.7551 28.996C16.8786 29.1881 15.9464 28.4976 15.8782 27.6038C15.7766 26.8848 16.2514 26.1509 16.9344 25.924ZM17.3224 27.2939C17.1464 27.3844 17.315 27.7166 17.5072 27.6125C17.8592 27.6113 17.5394 27.015 17.3224 27.2939Z" />
<path d="M25.8491 32.466C26.0127 32.2404 26.3004 32.197 26.5607 32.2081C31.1525 32.2119 35.7443 32.2069 40.3373 32.2106C40.5654 32.2044 40.8047 32.2466 40.9696 32.4189C42.9221 34.1904 44.8672 35.9681 46.8234 37.7359C47.0242 37.9293 47.3007 38.1091 47.3379 38.4103C47.2238 40.095 47.3106 41.7884 47.2833 43.4781C47.2821 50.6522 47.2858 57.8251 47.2821 64.9991C36.7794 64.9991 26.2768 65.0016 15.7742 64.9979C15.3118 65.0066 14.8506 64.7487 14.6423 64.3309C14.439 63.9392 14.501 63.4842 14.4923 63.059C14.4973 55.0866 14.4898 47.1129 14.496 39.1405C14.4365 38.4301 15.0651 37.7781 15.7742 37.8066C19.1734 37.7991 22.5739 37.8053 25.9743 37.8041C26.6611 36.4367 27.3442 35.0681 28.0272 33.6982C27.4186 33.6772 26.8061 33.7392 26.2012 33.6673C25.6855 33.5557 25.4846 32.8404 25.8491 32.466ZM29.7021 33.6958C29.0202 35.0656 28.3334 36.4342 27.6491 37.8041C29.8483 37.8016 32.0475 37.8091 34.2468 37.8004C33.6951 36.4342 33.1534 35.0644 32.6029 33.6982C31.636 33.6958 30.669 33.6995 29.7021 33.6958ZM34.2071 33.697C34.7538 35.0656 35.3054 36.433 35.8484 37.8029C38.7927 37.8041 41.7382 37.8029 44.6837 37.8041C43.1762 36.438 41.675 35.0644 40.165 33.6995C38.179 33.6933 36.1931 33.6995 34.2071 33.697ZM15.9849 39.2917C15.9762 47.3646 15.9861 55.4374 15.9799 63.5103C25.9185 63.5127 35.8559 63.5103 45.7944 63.5115C45.7994 55.4387 45.792 47.3646 45.7982 39.2917C42.5688 39.2917 39.3406 39.2917 36.1125 39.2917C36.1063 40.7322 36.1199 42.1728 36.1063 43.6145C36.1385 44.0546 35.686 44.4612 35.2521 44.3608C34.5282 44.2356 33.8352 43.9653 33.1087 43.8637C32.5707 43.9492 32.0513 44.124 31.5219 44.2468C30.519 44.6038 29.5558 43.8872 28.5578 43.8724C27.8425 44.0087 27.152 44.2604 26.4318 44.3707C26.0202 44.4067 25.6458 44.0236 25.6842 43.6133C25.678 42.1715 25.683 40.731 25.683 39.2905C22.4499 39.2942 19.218 39.2905 15.9849 39.2917ZM27.1731 39.2917C27.1669 40.4211 27.1694 41.5504 27.1706 42.6785C27.6727 42.5657 28.1624 42.3909 28.6756 42.3314C29.4306 42.448 30.1508 42.7343 30.9083 42.8434C31.6632 42.7257 32.3847 42.4343 33.1447 42.3352C33.6455 42.4046 34.1277 42.5732 34.6211 42.6798C34.6249 41.5504 34.6236 40.4211 34.6224 39.2905C32.1393 39.293 29.6562 39.2905 27.1731 39.2917Z" />
</svg>
