<svg   viewBox="0 0 66 72"  xmlns="http://www.w3.org/2000/svg">
<path fill-rule="evenodd" clip-rule="evenodd" d="M37.6299 9.03197C35.4474 9.96462 33.4892 11.3083 32.1682 13.2001L32.1637 13.2066L32.1636 13.2065C30.5116 15.5203 29.8324 18.842 29.9334 21.8195C29.9475 22.2335 29.6233 22.5805 29.2093 22.5945C28.7953 22.6085 28.4483 22.2843 28.4343 21.8704C28.3263 18.6876 29.0375 15.0056 30.9406 12.3381C32.8335 9.62944 35.7856 7.98306 38.76 7.00655L40.4758 6.44326M39.6639 8.05632L39.6635 8.05703L39.6603 8.06348L39.6458 8.09315C39.6326 8.12023 39.6127 8.16166 39.5872 8.2162C39.5362 8.32532 39.4629 8.48663 39.3764 8.69022C39.2031 9.0982 38.9785 9.67177 38.7736 10.3325C38.355 11.6826 38.0571 13.2783 38.3357 14.5638C38.734 16.3553 41.2529 16.7648 42.2232 15.0944L42.2275 15.0869L42.2276 15.0869C42.413 14.7761 42.5908 14.4484 42.7752 14.1088C43.7106 12.3858 44.8131 10.355 47.9107 8.64916C50.6585 7.09783 53.9465 6.67474 56.9954 7.39616L58.7435 7.80978L57.2203 8.76197C55.0403 10.1248 52.6344 12.7783 51.574 15.092C51.1078 16.1093 50.7824 17.1496 50.8666 18.1214C50.9514 19.0996 51.4849 19.9799 52.2509 20.3096L52.2544 20.3111C53.2325 20.7381 54.619 20.2442 55.4186 19.2355L55.4247 19.2277L55.4248 19.2278C55.848 18.708 56.2979 17.8928 56.6919 16.993C57.0824 16.1009 57.3945 15.1799 57.5603 14.4793L57.9114 12.9957L58.8724 14.1792C60.6761 16.4005 61.6026 19.2543 61.4623 22.1066C61.3778 23.9299 60.8041 25.7344 59.9481 27.3234L59.9437 27.3316L59.9436 27.3316C59.1721 28.7222 57.9976 29.8293 56.7148 30.6594C56.367 30.8845 55.9027 30.785 55.6777 30.4372C55.4526 30.0894 55.5521 29.6251 55.8999 29.4001C57.0302 28.6687 58.006 27.7302 58.6297 26.6078C59.3971 25.1822 59.8918 23.5967 59.964 22.0362L59.9641 22.0339C60.062 20.0468 59.5645 18.0566 58.5593 16.3508C58.4129 16.7611 58.2464 17.1824 58.066 17.5946C57.6506 18.5432 57.1378 19.4984 56.591 20.1711C55.5209 21.518 53.456 22.471 51.6562 21.6867C50.2447 21.0782 49.49 19.6094 49.3722 18.251C49.2538 16.8856 49.7116 15.5552 50.2103 14.4671C51.1548 12.4063 52.9933 10.1743 54.9162 8.58702C52.7476 8.42238 50.5431 8.88463 48.6449 9.95718L48.6376 9.96132L48.6376 9.96128C45.945 11.4431 45.0478 13.0849 44.1251 14.7735C43.9296 15.1311 43.7331 15.4909 43.518 15.8517C41.899 18.6315 37.5803 18.0885 36.8708 14.8868L36.8701 14.8836C36.5059 13.2056 36.9034 11.2993 37.3409 9.88829C37.4355 9.58318 37.5338 9.29567 37.6299 9.03197M39.6639 8.05632L39.664 8.05609L39.6641 8.05596" />
<path d="M11.2575 24.3753C11.408 24.0524 11.8055 23.9619 12.1308 24.0145C14.4976 24.2273 16.8582 24.6909 19.0769 25.5544C20.3673 26.0828 21.6405 26.7542 22.608 27.7792C23.7688 28.9094 24.7607 30.3526 24.9111 32.0063C25.0408 33.3847 24.395 34.7289 23.4459 35.6964C24.3767 37.9702 24.8011 40.4335 24.7497 42.8871C26.0743 41.8475 27.3977 40.8066 28.7224 39.7657C28.0081 38.572 27.7292 37.0969 28.1426 35.749C28.7322 33.8104 30.206 32.2913 31.7863 31.0939C33.5953 29.7949 35.7687 29.1259 37.9275 28.6794C39.7903 28.3076 41.6849 28.1033 43.5832 28.052C43.9012 28.0507 44.2681 28.0079 44.5213 28.2452C44.8002 28.4764 44.7855 28.8788 44.6779 29.1931C44.0737 31.451 43.2566 33.6575 42.1827 35.7356C41.1945 37.5776 39.9921 39.3841 38.2627 40.6085C36.7864 41.6787 35.0581 42.5801 33.1904 42.5642C31.8352 42.5654 30.5497 41.9086 29.6324 40.935C27.9995 42.2083 26.3764 43.4938 24.746 44.7695C24.7436 47.6927 24.7448 50.6147 24.7448 53.538C27.2534 53.6114 29.7412 54.5091 31.6688 56.1261C32.7929 57.0263 33.676 58.1821 34.4465 59.3881C35.1205 59.4933 35.8079 59.3747 36.4879 59.4138C38.7164 59.4297 40.967 60.089 42.7454 61.454C44.4051 62.6734 45.6136 64.4641 46.1835 66.4382C46.7486 66.5972 47.3369 66.7158 47.8641 66.98C48.4426 67.3396 48.1527 68.334 47.4703 68.3242C46.6141 68.1946 45.8056 67.6588 44.9164 67.8337C43.2774 68.0784 41.7534 69.4372 41.6091 71.1349C41.5504 71.7245 40.6649 71.9348 40.3346 71.4554C40.0716 70.9943 40.1866 70.4329 40.3346 69.9534C40.989 68.1114 42.6952 66.7146 44.6155 66.3758C44.0345 64.7478 42.9533 63.2813 41.4794 62.3566C40.0729 61.4466 38.3996 61.0137 36.7387 60.9097C36.1895 60.8681 35.6293 60.9513 35.0899 60.8118C35.4923 62.2099 35.7308 63.6641 35.732 65.1209C35.7479 65.4548 35.4752 65.6774 35.1975 65.7997C35.1755 65.9073 35.1657 66.0199 35.1486 66.1312C35.0006 65.6908 34.3389 65.7679 34.2863 65.2579C34.1836 63.6385 34.0723 61.9518 33.336 60.473C32.3183 58.6005 30.7515 57.0043 28.841 56.0441C25.1289 54.2645 20.3233 54.6999 17.2117 57.4825C16.2442 58.3191 15.465 59.3563 14.8376 60.4657C14.2077 61.7671 14.0108 63.2299 13.9349 64.6598C13.908 64.9496 13.9569 65.2787 13.771 65.5282C13.6463 65.7177 13.409 65.7581 13.2145 65.8413C13.1411 65.944 13.0665 66.0455 12.9919 66.1471C12.9895 66.0614 12.9846 65.889 12.9821 65.8021C12.7228 65.67 12.4391 65.4731 12.444 65.1466C12.4403 63.6825 12.6849 62.2245 13.0824 60.818C12.4513 60.9525 11.8043 60.8595 11.167 60.928C9.16112 61.0932 7.13931 61.7793 5.64222 63.1627C4.69309 64.0347 4.00692 65.1661 3.56904 66.3733C4.96462 66.6485 6.2709 67.424 7.10873 68.5859C7.59676 69.2562 8.00161 70.0488 7.99794 70.8976C7.99671 71.2218 7.85484 71.6291 7.49646 71.6988C7.15521 71.7942 6.77116 71.6278 6.60971 71.3135C6.51553 71.0053 6.52531 70.675 6.42012 70.3705C5.86238 68.866 4.31392 67.7885 2.7092 67.7958C2.03526 67.8937 1.4127 68.1958 0.747323 68.3205C0.0636022 68.3743 -0.287431 67.3628 0.292324 66.9849C0.826825 66.7036 1.43716 66.6143 2.00591 66.4235C2.71287 63.8733 4.56466 61.6998 6.92527 60.5232C8.45783 59.7343 10.1934 59.4138 11.9082 59.4102C12.5161 59.4102 13.1252 59.4444 13.7331 59.4138C14.9575 57.3492 16.7481 55.5769 18.9534 54.5862C20.2988 53.9453 21.7788 53.6297 23.2612 53.5319C23.2636 52.2806 23.2575 51.0282 23.2648 49.7769C21.9268 49.0369 20.574 48.3226 19.2396 47.5778C18.5815 48.4339 17.6361 49.0969 16.5487 49.2412C14.7275 49.5139 12.9418 48.7948 11.3664 47.9496C10.0173 47.1949 8.90793 46.0892 7.90743 44.926C6.52531 43.2712 5.36947 41.4365 4.3922 39.5162C4.22586 39.2337 4.20629 38.8521 4.43868 38.6001C4.67352 38.3163 5.07348 38.3273 5.40616 38.2833C7.9747 38.0607 10.5897 38.0815 13.1191 38.6221C15.3122 39.0881 17.389 40.2097 18.9069 41.8695C19.9771 43.029 20.4688 44.7414 19.9184 46.2568C21.0229 46.8989 22.164 47.475 23.2771 48.1037C23.0924 45.0239 23.5731 41.8964 22.8918 38.8557C22.7291 38.1072 22.5016 37.3733 22.2301 36.6566C21.3433 37.1409 20.3049 37.3501 19.3068 37.1654C17.7425 36.8902 16.4056 35.9313 15.2657 34.8721C14.3386 33.9621 13.661 32.8307 13.1118 31.6602C12.17 29.6017 11.5841 27.3952 11.2135 25.1666C11.1756 24.9049 11.1108 24.6175 11.2575 24.3753ZM12.7852 25.5666C13.1044 27.2594 13.5655 28.9314 14.2211 30.5263C14.763 31.7715 15.4161 33.0154 16.4374 33.9376C17.3058 34.7241 18.299 35.4591 19.472 35.6903C20.212 35.8505 20.9776 35.672 21.6283 35.305C20.6853 33.3688 19.3154 31.6467 17.6691 30.2609C17.4269 30.0701 17.2801 29.7386 17.3902 29.4378C17.515 28.9828 18.129 28.7602 18.5082 29.05C20.4076 30.574 21.8974 32.5579 23.0202 34.7106C23.0141 34.3009 22.9603 33.8654 23.1841 33.4997C23.6783 32.487 23.3982 31.2859 22.8257 30.3685C22.0283 29.1149 20.9128 28.0483 19.5723 27.3939C17.4599 26.3384 15.1116 25.8699 12.7852 25.5666ZM38.5586 30.0628C36.5087 30.4603 34.4282 31.0376 32.6999 32.2558C31.5257 33.145 30.4005 34.1969 29.7791 35.557C29.3009 36.5942 29.3229 37.8491 29.9076 38.8398C32.3624 36.8987 34.8294 34.9723 37.2878 33.0349C37.6254 32.7218 38.2235 32.8368 38.4278 33.2453C38.61 33.5658 38.5024 33.9926 38.1991 34.1969C35.7357 36.1441 33.2577 38.0742 30.7943 40.0214C31.5209 40.7283 32.525 41.1601 33.5476 41.0769C35.1645 40.9619 36.5882 40.0544 37.8284 39.0734C38.9415 38.1781 39.7683 36.9844 40.4851 35.7613C41.5932 33.8104 42.4053 31.703 43.0352 29.554C41.5345 29.631 40.0362 29.7839 38.5586 30.0628ZM6.16572 39.7082C7.09406 41.3729 8.14594 42.9776 9.41063 44.4062C10.2901 45.3713 11.2698 46.2825 12.4586 46.8512C13.5655 47.42 14.7874 47.9129 16.0558 47.8187C16.7848 47.7722 17.4343 47.3833 17.937 46.872C16.194 45.9253 14.4535 44.975 12.7081 44.0332C12.4207 43.8901 12.1577 43.61 12.1908 43.2663C12.2079 42.6853 12.9601 42.3551 13.4078 42.7257C15.1519 43.6711 16.8924 44.6276 18.6402 45.5694C18.6623 45.0985 18.7075 44.6154 18.5644 44.1579C18.2855 43.2149 17.5541 42.4933 16.7933 41.9111C15.7659 41.1454 14.615 40.5167 13.365 40.2036C11.0227 39.5872 8.56913 39.5602 6.16572 39.7082Z" />
</svg>
