<svg   viewBox="0 0 47 48"  xmlns="http://www.w3.org/2000/svg">
<path fill-rule="evenodd" clip-rule="evenodd" d="M36.5632 36.773C36.681 36.3759 37.0985 36.1494 37.4956 36.2673C39.4631 36.851 40.8887 37.7147 41.829 38.4419C42.2988 38.8052 42.6474 39.1344 42.8822 39.3775C42.9228 39.4195 42.96 39.459 42.9938 39.4956C44.0135 39.4899 44.8088 39.6276 45.3753 39.7815C45.6911 39.8672 45.9347 39.9577 46.1055 40.0303C46.191 40.0666 46.2581 40.0984 46.3071 40.1229C46.3315 40.1352 46.3514 40.1456 46.3667 40.1539L46.3863 40.1646L46.3935 40.1686L46.3964 40.1703L46.3978 40.1711L46.3984 40.1714C46.3987 40.1716 46.399 40.1718 46.024 40.8213L46.399 40.1718L46.5946 40.2847L46.6953 40.487C46.7351 40.5668 46.7982 40.7166 46.8215 40.8897C47.008 41.6432 46.8735 42.4267 46.559 43.0838C46.237 43.7569 45.6974 44.3587 45.006 44.6999L45.0031 44.7015L44.9663 44.7203C44.9355 44.736 44.892 44.7575 44.8364 44.7839C44.7255 44.8366 44.5662 44.9086 44.364 44.991C43.9599 45.1555 43.3815 45.3621 42.6706 45.5372C41.2521 45.8867 39.282 46.1168 37.1129 45.6142C36.7094 45.5207 36.4581 45.1178 36.5516 44.7143C36.6451 44.3107 37.048 44.0594 37.4516 44.1529C39.328 44.5877 41.0498 44.3917 42.3118 44.0808C42.9412 43.9257 43.4501 43.7435 43.7984 43.6017C43.9724 43.5309 44.1055 43.4704 44.1929 43.4289C44.2366 43.4082 44.2688 43.3922 44.2888 43.3821L44.3096 43.3714L44.3121 43.3701L44.3124 43.3699L44.3128 43.3697L44.3129 43.3697L44.313 43.3696L44.3241 43.3637L44.3368 43.3574C44.687 43.1864 45.0064 42.8535 45.206 42.4364C45.3803 42.072 45.4412 41.6906 45.3875 41.3584C45.2829 41.3193 45.1478 41.274 44.9822 41.229C44.4902 41.0954 43.7244 40.963 42.686 41.0026L42.2963 41.0175L42.0617 40.7089C42.0617 40.7088 42.0617 40.7088 42.0616 40.7087" />
<path fill-rule="evenodd" clip-rule="evenodd" d="M3.00339 14.3744C3.01954 14.4416 3.04043 14.5369 3.06443 14.6524C3.12365 14.9371 3.21093 15.3885 3.31199 15.9706C3.51416 17.1352 3.77319 18.8332 3.97332 20.78C4.3705 24.6436 4.54906 29.6016 3.51827 33.2982L3.51132 33.3231L3.50268 33.3475C2.40996 36.4282 1.91182 38.7489 1.90852 40.4877C1.90527 42.2025 2.38044 43.2882 3.18597 44.0173L3.19209 44.0229C4.48059 45.2152 6.24385 45.8403 8.05783 45.8403H35.6126C36.129 45.8403 36.56 45.412 36.56 44.8859V35.0853C36.56 34.6688 36.2329 34.3423 35.8686 34.3292L35.8554 34.3287C29.1728 33.9709 23.3696 29.3483 21.7305 22.8266C21.0848 20.2917 20.9122 17.5651 21.1445 14.8242L21.1566 14.6815L21.1701 14.6544V14.5434L21.1728 14.5117C21.25 13.6004 20.5619 12.8536 19.6851 12.8536H4.49325C3.6668 12.8536 2.99908 13.5328 3.00339 14.3744ZM1.50502 14.4671C1.44986 12.7816 2.78162 11.3536 4.49325 11.3536H19.6851C21.4563 11.3536 22.7992 12.86 22.6701 14.6047V14.7171C22.6701 14.7194 22.6701 14.7224 22.6702 14.7261C22.6707 14.7672 22.6724 14.8915 22.6316 15.0411C22.4227 17.6093 22.5924 20.1341 23.1844 22.4577L23.185 22.4601C24.6577 28.3216 29.8846 32.5042 35.9298 32.8305C37.146 32.8781 38.06 33.9133 38.06 35.0853V44.8859C38.06 46.2346 36.9633 47.3403 35.6126 47.3403H8.05783C5.91248 47.3403 3.77302 46.6027 2.17622 45.1266C0.975288 44.0378 0.404711 42.4967 0.408527 40.4848C0.412292 38.5003 0.97209 35.9998 2.08019 32.8708C3.02222 29.4675 2.87519 24.7661 2.48119 20.9334C2.28526 19.0274 2.03152 17.3645 1.83409 16.2272C1.73535 15.6584 1.65113 15.2235 1.59585 14.9578C1.56747 14.8213 1.54885 14.7397 1.54073 14.7079C1.53999 14.705 1.53963 14.7037 1.53964 14.7037C1.53965 14.7037 1.54095 14.7086 1.54334 14.7163C1.54471 14.7207 1.55125 14.7419 1.56223 14.7689C1.56715 14.781 1.58063 14.8137 1.60294 14.8532C1.61479 14.8735 1.647 14.9222 1.6679 14.9499C1.70337 14.9914 1.81316 15.0896 1.89119 15.1395C2.03509 15.2008 2.39198 15.2213 2.58521 15.1574C2.72158 15.0713 2.89234 14.8795 2.93773 14.7947C2.99563 14.6674 3.00208 14.5535 3.00295 14.5381C3.00299 14.5375 3.00301 14.537 3.00303 14.5367C3.00479 14.511 3.00493 14.4879 3.00453 14.4699L1.51634 14.6277C1.5141 14.6125 1.50992 14.5833 1.50738 14.5516C1.50736 14.5513 1.50733 14.551 1.5073 14.5506C1.50662 14.5423 1.50396 14.5098 1.50502 14.4671Z" />
<path fill-rule="evenodd" clip-rule="evenodd" d="M19.6557 0.840332C20.0699 0.840332 20.4057 1.17612 20.4057 1.59033V12.1011C20.4057 12.5153 20.0699 12.8511 19.6557 12.8511C19.2415 12.8511 18.9057 12.5153 18.9057 12.1011V1.59033C18.9057 1.17612 19.2415 0.840332 19.6557 0.840332Z" />
<path fill-rule="evenodd" clip-rule="evenodd" d="M4.80576 0.840332C5.21997 0.840332 5.55576 1.17612 5.55576 1.59033V12.1011C5.55576 12.5153 5.21997 12.8511 4.80576 12.8511C4.39154 12.8511 4.05576 12.5153 4.05576 12.1011V1.59033C4.05576 1.17612 4.39154 0.840332 4.80576 0.840332Z" />
<path fill-rule="evenodd" clip-rule="evenodd" d="M2.7095 29.0965C2.84408 28.7048 3.27074 28.4963 3.66248 28.6309L3.41882 29.3402" />
<path fill-rule="evenodd" clip-rule="evenodd" d="M2.27335 19.0906C2.27335 18.6764 2.60913 18.3406 3.02335 18.3406H21.8647C22.2789 18.3406 22.6147 18.6764 22.6147 19.0906C22.6147 19.5048 22.2789 19.8406 21.8647 19.8406H3.02335C2.60913 19.8406 2.27335 19.5048 2.27335 19.0906Z" />
<path fill-rule="evenodd" clip-rule="evenodd" d="M24.1136 25.0355C24.3311 25.388 24.2217 25.8501 23.8692 26.0676L9.78061 34.7603C9.4281 34.9778 8.96601 34.8683 8.74851 34.5158C8.53101 34.1633 8.64046 33.7012 8.99297 33.4837L23.0815 24.791C23.4341 24.5735 23.8961 24.683 24.1136 25.0355Z" />
<path fill-rule="evenodd" clip-rule="evenodd" d="M29.1885 30.6922C29.5582 30.8791 29.7064 31.3302 29.5196 31.6999L21.8246 46.9263C21.6378 47.296 21.1866 47.4442 20.817 47.2574C20.4473 47.0706 20.299 46.6194 20.4859 46.2497L28.1808 31.0233C28.3677 30.6536 28.8188 30.5054 29.1885 30.6922Z" />
</svg>
