<svg   viewBox="0 0 55 52"  xmlns="http://www.w3.org/2000/svg">
<path d="M12.0234 1.01455C12.3475 0.921619 12.6891 1.002 13.0181 1.02335C15.6391 1.31346 18.2664 1.8673 20.6627 2.99634C22.3807 3.80136 23.8313 5.13888 24.8272 6.74767C25.5292 7.90057 25.8984 9.326 25.5254 10.6547C25.3082 11.5539 24.7581 12.3175 24.1553 12.9995C25.1248 15.3216 25.5468 17.8547 25.4865 20.3652C26.8492 19.2977 28.2055 18.2214 29.5707 17.1564C28.8887 15.9797 28.5659 14.5618 28.9251 13.2255C29.4576 11.201 30.9672 9.60857 32.5772 8.35394C34.0567 7.23872 35.8199 6.57561 37.5945 6.10089C40.0661 5.46038 42.6193 5.16776 45.1687 5.12004C45.7025 5.04469 46.1722 5.58346 46.0026 6.09963C45.5744 7.78503 45.0055 9.434 44.3273 11.0353C43.31 13.3762 42.0504 15.6921 40.1289 17.4177C39.1304 18.2578 38.0202 18.975 36.8158 19.4811C35.7509 19.9194 34.5728 20.1467 33.4262 19.9621C32.3047 19.775 31.2799 19.1684 30.5025 18.3483C28.836 19.6682 27.1594 20.9768 25.489 22.293C25.4853 25.2933 25.489 28.2936 25.4865 31.2939C26.8705 31.3743 28.2545 31.6355 29.5418 32.1529C30.0667 32.384 30.0793 33.2242 29.5707 33.4817C29.2843 33.6688 28.944 33.5382 28.6551 33.4365C26.0956 32.5435 23.2046 32.5058 20.6777 33.5344C18.3204 34.4713 16.3927 36.3438 15.2285 38.5818C14.5955 40.0236 14.4285 41.6173 14.3644 43.1758C14.3619 43.5727 14.0153 43.854 13.6536 43.9369C13.5757 44.0336 13.4991 44.1316 13.4238 44.2308C13.4325 44.1479 13.4476 43.9821 13.4564 43.8992C13.2416 43.7787 12.9691 43.6744 12.8975 43.4132C12.8247 43.1331 12.8599 42.8405 12.8712 42.5554C12.9402 41.2732 13.1537 39.9997 13.5179 38.7677C12.9829 38.8945 12.4316 38.8154 11.8891 38.8594C10.0705 38.9636 8.23193 39.4496 6.72487 40.5046C5.33083 41.4565 4.30226 42.8908 3.74591 44.4769C5.64355 44.821 7.34276 46.1535 8.05862 47.9532C8.24574 48.4807 8.4291 49.1024 8.1616 49.6336C7.90289 50.1297 7.09786 50.0305 6.8718 49.5545C6.76631 49.2204 6.78515 48.8575 6.65579 48.5297C6.05925 47.005 4.48186 45.9061 2.8379 45.935C2.14968 46.048 1.50667 46.3419 0.823467 46.4738C0.133987 46.4951 -0.202591 45.498 0.378883 45.1149C0.921425 44.8097 1.55816 44.7243 2.14215 44.5209C3.08908 41.0069 6.19363 38.2804 9.73396 37.5771C11.1933 37.243 12.6966 37.3611 14.1785 37.3284C15.447 35.1746 17.3258 33.3523 19.6228 32.3313C20.9854 31.7071 22.4724 31.3818 23.9656 31.2851C23.9656 30.0041 23.9581 28.7231 23.9694 27.4421C22.5904 26.6785 21.2115 25.915 19.8162 25.1815C19.084 26.19 17.911 26.8745 16.6577 26.931C14.7487 27.0327 12.9126 26.2541 11.3063 25.2921C8.92392 23.7059 7.1908 21.3436 5.71639 18.9323C5.29567 18.2202 4.87997 17.5031 4.53084 16.7545C4.39394 16.4958 4.46553 16.1819 4.62503 15.9533C4.82722 15.7084 5.16255 15.677 5.45642 15.6469C8.09127 15.4045 10.7726 15.412 13.376 15.9395C14.6432 16.212 15.8966 16.6264 17.0005 17.3197C18.4033 18.1586 19.7735 19.2462 20.4316 20.7884C20.8573 21.7479 20.846 22.8468 20.5346 23.8377C21.6887 24.4493 22.8253 25.0899 23.9769 25.7052C23.8187 22.8242 24.1992 19.9206 23.7446 17.0572C23.5826 15.9935 23.2699 14.9611 22.9082 13.9502C21.5556 14.7564 19.8325 14.6899 18.4423 14.018C16.6602 13.1539 15.1217 11.7586 14.161 10.0192C12.7682 7.54138 12.0159 4.75458 11.565 1.964C11.4671 1.58724 11.6492 1.1527 12.0234 1.01455ZM13.209 2.57311C13.6611 4.90026 14.3117 7.2249 15.4884 9.29962C16.306 10.7338 17.5719 11.9056 19.0489 12.6365C20.0611 13.1401 21.3132 13.1765 22.2903 12.5687C21.3333 10.6221 19.9669 8.88267 18.3167 7.47733C18.0969 7.29649 17.8696 7.05159 17.9047 6.74264C17.9047 6.25285 18.4423 5.8899 18.8994 6.04814C19.2473 6.20136 19.501 6.50528 19.7861 6.74767C21.4087 8.21705 22.6985 10.0155 23.7132 11.9495C23.7258 11.569 23.6379 11.1558 23.8451 10.8117C24.2595 10.0029 24.2269 9.02081 23.8715 8.19695C23.2975 6.90465 22.2878 5.83464 21.1487 5.01831C18.7876 3.4899 15.9531 2.9461 13.209 2.57311ZM35.5047 8.40794C34.0253 9.02458 32.7493 10.0481 31.6943 11.2425C30.9823 12.0663 30.4046 13.0685 30.3141 14.1737C30.2539 14.8808 30.4611 15.5778 30.7725 16.2057C33.3345 14.2152 35.8727 12.1907 38.4347 10.1988C38.8843 9.83588 39.6303 10.2101 39.629 10.7828C39.6705 11.2324 39.2497 11.4823 38.9471 11.7222C36.5295 13.6199 34.1069 15.5112 31.7006 17.4227C32.267 17.9401 32.9565 18.347 33.7264 18.4613C34.8115 18.6271 35.9066 18.2918 36.8673 17.8045C38.3204 17.0321 39.6541 15.991 40.6111 14.6396C42.338 12.2535 43.4256 9.47168 44.2708 6.6698C41.2931 6.83558 38.2702 7.2362 35.5047 8.40794ZM6.41466 17.0974C7.38546 18.8393 8.48687 20.5197 9.82188 22.0054C10.7223 22.9976 11.7547 23.8968 12.9666 24.487C14.1082 25.0434 15.3616 25.547 16.6577 25.4088C17.3647 25.3423 18.0065 24.9668 18.485 24.4544C16.8511 23.5451 15.2008 22.6635 13.5619 21.7643C13.2052 21.5545 12.7092 21.4114 12.6187 20.9467C12.4504 20.3514 13.1839 19.795 13.7126 20.1203C15.5575 21.1162 17.3999 22.1209 19.2372 23.1344C19.2561 22.5279 19.2862 21.8936 19.0187 21.331C18.4762 20.1103 17.3383 19.2952 16.2269 18.6271C14.917 17.802 13.3823 17.4277 11.8652 17.218C10.0592 16.9831 8.22941 16.9668 6.41466 17.0974Z" />
<path d="M40.8347 21.2848C42.6331 21.0839 44.5596 21.1617 46.1784 22.0547C47.5587 22.8484 48.4101 24.3266 48.797 25.8349C48.9188 26.3159 48.3109 26.763 47.8864 26.5055C47.5813 26.3699 47.5386 26.0057 47.4306 25.7294C47.1128 24.6757 46.4485 23.6898 45.4839 23.1322C44.2306 22.4741 42.7675 22.4088 41.3835 22.5106C40.2946 22.5934 39.1593 22.9036 38.3618 23.6886C37.656 24.363 37.3031 25.2961 37.0042 26.2029C36.792 26.8157 35.7609 26.6386 35.796 25.9693C36.0259 24.7837 36.5986 23.6434 37.4601 22.7869C38.353 21.8914 39.6001 21.4418 40.8347 21.2848Z" />
<path d="M45.8394 27.6655C45.219 27.5286 45.2855 26.5076 45.9147 26.4473C46.9747 26.3933 48.0234 26.7148 48.9703 27.1682C49.5945 27.4621 50.127 28.026 50.2111 28.733C50.3367 29.5456 49.9185 30.2891 49.5744 30.9911C49.7904 31.6454 49.7791 32.3437 49.6435 33.0131C50.991 34.1622 50.554 36.6438 48.9791 37.3748C48.4667 38.8869 47.575 40.2734 46.3782 41.3321C46.559 42.0253 47.0425 42.7161 47.7772 42.8806C48.7807 43.0928 49.7979 43.2322 50.8064 43.4181C51.3954 43.5336 52.0108 43.5713 52.5609 43.83C53.6271 44.3098 54.4208 45.3157 54.6959 46.4448C54.8114 46.8931 54.7976 47.3603 54.7976 47.82C54.7913 48.9942 54.8026 50.1697 54.7951 51.344C54.8265 51.7936 54.2739 52.1201 53.8871 51.9003C53.6133 51.7986 53.5166 51.4809 53.5254 51.2146C53.5179 49.9148 53.5292 48.6137 53.5229 47.3126C53.5179 46.1848 52.6978 45.0683 51.5687 44.8511C50.3706 44.6438 49.1738 44.4203 47.9706 44.2419C46.9948 44.7945 46.1295 45.5217 45.1411 46.0517C43.56 46.8994 41.6008 46.966 39.9543 46.2639C38.8064 45.7277 37.808 44.9277 36.7606 44.2269C35.4143 44.4617 34.063 44.6664 32.7229 44.9377C32.2557 45.0897 31.8087 44.517 32.0234 44.0938C32.1289 43.7936 32.4441 43.668 32.733 43.6228C34.1107 43.3653 35.4984 43.1594 36.8749 42.8969C37.6121 42.7525 38.0969 42.0881 38.3016 41.4049C37.0306 40.3449 36.1276 38.8994 35.5826 37.3471C34.0064 36.6263 33.6021 34.1785 34.8944 33.0068C34.7261 32.311 34.7688 31.5864 34.9722 30.9045C34.5678 30.1371 34.1509 29.2316 34.4724 28.3588C34.711 27.6304 35.4206 27.2147 36.1 26.9622C36.4692 26.8354 36.8397 26.6282 37.2403 26.6608C37.7289 26.7324 37.9323 27.4734 37.5204 27.7597C36.9703 28.1227 36.2042 28.1126 35.7584 28.6401C35.4771 29.0897 35.7798 29.6034 35.948 30.0329C38.5377 29.0118 41.3785 28.2759 44.1678 28.8009C45.7088 29.0181 47.1857 29.5167 48.6576 30.0027C48.8234 29.572 49.1512 29.0206 48.8008 28.5987C47.9731 27.923 46.8654 27.7773 45.8394 27.6655ZM36.2005 31.3541C36.0259 31.7321 36.0699 32.1654 36.0987 32.5698C36.8071 32.615 37.4187 32.9943 38.0265 33.3245C37.9738 34.0065 38.1936 34.9509 39.0111 35.0351C39.9757 35.28 40.7782 34.5591 41.7 34.4586C42.4736 34.3506 43.2698 34.4699 43.9807 34.7939C44.581 35.0652 45.3056 35.2071 45.9248 34.9107C46.3405 34.691 46.4987 34.2024 46.5176 33.7603C46.5665 33.6046 46.4786 33.3585 46.6582 33.2718C47.2058 32.9503 47.7847 32.6451 48.429 32.5886C48.4855 32.1679 48.488 31.7371 48.3411 31.334C47.4909 30.9045 46.5665 30.6558 45.651 30.4122C44.257 30.0706 42.8202 29.8056 41.3797 29.9337C39.5976 30.1421 37.8218 30.5754 36.2005 31.3541ZM35.4708 34.392C35.3477 34.9208 35.4155 35.5424 35.7936 35.9581C36.0184 36.2369 36.409 36.1817 36.7267 36.2357C36.7367 36.6991 36.856 37.1487 37.0457 37.5707C37.7615 39.3566 39.2259 40.7669 40.9201 41.6385C41.8093 42.0843 42.9169 42.0467 43.786 41.5682C45.3056 40.7657 46.6331 39.5274 47.359 37.9525C47.6378 37.4162 47.8262 36.8335 47.84 36.2256C48.105 36.193 48.3901 36.2169 48.635 36.0938C48.9917 35.8627 49.121 35.4156 49.1537 35.0137C49.18 34.6847 49.1524 34.2878 48.8686 34.0693C48.576 33.8194 48.1477 33.8997 47.8387 34.0705C47.6554 34.6282 47.4959 35.226 47.0463 35.6391C46.4259 36.3286 45.4124 36.4178 44.5471 36.3085C43.8312 36.2319 43.2334 35.7384 42.5075 35.7107C41.9838 35.6542 41.4614 35.7848 40.9942 36.0134C40.1452 36.4065 39.1405 36.4617 38.2576 36.149C37.5016 35.869 37.0181 35.1255 36.8259 34.3694C36.7367 33.6762 35.6177 33.7917 35.4708 34.392ZM42.5075 43.231C41.3735 43.3214 40.3009 42.8316 39.3766 42.2237C39.1217 42.7939 38.7148 43.2762 38.24 43.6781C38.7801 44.0598 39.3176 44.4467 39.8815 44.7945C41.3722 45.7113 43.3716 45.6799 44.851 44.7544C45.3935 44.4065 45.9223 44.036 46.4636 43.6843C45.9399 43.2912 45.5568 42.7487 45.3019 42.1509C44.4617 42.6985 43.5361 43.2084 42.5075 43.231Z" />
<path d="M37.131 31.278C37.4098 31.1851 37.7087 31.2127 37.9976 31.2278C38.986 31.288 39.9781 31.3998 40.9351 31.6648C41.3722 31.7804 41.8004 31.9687 42.2601 31.9637C42.7913 31.9775 43.2824 31.754 43.7897 31.6309C44.8949 31.3508 46.039 31.2278 47.1794 31.2152C47.6164 31.1838 47.9467 31.7088 47.7671 32.0968C47.6616 32.3179 47.4331 32.4899 47.1806 32.4824C45.9926 32.5351 44.7894 32.6281 43.6554 33.0086C42.8403 33.2636 41.9411 33.3439 41.1235 33.0563C39.8802 32.6218 38.5552 32.5427 37.2529 32.461C36.694 32.3731 36.6136 31.4802 37.131 31.278Z" />
</svg>
