<svg   viewBox="0 0 30 29" xmlns="http://www.w3.org/2000/svg">
    <path fill-rule="evenodd" clip-rule="evenodd"
          d="M16.2629 1.15383V7.12313C16.2629 8.40767 14.3361 8.40767 14.3361 7.12313V1.15383C14.3361 -0.130704 16.2629 -0.130704 16.2629 1.15383ZM24.8013 4.96965L20.9477 9.54108C20.1165 10.5234 18.6431 9.27662 19.4743 8.29433L23.3279 3.7229C24.159 2.74061 25.6325 3.98736 24.8013 4.96965ZM28.8816 13.3947L22.9878 14.4148C21.7411 14.6414 21.4388 12.7524 22.6856 12.5257L28.5793 11.4679C29.8261 11.2412 30.1661 13.168 28.8816 13.3947ZM26.6148 22.462L21.4388 19.4773C20.3432 18.8351 21.2877 17.1727 22.4211 17.7772L27.597 20.7996C28.6927 21.4041 27.7482 23.1042 26.6148 22.462ZM19.0587 27.9401L17.0185 22.3109C16.5652 21.1397 18.3786 20.4596 18.832 21.6686L20.8721 27.2979C21.2877 28.4691 19.4743 29.1491 19.0587 27.9401ZM9.72692 27.2979L11.7671 21.6686C12.2204 20.4596 14.0339 21.1397 13.5805 22.3109L11.5404 27.9401C11.087 29.1491 9.27355 28.4691 9.72692 27.2979ZM3.00201 20.7996L8.17792 17.7772C9.27355 17.1727 10.2558 18.8351 9.16021 19.4773L3.94652 22.462C2.85088 23.1042 1.90637 21.4041 3.00201 20.7996ZM2.01972 11.4679L7.91346 12.5257C9.16021 12.7524 8.85797 14.6414 7.57343 14.4148L1.67969 13.3947C0.432939 13.168 0.772962 11.2412 2.01972 11.4679ZM7.27119 3.7229L11.1248 8.29433C11.9182 9.27662 10.4447 10.5234 9.65136 9.54108L5.79776 4.96965C4.96659 3.98736 6.44002 2.74061 7.27119 3.7229Z"
          />
</svg>
