<svg   viewBox="0 0 62 62"  xmlns="http://www.w3.org/2000/svg">
<path fill-rule="evenodd" clip-rule="evenodd" d="M57.6927 0.557938C59.7332 0.467251 61.5534 2.28749 61.4627 4.32796C61.2388 9.46958 57.7491 15.0843 53.765 19.0684C53.4721 19.3613 52.9972 19.3613 52.7043 19.0684C52.4114 18.7755 52.4114 18.3007 52.7043 18.0078C56.5718 14.1403 59.7642 8.86181 59.9641 4.26209C60.0157 3.10183 58.9199 2.00512 57.7597 2.05644C57.0164 2.09025 56.1274 2.19225 55.1982 2.36418C53.1492 2.76139 51.3613 3.75237 49.9314 5.14781L30.3022 24.8481C25.282 29.8683 20.7228 35.276 16.659 41.1066L13.4926 45.6249C13.2549 45.9641 12.7872 46.0464 12.448 45.8087C12.1088 45.571 12.0265 45.1033 12.2642 44.7641L15.4284 40.2489C15.4285 40.2487 15.4283 40.249 15.4284 40.2489C19.5446 34.3432 24.1614 28.8676 29.2415 23.7875L48.8797 4.07817C50.507 2.48864 52.558 1.34736 54.9161 0.890949L54.922 0.889823C55.9121 0.706476 56.872 0.595243 57.6927 0.557938ZM32.4215 35.4162C32.6959 35.7265 32.6668 36.2005 32.3565 36.4749L17.3586 49.7396C17.0483 50.014 16.5743 49.9849 16.2999 49.6746C16.0255 49.3644 16.0546 48.8904 16.3649 48.616L31.3628 35.3513C31.6731 35.0769 32.1471 35.106 32.4215 35.4162Z" />
<path fill-rule="evenodd" clip-rule="evenodd" d="M21.5082 6.16552C21.6728 5.78542 22.1144 5.61073 22.4945 5.77534L27.0113 7.73142C27.3914 7.89603 27.5661 8.3376 27.4015 8.7177C27.2368 9.0978 26.7953 9.27249 26.4152 9.10788L21.8984 7.1518C21.5183 6.98719 21.3436 6.54562 21.5082 6.16552Z" />
<path fill-rule="evenodd" clip-rule="evenodd" d="M30.9696 10.2886C31.1355 9.90908 31.5777 9.73593 31.9572 9.90187L40.1728 13.4939C40.5523 13.6599 40.7254 14.1021 40.5595 14.4816C40.3936 14.8611 39.9514 15.0343 39.5719 14.8683L31.3563 11.2762C30.9768 11.1103 30.8037 10.6681 30.9696 10.2886Z" />
<path fill-rule="evenodd" clip-rule="evenodd" d="M8.92757 12.6552C9.22047 12.9481 9.22047 13.423 8.92757 13.7159L4.94429 17.6992C4.65139 17.9921 4.17652 17.9921 3.88363 17.6992C3.59073 17.4063 3.59073 16.9314 3.88363 16.6385L7.86691 12.6552C8.15981 12.3623 8.63468 12.3623 8.92757 12.6552Z" />
<path fill-rule="evenodd" clip-rule="evenodd" d="M16.6096 18.559C16.9025 18.8519 16.9025 19.3268 16.6096 19.6197L12.6263 23.603C12.3334 23.8959 11.8586 23.8959 11.5657 23.603C11.2728 23.3101 11.2728 22.8352 11.5657 22.5423L15.549 18.559C15.8419 18.2661 16.3167 18.2661 16.6096 18.559Z" />
<path fill-rule="evenodd" clip-rule="evenodd" d="M28.7122 5.43085C29.6811 4.46634 31.2554 4.46771 32.2227 5.43497L33.2896 6.50192C34.2583 7.47055 34.2583 9.04794 33.2896 10.0166L32.1871 11.1191C31.8942 11.412 31.4193 11.412 31.1265 11.1191C30.8336 10.8262 30.8336 10.3513 31.1265 10.0584L32.229 8.95591C32.6118 8.57307 32.6118 7.94542 32.229 7.56258L31.162 6.49563C30.7792 6.11279 30.1515 6.11279 29.7687 6.49563L29.7611 6.5032L29.7611 6.50315L27.2359 8.95714C26.9389 9.24582 26.4641 9.23904 26.1754 8.94199C25.8867 8.64494 25.8935 8.17012 26.1905 7.88144L28.7122 5.43085Z" />
<path fill-rule="evenodd" clip-rule="evenodd" d="M19.3544 1.20303C20.3231 0.234405 21.9005 0.234405 22.8691 1.20303L23.9361 2.26999C24.9047 3.23862 24.9047 4.81601 23.9361 5.78464L22.7268 6.99385C22.4339 7.28674 21.9591 7.28674 21.6662 6.99385C21.3733 6.70095 21.3733 6.22608 21.6662 5.93319L22.8754 4.72398C23.2582 4.34113 23.2582 3.71349 22.8754 3.33065L21.8084 2.26369C21.4256 1.88085 20.798 1.88085 20.4151 2.26369L17.4572 5.22162L14.4521 3.90952L14.441 3.90424C13.7491 3.5748 13.0558 3.34313 12.3228 3.17641C11.395 2.97033 10.1761 2.78182 8.98405 2.85965C8.12318 2.91586 7.32105 3.10751 6.65406 3.49533L31.8876 22.0413C32.2214 22.2866 32.2931 22.756 32.0478 23.0898C31.8025 23.4235 31.333 23.4953 30.9993 23.2499L4.26198 3.59878L4.87947 2.98129C6 1.86076 7.49544 1.45365 8.88632 1.36284C10.2809 1.27178 11.6575 1.49197 12.6499 1.71253L12.6535 1.71331C13.4807 1.90132 14.277 2.16585 15.0746 2.54459L17.1199 3.4376L19.3544 1.20303Z" />
<path fill-rule="evenodd" clip-rule="evenodd" d="M13.3126 44.5834C13.313 44.5836 13.3133 44.5839 12.8784 45.1949L13.3126 44.5834C13.6501 44.8236 13.7296 45.2924 13.4894 45.6298C13.2495 45.9669 12.7821 46.0459 12.4447 45.8068C12.4445 45.8067 12.445 45.807 12.4447 45.8068L12.4435 45.8059L12.4363 45.8009C12.4282 45.7954 12.4145 45.7861 12.3955 45.7736C12.3575 45.7484 12.298 45.7101 12.2187 45.6619C12.0599 45.5656 11.8226 45.4305 11.5194 45.2833C10.9111 44.9879 10.0493 44.6494 9.03229 44.471C7.31952 44.1706 5.14359 44.3158 2.94109 45.9586C3.05468 45.9929 3.17285 46.031 3.29516 46.0735C4.45337 46.4757 5.97642 47.2616 7.50494 48.7901C7.79783 49.083 7.79783 49.5579 7.50494 49.8508C7.21205 50.1437 6.73717 50.1437 6.44428 49.8508C5.09204 48.4985 3.76988 47.8263 2.80307 47.4905C2.31839 47.3222 1.92107 47.2378 1.65207 47.1956C1.51762 47.1746 1.41544 47.1641 1.35072 47.1589C1.31837 47.1563 1.29543 47.155 1.28253 47.1545L1.27082 47.154L1.27335 47.154C1.2737 47.1541 1.27471 47.1541 1.2842 46.4041L1.27471 47.1541C0.972675 47.1502 0.702411 46.9656 0.589037 46.6856C0.475662 46.4057 0.541307 46.085 0.75558 45.8721C3.72947 42.9173 6.88657 42.5718 9.29144 42.9936C10.4795 43.202 11.476 43.5947 12.1746 43.934C12.525 44.1041 12.8034 44.2622 12.9969 44.3796C13.0937 44.4384 13.1696 44.4871 13.2228 44.5223C13.2494 44.5399 13.2704 44.5541 13.2855 44.5645L13.3039 44.5772L13.3097 44.5813L13.3118 44.5828L13.3126 44.5834Z" />
<path fill-rule="evenodd" clip-rule="evenodd" d="M17.488 48.5076C17.4877 48.5073 17.4874 48.507 16.9288 49.0074L17.488 48.5076C17.2116 48.1991 16.7369 48.1724 16.4284 48.4487C16.1202 48.7248 16.0938 49.1981 16.3691 49.5067C16.3693 49.5069 16.3689 49.5065 16.3691 49.5067L16.3701 49.5078L16.3759 49.5145C16.3823 49.5219 16.3931 49.5344 16.4077 49.5519C16.4369 49.5869 16.4817 49.6417 16.5383 49.7151C16.6518 49.8622 16.8125 50.0829 16.9927 50.3677C17.3541 50.9393 17.7868 51.758 18.0776 52.7486C18.5674 54.4172 18.666 56.5957 17.2794 58.9678C17.2327 58.8588 17.1815 58.7456 17.1257 58.6288C16.5966 57.5228 15.6456 56.097 13.956 54.7487C13.6322 54.4903 13.1603 54.5433 12.902 54.8671C12.6436 55.1909 12.6966 55.6628 13.0204 55.9211C14.5152 57.1139 15.3309 58.3528 15.7725 59.276C15.9939 59.7389 16.1221 60.1243 16.194 60.3869C16.23 60.5182 16.2518 60.6186 16.2642 60.6823C16.2704 60.7141 16.2742 60.7368 16.2762 60.7496L16.278 60.7612L16.2776 60.7586C16.2776 60.7583 16.2775 60.7573 17.0217 60.6641L16.2775 60.7573C16.315 61.057 16.5286 61.305 16.8195 61.3864C17.1104 61.4678 17.4217 61.3667 17.6094 61.13C20.2137 57.8448 20.2045 54.6689 19.5169 52.3262C19.1771 51.1688 18.6755 50.2224 18.2604 49.566C18.0523 49.2369 17.8641 48.9778 17.7258 48.7986C17.6566 48.709 17.5997 48.639 17.5587 48.5901C17.5383 48.5656 17.5218 48.5463 17.5098 48.5324L17.4951 48.5156L17.4904 48.5103L17.4887 48.5084L17.488 48.5076Z" />
<path fill-rule="evenodd" clip-rule="evenodd" d="M11.3815 50.6747C11.6744 50.9676 11.6744 51.4425 11.3815 51.7354L7.36268 55.7543C7.06979 56.0471 6.59491 56.0471 6.30202 55.7543C6.00913 55.4614 6.00913 54.9865 6.30202 54.6936L10.3209 50.6747C10.6138 50.3819 11.0886 50.3819 11.3815 50.6747Z" />
<path fill-rule="evenodd" clip-rule="evenodd" d="M48.0654 26.0977C41.7041 26.0977 36.5472 31.2545 36.5472 37.6158C36.5472 43.9771 41.7041 49.134 48.0654 49.134C54.4267 49.134 59.5835 43.9771 59.5835 37.6158C59.5835 31.2545 54.4267 26.0977 48.0654 26.0977ZM35.0472 37.6158C35.0472 30.4261 40.8756 24.5977 48.0654 24.5977C55.2551 24.5977 61.0835 30.4261 61.0835 37.6158C61.0835 44.8055 55.2551 50.634 48.0654 50.634C40.8756 50.634 35.0472 44.8055 35.0472 37.6158Z" />
<path d="M48.0654 39.368C49.0333 39.368 49.818 38.5833 49.818 37.6154C49.818 36.6475 49.0333 35.8628 48.0654 35.8628C47.0974 35.8628 46.3128 36.6475 46.3128 37.6154C46.3128 38.5833 47.0974 39.368 48.0654 39.368Z" />
<path fill-rule="evenodd" clip-rule="evenodd" d="M43.1535 32.704C43.4464 32.4112 43.9213 32.4112 44.2142 32.704L48.5957 37.0855C48.8886 37.3784 48.8886 37.8533 48.5957 38.1462C48.3028 38.4391 47.8279 38.4391 47.535 38.1462L43.1535 33.7647C42.8606 33.4718 42.8606 32.9969 43.1535 32.704Z" />
<path fill-rule="evenodd" clip-rule="evenodd" d="M38.9564 24.8173C39.2493 25.1102 39.2493 25.5851 38.9564 25.878L36.3275 28.5069C36.0346 28.7998 35.5598 28.7998 35.2669 28.5069C34.974 28.214 34.974 27.7391 35.2669 27.4462L37.8958 24.8173C38.1887 24.5244 38.6635 24.5244 38.9564 24.8173Z" />
<path fill-rule="evenodd" clip-rule="evenodd" d="M57.1743 24.8173C57.4672 24.5244 57.9421 24.5244 58.235 24.8173L60.8639 27.4462C61.1567 27.7391 61.1567 28.214 60.8639 28.5069C60.571 28.7998 60.0961 28.7998 59.8032 28.5069L57.1743 25.878C56.8814 25.5851 56.8814 25.1102 57.1743 24.8173Z" />
<path fill-rule="evenodd" clip-rule="evenodd" d="M46.1995 20.8766C46.1944 20.8899 46.1865 20.9182 46.1865 20.9661V22.5924H44.6865V20.9661C44.6865 20.5328 44.8342 20.1134 45.1471 19.8005C45.4601 19.4876 45.8794 19.3398 46.3128 19.3398H49.818C50.2513 19.3398 50.6707 19.4876 50.9836 19.8005C51.2965 20.1134 51.4443 20.5328 51.4443 20.9661V22.5924H49.9443V20.9661C49.9443 20.9182 49.9363 20.8899 49.9313 20.8766C49.9287 20.8699 49.9264 20.866 49.9252 20.8641C49.924 20.8622 49.9233 20.8615 49.9229 20.8612C49.9226 20.8609 49.9219 20.8601 49.92 20.8589C49.9181 20.8577 49.9142 20.8554 49.9075 20.8528C49.8942 20.8478 49.8659 20.8398 49.818 20.8398H46.3128C46.2648 20.8398 46.2365 20.8478 46.2233 20.8528C46.2165 20.8554 46.2126 20.8577 46.2107 20.8589C46.2089 20.8601 46.2081 20.8609 46.2078 20.8612C46.2075 20.8615 46.2067 20.8622 46.2055 20.8641C46.2043 20.866 46.2021 20.8699 46.1995 20.8766Z" />
</svg>
