<svg xmlns="http://www.w3.org/2000/svg" viewBox="0 0 29.38 30">
    <path d="M17.13,28.75h1.59l9.18-9.38-1.59-1.61-9.18,9.37ZM19,30H16.52a.62.62,0,0,1-.61-.63v-2.5a.67.67,0,0,1,.18-.44l9.79-10a.62.62,0,0,1,.87,0l2.45,2.5a.64.64,0,0,1,0,.89l-9.8,10A.62.62,0,0,1,19,30Z"/>
    <path d="M26.32,22.5a.62.62,0,0,1-.44-.18l-2.44-2.5a.64.64,0,0,1,0-.89.6.6,0,0,1,.86,0l2.45,2.5a.64.64,0,0,1,0,.89A.61.61,0,0,1,26.32,22.5Z"/>
    <path d="M13.46,27.5H.61A.62.62,0,0,1,0,26.87V8.12a.62.62,0,0,1,.18-.44L7.52.18A.65.65,0,0,1,8,0H21.42A.62.62,0,0,1,22,.63V18.12a.61.61,0,1,1-1.22,0V1.25H8.21l-7,7.13V26.25H13.46a.63.63,0,0,1,0,1.25Z"/>
    <path d="M8,8.75H.61a.63.63,0,0,1,0-1.25H7.34V.63a.62.62,0,1,1,1.23,0V8.12A.62.62,0,0,1,8,8.75Z"/>
    <path d="M9.18,13.75H3.06a.63.63,0,0,1,0-1.25H9.18a.63.63,0,0,1,0,1.25Z"/>
    <path d="M16.52,18.75H3.06a.63.63,0,0,1,0-1.25H16.52a.63.63,0,0,1,0,1.25Z"/>
    <path d="M8,23.75H3.06a.63.63,0,0,1,0-1.25H8a.63.63,0,0,1,0,1.25Z"/>
    <path d="M13.89,10.38h.94V9a.47.47,0,0,1,.46-.47h1.4v-1h-1.4a.47.47,0,0,1-.46-.47V5.62h-.94V7.05a.46.46,0,0,1-.46.47H12v1h1.4a.46.46,0,0,1,.46.47Zm1.4.95H13.43a.47.47,0,0,1-.47-.47V9.43h-1.4A.47.47,0,0,1,11.1,9V7.05a.47.47,0,0,1,.46-.48H13V5.14a.47.47,0,0,1,.47-.47h1.86a.47.47,0,0,1,.47.47V6.57h1.4a.46.46,0,0,1,.46.48V9a.46.46,0,0,1-.46.48h-1.4v1.43A.47.47,0,0,1,15.29,11.33Z"/>
</svg>
