<svg  viewBox="0 0 20 14" xmlns="http://www.w3.org/2000/svg">
    <path fill-rule="evenodd" clip-rule="evenodd"
          d="M0.25 1.4108C0.25 0.996584 0.585786 0.660797 1 0.660797H19C19.4142 0.660797 19.75 0.996584 19.75 1.4108C19.75 1.82501 19.4142 2.1608 19 2.1608H1C0.585786 2.1608 0.25 1.82501 0.25 1.4108ZM0.25 7.33045C0.25 6.91624 0.585786 6.58045 1 6.58045H19C19.4142 6.58045 19.75 6.91624 19.75 7.33045C19.75 7.74467 19.4142 8.08045 19 8.08045H1C0.585786 8.08045 0.25 7.74467 0.25 7.33045ZM0.25 13.2501C0.25 12.8359 0.585786 12.5001 1 12.5001H19C19.4142 12.5001 19.75 12.8359 19.75 13.2501C19.75 13.6643 19.4142 14.0001 19 14.0001H1C0.585786 14.0001 0.25 13.6643 0.25 13.2501Z"
          />
</svg>
