<svg   viewBox="0 0 40 40"  xmlns="http://www.w3.org/2000/svg">
<path d="M24.8363 12.9638C25.1815 12.9638 25.4613 12.684 25.4613 12.3388C25.4613 11.9936 25.1815 11.7138 24.8363 11.7138C24.4911 11.7138 24.2113 11.9936 24.2113 12.3388C24.2113 12.684 24.4911 12.9638 24.8363 12.9638Z" />
<path d="M29.8363 12.9638C30.1815 12.9638 30.4613 12.684 30.4613 12.3388C30.4613 11.9936 30.1815 11.7138 29.8363 11.7138C29.4911 11.7138 29.2113 11.9936 29.2113 12.3388C29.2113 12.684 29.4911 12.9638 29.8363 12.9638Z" />
<path d="M24.9876 15.4638C25.8632 15.4638 26.6863 15.1232 27.3044 14.5044L27.3363 14.4726L27.3676 14.5038C27.9863 15.1232 28.8088 15.4638 29.6851 15.4638C31.4913 15.4638 32.9613 13.9938 32.9613 12.1869V11.0888C32.9613 10.0551 32.1201 9.21381 31.0863 9.21381H23.5863C22.5526 9.21381 21.7113 10.0551 21.7113 11.0888V12.1869C21.7113 13.9938 23.1813 15.4638 24.9876 15.4638ZM22.9613 11.0888C22.9613 10.7444 23.2413 10.4638 23.5863 10.4638H31.0863C31.4313 10.4638 31.7113 10.7444 31.7113 11.0888V12.1869C31.7113 13.3044 30.8026 14.2138 29.6851 14.2138C29.1432 14.2138 28.6344 14.0032 28.2519 13.6201L27.3363 12.7051L26.4201 13.6201C26.0382 14.0032 25.5294 14.2138 24.9876 14.2138C23.8701 14.2138 22.9613 13.3044 22.9613 12.1869V11.0888Z" />
<path d="M35.4613 20.7801V11.7138C35.4613 8.46881 33.3857 5.70631 30.4957 4.66381L30.8201 4.17693C30.9944 3.91568 31.0863 3.61193 31.0863 3.29818C31.0863 2.42443 30.3751 1.71381 29.5019 1.71381H29.1332C28.9207 0.993806 28.2607 0.463806 27.4732 0.463806H27.1994C26.4119 0.463806 25.7519 0.993806 25.5394 1.71381H25.1707C24.2976 1.71381 23.5863 2.42443 23.5863 3.29818C23.5863 3.61193 23.6782 3.91568 23.8526 4.17693L24.1769 4.66381C21.7163 5.55131 19.8494 7.68443 19.3488 10.3032C18.0282 8.15443 15.6632 6.71381 12.9613 6.71381C8.82568 6.71381 5.4613 10.0782 5.4613 14.2138V19.0819C5.4613 20.1288 4.9413 21.1007 4.06943 21.6819L3.31818 22.1832C2.31193 22.8538 1.7113 23.9763 1.7113 25.1857C1.7113 25.9001 1.92068 26.5919 2.31755 27.1876L2.6738 27.7226C2.86193 28.0038 2.9613 28.3326 2.9613 28.6707C2.9613 29.2063 2.70568 29.7182 2.27568 30.0394L2.14505 30.1382C1.09068 30.9294 0.461304 32.1882 0.461304 33.5057C0.461304 35.3201 1.61818 36.9244 3.3388 37.4988L4.63818 37.9319L5.0338 36.7463L3.73443 36.3132C2.52443 35.9094 1.7113 34.7813 1.7113 33.5057C1.7113 32.5794 2.1538 31.6944 2.8963 31.1382L3.02693 31.0394C3.76818 30.4838 4.2113 29.5982 4.2113 28.6707C4.2113 28.0844 4.03943 27.5163 3.7138 27.0288L3.35755 26.4938C3.09818 26.1051 2.9613 25.6526 2.9613 25.1857C2.9613 24.3951 3.3538 23.6619 4.01193 23.2232L4.76318 22.7219C5.98318 21.9088 6.7113 20.5482 6.7113 19.0819V14.2138C6.7113 10.7676 9.51505 7.96381 12.9613 7.96381C16.4076 7.96381 19.2113 10.7676 19.2113 14.2138V20.8932L17.5282 23.3244L15.2638 21.7751C16.8801 20.9288 17.9613 19.2232 17.9613 17.3388V14.5919C17.9613 12.9944 17.4926 11.4469 16.6063 10.1169L15.5663 10.8101C16.3151 11.9344 16.7113 13.2419 16.7113 14.5919V17.3388C16.7113 18.9969 15.5901 20.4588 14.0188 20.9238L9.2113 17.6344V14.7657C9.2113 13.9576 9.7263 13.2426 10.4938 12.9869L10.6594 12.9319L10.2638 11.7463L10.0982 11.8013C8.82005 12.2269 7.9613 13.4188 7.9613 14.7657V17.9638C7.9613 20.0369 8.79318 22.0019 10.2194 23.4582L8.7113 24.5888C6.6763 26.1151 5.4613 28.5451 5.4613 31.0888C5.4613 35.5688 9.1063 39.2138 13.5863 39.2138H14.2113H14.2294H34.4501C35.3519 39.2138 36.0863 38.4801 36.0863 37.5776C36.0863 37.3251 36.0263 37.0719 35.9138 36.8457L35.6594 36.3376C35.5294 36.0782 35.4613 35.7882 35.4613 35.4988V34.8707C37.6707 33.8513 39.2113 31.6213 39.2113 29.0326V28.0957C39.2113 25.1819 37.8094 22.4801 35.4613 20.7801ZM20.4613 19.7388C20.8676 19.9919 21.2832 20.2269 21.7113 20.4326V21.5257C21.4057 21.3588 21.1044 21.1832 20.8126 20.9882L20.4613 20.7544V19.7388ZM22.9613 20.9501C23.3713 21.0969 23.7882 21.2226 24.2113 21.3276V22.5357C23.7876 22.4188 23.3701 22.2801 22.9613 22.1163V20.9501ZM25.4613 21.5776C25.8744 21.6376 26.2919 21.6707 26.7113 21.6907V22.9407C26.2907 22.9188 25.8738 22.8763 25.4613 22.8094V21.5776ZM27.9613 21.6907C28.3807 21.6707 28.7982 21.6369 29.2113 21.5776V22.8101C28.7988 22.8763 28.3819 22.9188 27.9613 22.9413V21.6907ZM30.4613 21.3269C30.8844 21.2226 31.3013 21.0963 31.7113 20.9494V22.1157C31.3026 22.2801 30.8851 22.4182 30.4613 22.5351V21.3269ZM32.9613 20.4326C33.3894 20.2269 33.8051 19.9919 34.2113 19.7388V20.7544L33.8594 20.9888C33.5676 21.1832 33.2663 21.3594 32.9607 21.5263V20.4326H32.9613ZM29.8363 3.29818C29.8363 3.36443 29.8169 3.42818 29.7801 3.48381L29.2176 4.32756C29.0626 4.30131 28.9088 4.27256 28.7513 4.25631L29.0744 2.96381H29.5019C29.6863 2.96381 29.8363 3.11381 29.8363 3.29818ZM27.1994 1.71381H27.4732C27.7419 1.71381 27.9613 1.93256 27.9613 2.20193C27.9613 2.24193 27.9563 2.28256 27.9476 2.32006L27.4738 4.21381H27.1988L26.7257 2.32131C26.7163 2.28256 26.7113 2.24193 26.7113 2.20193C26.7113 1.93256 26.9307 1.71381 27.1994 1.71381ZM24.8926 3.48381C24.8557 3.42881 24.8363 3.36443 24.8363 3.29818C24.8363 3.11381 24.9863 2.96381 25.1707 2.96381H25.5982L25.9213 4.25631C25.7638 4.27318 25.6094 4.30131 25.4544 4.32756L24.8926 3.48381ZM20.4613 11.7138C20.4613 8.26756 23.2651 5.46381 26.7113 5.46381H27.9613C31.4076 5.46381 34.2113 8.26756 34.2113 11.7138V18.2544L33.8594 18.4888C31.9213 19.7807 29.6663 20.4638 27.3363 20.4638C25.0063 20.4638 22.7513 19.7807 20.8126 18.4888L20.4613 18.2544V11.7138ZM19.2113 23.0894V24.4763L18.5601 24.0307L19.2113 23.0894ZM20.1938 29.7826C19.6063 29.5588 19.2113 28.9857 19.2113 28.3563V28.2394C19.2113 27.3982 19.8957 26.7138 20.7369 26.7138C20.9013 26.7138 21.0632 26.7401 21.2194 26.7919L22.4951 27.2169L21.3657 30.2282L20.1938 29.7826ZM18.0369 27.6194L16.7194 26.6894L17.8488 25.0582L19.1632 25.9576C18.6026 26.3457 18.1944 26.9344 18.0369 27.6194ZM15.6976 25.9682L12.0101 23.3657C10.6119 22.3788 9.6738 20.8913 9.34755 19.2419L16.8163 24.3526L15.6976 25.9682ZM11.7113 24.6851L14.1676 26.4188C13.9088 26.6019 13.6026 26.7138 13.2738 26.7138C12.4119 26.7138 11.7113 26.0126 11.7113 25.1513V24.6851ZM6.7113 31.0888C6.7113 28.9363 7.73943 26.8801 9.46068 25.5888L10.4613 24.8388V25.1513C10.4613 26.7019 11.7232 27.9638 13.2738 27.9638C13.7157 27.9638 14.1394 27.8576 14.5207 27.6688L13.6976 28.8582L14.7257 29.5701L16.0082 27.7176L18.0913 29.1876C18.3044 29.8601 18.7713 30.4357 19.3951 30.7832C19.2094 30.8888 19.0326 31.0101 18.8776 31.1651L16.9707 33.0713C16.2326 33.8082 15.2532 34.2138 14.2113 34.2138C13.1694 34.2138 12.1901 33.8082 11.4526 33.0713L9.65318 31.2719L8.76943 32.1557L10.5151 33.9013L8.6038 35.8126C7.43443 34.5794 6.7113 32.9182 6.7113 31.0888ZM14.2113 37.9638H13.5863C12.0751 37.9638 10.6813 37.4682 9.54505 36.6388L11.4969 34.6869C12.3051 35.1894 13.2363 35.4638 14.2113 35.4638C15.5869 35.4638 16.8807 34.9282 17.8538 33.9551L19.7607 32.0482C19.9738 31.8357 20.2676 31.7138 20.5688 31.7138C21.1988 31.7138 21.7113 32.2263 21.7113 32.8569C21.7113 33.1619 21.5926 33.4494 21.3769 33.6651L19.0913 35.9507C17.7926 37.2488 16.0663 37.9638 14.2294 37.9638H14.2113ZM19.9751 36.8338L20.4613 36.3476V37.9638H18.5507C19.0594 37.6432 19.5394 37.2694 19.9751 36.8338ZM34.5407 36.8963L34.7951 37.4044C34.8226 37.4582 34.8363 37.5182 34.8363 37.5776C34.8363 37.7907 34.6632 37.9638 34.4501 37.9638H21.7113V35.0976L22.2607 34.5482C22.7126 34.0963 22.9613 33.4957 22.9613 32.8569C22.9613 32.6007 22.9101 32.3582 22.8351 32.1263L30.4907 35.0426C31.2244 35.3219 31.9944 35.4638 32.7801 35.4638C33.2726 35.4638 33.7501 35.4032 34.2113 35.2976V35.4982C34.2113 35.9807 34.3257 36.4644 34.5407 36.8963ZM37.9613 29.0319C37.9613 31.8894 35.6369 34.2138 32.7801 34.2138C32.1469 34.2138 31.5263 34.0994 30.9357 33.8744L22.5344 30.6738L23.6826 27.6132L31.8076 30.3213C32.0907 30.4157 32.3863 30.4638 32.6857 30.4638C34.2163 30.4638 35.4613 29.2188 35.4613 27.6882V26.7138H34.2113V27.6882C34.2113 28.5294 33.5269 29.2138 32.6857 29.2138C32.5213 29.2138 32.3594 29.1876 32.2032 29.1357L21.6163 25.6069C21.3319 25.5119 21.0363 25.4638 20.7369 25.4638C20.7126 25.4638 20.6894 25.4707 20.6651 25.4713L20.4613 25.3313V22.2488C22.5269 23.5357 24.8951 24.2138 27.3363 24.2138C29.9132 24.2138 32.4088 23.4582 34.5532 22.0288L34.8138 21.8551C36.7857 23.3232 37.9613 25.6201 37.9613 28.0957V29.0319Z" />
<path d="M10.9032 17.7807L12.5951 16.0888L10.9032 14.3969L10.0194 15.2807L10.8276 16.0888L10.0194 16.8969L10.9032 17.7807Z" />
<path d="M15.0194 14.3969L13.3275 16.0888L15.0194 17.7807L15.9032 16.8969L15.095 16.0888L15.9032 15.2807L15.0194 14.3969Z" />
<path d="M14.0282 10.0219L13.1444 10.9057L13.5107 11.2719C13.9626 11.7238 14.2113 12.3251 14.2113 12.9638H15.4613C15.4613 11.9907 15.0826 11.0757 14.3944 10.3882L14.0282 10.0219Z" />
<path d="M11.8944 10.3882L11.5282 10.0219L10.6444 10.9057L11.0107 11.2719C11.4626 11.7238 11.7113 12.3251 11.7113 12.9638H12.9613C12.9613 11.9907 12.5826 11.0757 11.8944 10.3882Z" />
</svg>
