<svg   viewBox="0 0 51 56"  xmlns="http://www.w3.org/2000/svg">
<path fill-rule="evenodd" clip-rule="evenodd" d="M11.341 1.79968C6.39819 1.79968 2.35095 5.84692 2.35095 10.7897C2.35095 14.5034 4.57716 17.9723 7.74509 19.3555C8.1247 19.5212 8.29807 19.9633 8.13233 20.3429C7.96658 20.7225 7.52449 20.8959 7.14488 20.7301C3.39738 19.0939 0.850952 15.0629 0.850952 10.7897C0.850952 5.01849 5.56977 0.299683 11.341 0.299683C14.8562 0.299683 17.9516 2.03199 19.8391 4.65358C20.0811 4.98973 20.0048 5.45843 19.6687 5.70046C19.3325 5.94248 18.8638 5.86618 18.6218 5.53004C17.0029 3.28159 14.3516 1.79968 11.341 1.79968Z" />
<path fill-rule="evenodd" clip-rule="evenodd" d="M20.5941 5.69568C18.4417 5.69568 16.5594 6.90006 15.6643 8.69011C15.4791 9.06059 15.0286 9.21076 14.6581 9.02552C14.2876 8.84028 14.1375 8.38977 14.3227 8.01929C15.4731 5.71851 17.8764 4.19568 20.5941 4.19568C24.5147 4.19568 27.6751 7.35608 27.6751 11.2767C27.6751 11.3504 27.6732 11.4254 27.6698 11.5007C30.3664 11.5084 32.5451 13.6918 32.5451 16.3902C32.5451 19.0934 30.3587 21.2798 27.6556 21.2798H25.9511C25.5369 21.2798 25.2011 20.944 25.2011 20.5298C25.2011 20.1156 25.5369 19.7798 25.9511 19.7798H27.6556C29.5303 19.7798 31.0451 18.2649 31.0451 16.3902C31.0451 14.5155 29.5303 13.0007 27.6556 13.0007C27.4391 13.0007 27.2052 13.0375 26.9748 13.0836C26.7361 13.1313 26.4891 13.0602 26.3123 12.893C26.1355 12.7257 26.0508 12.483 26.0852 12.2421C26.1338 11.902 26.1751 11.5592 26.1751 11.2767C26.1751 8.18451 23.6863 5.69568 20.5941 5.69568Z" />
<path fill-rule="evenodd" clip-rule="evenodd" d="M20.5941 17.3837C19.4012 17.3837 18.4221 18.3628 18.4221 19.5557V21.5038C18.4221 22.6967 19.4012 23.6758 20.5941 23.6758C21.787 23.6758 22.7661 22.6967 22.7661 21.5038V19.5557C22.7661 18.3628 21.787 17.3837 20.5941 17.3837ZM16.9221 19.5557C16.9221 17.5344 18.5728 15.8837 20.5941 15.8837C22.6154 15.8837 24.2661 17.5344 24.2661 19.5557V21.5038C24.2661 23.5251 22.6154 25.1758 20.5941 25.1758C18.5728 25.1758 16.9221 23.5251 16.9221 21.5038V19.5557Z" />
<path fill-rule="evenodd" clip-rule="evenodd" d="M27.4121 23.2277C26.9984 23.2277 26.7011 23.525 26.7011 23.9387C26.7011 24.3529 26.3653 24.6887 25.9511 24.6887C25.5369 24.6887 25.2011 24.3529 25.2011 23.9387C25.2011 22.6966 26.17 21.7277 27.4121 21.7277C28.6542 21.7277 29.6231 22.6966 29.6231 23.9387C29.6231 24.4321 29.3964 24.9631 29.0625 25.297L27.7618 26.5978H28.8731C29.2873 26.5978 29.6231 26.9335 29.6231 27.3478C29.6231 27.762 29.2873 28.0978 28.8731 28.0978H25.9511C25.6478 28.0978 25.3743 27.915 25.2582 27.6348C25.1421 27.3545 25.2063 27.0319 25.4208 26.8174L28.0019 24.2363C28.0171 24.2211 28.0525 24.1749 28.0834 24.1007C28.1141 24.0272 28.1231 23.9672 28.1231 23.9387C28.1231 23.525 27.8258 23.2277 27.4121 23.2277Z" />
<path fill-rule="evenodd" clip-rule="evenodd" d="M12.802 17.3837C11.6091 17.3837 10.63 18.3628 10.63 19.5557V21.5038C10.63 22.6967 11.6091 23.6758 12.802 23.6758C13.7892 23.6758 14.582 23.0581 14.8696 22.2314C15.0056 21.8401 15.4331 21.6333 15.8243 21.7694C16.2156 21.9055 16.4224 22.3329 16.2863 22.7242C15.7947 24.1376 14.4447 25.1758 12.802 25.1758C10.7807 25.1758 9.13 23.5251 9.13 21.5038V19.5557C9.13 17.5344 10.7807 15.8837 12.802 15.8837C14.408 15.8837 15.7373 16.9308 16.2764 18.3084C16.4273 18.6942 16.237 19.1292 15.8512 19.2802C15.4655 19.4311 15.0304 19.2408 14.8795 18.855C14.542 17.9924 13.7285 17.3837 12.802 17.3837Z" />
<path fill-rule="evenodd" clip-rule="evenodd" d="M10.4793 37.1808C10.4793 36.7666 10.8151 36.4308 11.2293 36.4308H32.2918V37.9308H11.9793V55.1183H10.4793V37.1808Z" />
<path fill-rule="evenodd" clip-rule="evenodd" d="M15.9481 41.8683C15.9481 41.4541 16.2838 41.1183 16.6981 41.1183H21.3543V42.6183H17.4481V46.5245H15.9481V41.8683Z" />
<path fill-rule="evenodd" clip-rule="evenodd" d="M24.5418 41.8683C24.5418 41.4541 24.8776 41.1183 25.2918 41.1183H29.9481V42.6183H26.0418V46.5245H24.5418V41.8683Z" />
<path fill-rule="evenodd" clip-rule="evenodd" d="M15.9481 50.462C15.9481 50.0478 16.2838 49.712 16.6981 49.712H21.3543V51.212H17.4481V55.1183H15.9481V50.462Z" />
<path fill-rule="evenodd" clip-rule="evenodd" d="M24.5418 50.462C24.5418 50.0478 24.8776 49.712 25.2918 49.712H29.9481V51.212H26.0418V55.1183H24.5418V50.462Z" />
<path fill-rule="evenodd" clip-rule="evenodd" d="M15.8856 30.962V37.9308H14.3856V30.962H15.8856Z" />
<path fill-rule="evenodd" clip-rule="evenodd" d="M22.9168 30.962V37.9308H21.4168V30.962H22.9168Z" />
<path fill-rule="evenodd" clip-rule="evenodd" d="M29.9481 30.962V37.9308H28.4481V30.962H29.9481Z" />
<path fill-rule="evenodd" clip-rule="evenodd" d="M36.9793 21.5869V55.1182H35.4793V21.5869H36.9793Z" />
<path fill-rule="evenodd" clip-rule="evenodd" d="M40.9481 13.7432C40.9481 13.329 41.2838 12.9932 41.6981 12.9932H49.5106C49.9248 12.9932 50.2606 13.329 50.2606 13.7432V21.5557C50.2606 21.9699 49.9248 22.3057 49.5106 22.3057H43.2293V55.1182H41.7293V21.5557C41.7293 21.1415 42.0651 20.8057 42.4793 20.8057H48.7606V14.4932H42.4481V16.0557H40.9481V13.7432Z" />
<path fill-rule="evenodd" clip-rule="evenodd" d="M36.2293 5.18066C36.6435 5.18066 36.9793 5.51645 36.9793 5.93066V15.3057C36.9793 15.7199 36.6435 16.0557 36.2293 16.0557C35.8151 16.0557 35.4793 15.7199 35.4793 15.3057V5.93066C35.4793 5.51645 35.8151 5.18066 36.2293 5.18066Z" />
<path fill-rule="evenodd" clip-rule="evenodd" d="M35.5829 28.2379C35.7929 27.8809 36.2525 27.7617 36.6096 27.9717L49.8908 35.7842C50.2478 35.9942 50.367 36.4539 50.157 36.8109C49.947 37.168 49.4873 37.2871 49.1303 37.0771L35.849 29.2646C35.492 29.0546 35.3728 28.5949 35.5829 28.2379Z" />
</svg>
