<svg   viewBox="0 0 51 46"  xmlns="http://www.w3.org/2000/svg">
<path d="M4.97769 33.9477C5.03559 34.1214 5.0935 34.2372 5.26721 34.2951C5.32511 34.353 5.44092 34.353 5.55673 34.353C5.61463 34.353 5.67253 34.353 5.73044 34.353L17.8902 30.8788L22.0014 45.4126C22.0593 45.6442 22.2909 45.8179 22.5804 45.8179C22.6383 45.8179 22.6962 45.8179 22.7541 45.8179C23.0436 45.7021 23.2173 45.4126 23.1594 45.1231L19.0483 30.5892L24.3754 29.0838L25.3598 45.2968C25.3598 45.5863 25.6493 45.8179 25.9388 45.8179C25.9388 45.8179 25.9388 45.8179 25.9967 45.8179C26.3441 45.8179 26.5757 45.5284 26.5178 45.181L25.5335 28.7363L30.5711 27.2887C30.7448 27.2308 30.8606 27.1729 30.9185 26.9992C30.8606 26.8834 30.8606 26.7097 30.8606 26.536L29.9342 23.4092L34.4506 24.7989L28.0812 45.181C27.9654 45.4705 28.1391 45.8179 28.4866 45.9337C28.5445 45.9337 28.6024 45.9337 28.6603 45.9337C28.8919 45.9337 29.1235 45.76 29.2393 45.5284L35.6087 25.1463L45.4523 28.2152C45.5102 28.2152 45.5681 28.2152 45.626 28.2152C45.8577 28.2152 46.0893 28.0415 46.2051 27.8099L50.3162 14.7237C50.432 14.4341 50.2583 14.0867 49.9109 13.9709L33.1189 8.70167L32.5977 1.46372C32.5977 1.11629 32.3082 0.88468 31.9608 0.942583L10.9418 2.21646C10.7681 2.21646 10.6522 2.27437 10.5364 2.39017C10.4206 2.50598 10.3627 2.67969 10.4206 2.7955L11.1734 14.6657L0.982338 17.5609C0.69282 17.6767 0.519109 17.9663 0.577012 18.2558L4.97769 33.9477ZM45.1628 26.9413L25.5335 20.8035L29.2972 8.81748L48.9266 14.9553L45.1628 26.9413ZM11.5787 3.31663L31.4397 2.10066L31.845 8.41215L29.1235 7.5436C28.9498 7.48569 28.834 7.4857 28.6603 7.6015C28.5445 7.65941 28.4287 7.77521 28.3708 7.94892L26.9232 12.697L26.402 10.9599C26.3441 10.7862 26.2862 10.6704 26.1125 10.6125C25.9967 10.5546 25.823 10.4967 25.6493 10.5546L12.2156 14.3762L11.5787 3.31663ZM25.4177 11.7706C25.4177 11.7706 26.2283 14.5499 26.2283 14.6078L24.2596 20.9772C24.2017 21.151 24.2017 21.2668 24.3175 21.4405C24.3754 21.5563 24.4912 21.6721 24.6649 21.73L28.6603 22.946V23.0039L29.5867 26.2465L5.90415 33.0791L1.79299 18.5453L25.4177 11.7706Z" />
<path d="M12.3894 21.5562L15.2267 23.0038L13.7791 25.8411C13.6633 26.1306 13.7212 26.478 14.0107 26.5939C14.0686 26.6518 14.1844 26.6518 14.3002 26.6518C14.5318 26.6518 14.7056 26.5359 14.8214 26.3622L16.269 23.525L19.1062 24.9726C19.1641 25.0305 19.2799 25.0305 19.3957 25.0305C19.6274 25.0305 19.8011 24.9146 19.9169 24.7409C20.0327 24.4514 19.9748 24.104 19.6853 23.9882L16.848 22.5406L18.2956 19.7033C18.4114 19.4138 18.3535 19.0664 18.064 18.9506C17.7744 18.8348 17.427 18.8927 17.3112 19.1822L15.8636 22.0195L12.9105 20.514C12.621 20.3982 12.2736 20.4561 12.1578 20.7456C11.9841 21.093 12.0999 21.4404 12.3894 21.5562Z" />
<path d="M34.5085 19.877C34.6244 19.877 34.6823 19.877 34.7981 19.8191L36.9984 18.6611L38.1565 20.8614C38.2723 21.0351 38.446 21.1509 38.6776 21.1509C38.7934 21.1509 38.8513 21.1509 38.9671 21.093C39.2566 20.9193 39.3724 20.5719 39.1987 20.3403L38.0407 18.1399L40.241 16.9819C40.5305 16.8081 40.6463 16.4607 40.4726 16.2291C40.2989 15.9396 39.9515 15.8238 39.7199 15.9975L37.5195 17.1556L36.3615 14.9552C36.1877 14.6657 35.8403 14.5499 35.6087 14.7236C35.3192 14.8973 35.2034 15.2447 35.3771 15.4764L36.5352 17.6767L34.3348 18.8348C34.0453 19.0085 33.9295 19.3559 34.1032 19.5875C34.1032 19.7612 34.3348 19.877 34.5085 19.877Z" />
<path d="M22.6963 8.18052L23.8543 6.90664C24.086 6.67503 24.028 6.32761 23.7964 6.09599C23.5648 5.86438 23.2174 5.92228 22.9858 6.1539L21.8277 7.42778L20.5538 6.2697C20.3222 6.03809 19.9748 6.09599 19.7432 6.32761C19.5116 6.55922 19.5695 6.90664 19.8011 7.13826L21.075 8.29633L19.9169 9.57021C19.6853 9.80183 19.7432 10.1492 19.9748 10.3809C20.0906 10.4967 20.2064 10.4967 20.3801 10.4967C20.5538 10.4967 20.7275 10.4388 20.8433 10.323L22.0014 9.04908L23.2753 10.2072C23.3911 10.323 23.5069 10.323 23.6806 10.323C23.8543 10.323 24.028 10.2651 24.1439 10.1492C24.3755 9.91763 24.3176 9.57021 24.086 9.3386L22.6963 8.18052Z" />
</svg>
