<svg   viewBox="0 0 51 53" xmlns="http://www.w3.org/2000/svg">
    <path d="M48.8483 25.9425C45.2979 24.4281 41.5532 23.4588 37.7161 23.0611L33.3161 22.6051C33.2699 22.4903 33.2252 22.3755 33.1854 22.2623C32.5923 20.5837 33.238 18.8405 33.9219 16.9952L34.0303 16.7019C34.1418 16.4007 34.2853 16.0467 34.448 15.6433C35.2132 13.747 36.3706 10.8799 36.7324 7.4706C36.9477 5.45882 36.5538 3.82869 35.567 2.62589C34.2854 1.06518 32.4567 0.787763 31.9275 0.740057C30.9502 0.665158 30.0225 1.25183 29.7021 2.20512L29.3546 3.25812C28.4602 5.9626 26.7951 10.9972 25.9829 12.5411C24.9286 14.5449 16.1115 25.4819 12.8779 27.7202V27.191C12.8779 26.8307 12.5853 26.5383 12.2251 26.5383H0.652743C0.292441 26.5383 0 26.8308 0 27.191V50.9387C0 51.299 0.29256 51.5923 0.652743 51.5923H12.225C12.5853 51.5923 12.8777 51.299 12.8777 50.9387V49.9138C14.957 49.6018 17.0784 49.6794 19.1947 50.1909C23.8028 51.3052 31.9769 52.697 32.0327 52.7065C32.122 52.7255 32.2383 52.7336 32.377 52.7336C34.2662 52.7336 40.4246 51.1108 41.1165 50.6867C41.5916 50.3934 42.4062 49.2232 42.8637 48.5282C43.5238 47.4287 43.6338 46.5398 43.498 45.8741C45.0659 45.7443 46.0339 44.5702 46.3486 43.819C47.1408 42.5437 47.3689 41.3608 47.0246 40.299C46.9071 39.9377 46.7302 39.6302 46.5316 39.3646C48.2847 39.1154 49.47 37.5795 49.7395 35.0844C49.8144 34.3893 49.6295 33.7054 49.2167 33.1538C49.1538 33.0707 49.0864 33.0063 49.0207 32.9328C49.7366 32.6439 50.2853 32.1121 50.4952 31.4545C51.6222 27.9393 50.3181 26.7062 48.8483 25.9425ZM11.572 50.2851H1.30537V27.8435H11.572V50.2851ZM45.1944 43.2133C45.1035 43.4206 44.2444 45.2029 42.1271 44.3612C40.3528 43.6565 38.8049 43.2995 37.8196 43.1241C36.8105 42.9424 35.8827 42.6268 35.0616 42.1804C34.1401 41.6846 32.9605 40.8525 32.5794 39.7125C32.4024 39.1832 32.4344 38.4786 32.9079 38.096C33.5469 37.5709 34.595 37.8211 35.406 38.1443C35.5958 38.3624 35.77 38.5633 35.9049 38.7193C36.8487 39.6535 39.2049 39.3936 39.6353 39.3362C40.9365 39.2266 43.1281 39.2894 44.5231 39.3475C44.7726 39.4738 45.5243 39.9081 45.7825 40.7024C46.0026 41.38 45.8193 42.1961 45.1944 43.2133ZM46.0265 38.1086C45.9835 38.1086 45.9389 38.1086 45.8926 38.1055C45.7204 38.0944 41.6201 37.8584 39.4935 38.0386C38.4604 38.1726 37.1422 38.1072 36.8583 37.8298C36.7293 37.6783 33.6731 34.1328 32.9047 33.4315C32.7946 33.3311 32.7995 32.8178 33.0975 32.3809C33.3765 31.9728 33.7161 31.8628 34.1098 32.0572C34.1131 32.0589 34.1168 32.0584 34.1201 32.0598L36.2077 33.1428C37.9725 34.4085 39.3643 34.5872 39.4648 34.5983C39.6816 34.6094 39.9047 34.6158 40.1296 34.6158C42.6801 34.6158 45.6746 33.9142 47.5901 33.3809C47.7515 33.497 47.9775 33.681 48.1723 33.9398C48.3842 34.222 48.48 34.5791 48.4417 34.9441C48.3111 36.1382 47.8248 38.1102 46.0265 38.1086ZM49.2516 31.0575C49.1495 31.3763 48.826 31.6537 48.4066 31.7844C48.167 31.8584 47.8629 31.9482 47.5289 32.0437C47.5237 32.0453 47.5189 32.0462 47.514 32.0479C45.5514 32.6086 42.1783 33.4293 39.5812 33.299C39.5701 33.2973 38.4397 33.1364 36.8902 32.0332L34.715 30.9053C34.7045 30.8992 34.6981 30.8892 34.6871 30.8837C34.6767 30.8787 34.6663 30.8796 34.6561 30.8748L33.9171 30.4916C33.6477 30.3975 33.0227 30.0691 32.9192 29.6976C32.8666 29.5048 32.9655 29.2592 33.2221 28.9579C33.2907 28.872 35.0061 26.8744 38.6025 28.8989L39.382 29.3803C39.519 29.4663 39.6833 29.4951 39.8412 29.4679L45.4337 28.4573C45.7892 28.3919 46.0234 28.0524 45.9598 27.6977C45.8959 27.343 45.5676 27.1093 45.201 27.1716L39.8556 28.1385L39.2658 27.7742C34.6475 25.1773 32.2307 28.1075 32.2163 28.1234C31.5403 28.9229 31.5419 29.6084 31.6599 30.0436C31.7952 30.5349 32.1303 30.9005 32.471 31.1654C32.3089 31.3035 32.1507 31.4518 32.0186 31.6457C31.7901 31.9807 31.6553 32.3858 31.5917 32.7918C27.7608 35.8507 24.5523 35.8428 20.6465 34.8102C20.2981 34.7225 19.9395 34.9266 19.8478 35.274C19.7553 35.6232 19.9633 35.9803 20.3116 36.0728C21.8507 36.4809 23.3207 36.7423 24.7754 36.7423C27.1129 36.7423 29.4134 36.0496 31.8995 34.2052C31.9472 34.2661 31.9662 34.3435 32.0251 34.3972C32.334 34.6785 33.1354 35.5642 33.959 36.4938C33.0787 36.4761 32.4761 36.7614 32.0841 37.0819C31.2552 37.7562 30.957 38.979 31.3429 40.1267C31.3864 40.2575 31.4657 40.3787 31.5231 40.5059C30.9752 40.6736 30.3293 40.9892 29.9384 41.5998C29.6562 42.0414 29.4123 42.8034 29.8571 43.932C30.9539 46.7219 34.4786 47.9908 34.5886 48.0291C34.603 48.0338 35.9134 48.595 36.9831 49.2167C37.0867 49.2773 37.1999 49.3061 37.3115 49.3061C37.5362 49.3061 37.7547 49.1897 37.8758 48.9809C38.0575 48.6685 37.9507 48.2699 37.6398 48.0882C36.4983 47.425 35.1576 46.8512 35.0621 46.8129C35.0318 46.8018 31.9534 45.6954 31.0718 43.454C30.8773 42.9613 30.8662 42.5741 31.0367 42.3062C31.2801 41.9226 31.8767 41.7389 32.2758 41.6649C32.8143 42.2746 33.5242 42.8353 34.442 43.3298C35.3841 43.8415 36.4427 44.2034 37.5905 44.4091C38.5167 44.5749 39.9722 44.9112 41.6461 45.5761C41.7589 45.6207 41.8607 45.6381 41.9696 45.673C42.0396 45.7283 42.6847 46.2896 41.7593 47.8319C41.2827 48.5556 40.6323 49.4309 40.4361 49.5712C39.639 50.0176 33.1347 51.5911 32.2786 51.4236C32.1957 51.4092 24.0662 50.0255 19.502 48.9223C17.2861 48.3869 15.0628 48.2947 12.8781 48.5981V29.2072C16.4754 27.4312 26.2624 14.8157 27.1389 13.1483C28.0013 11.5094 29.6242 6.60091 30.5934 3.66756L30.9409 2.61862C31.0669 2.244 31.3937 1.99688 31.8098 2.04077C32.6387 2.11567 33.7961 2.52619 34.5582 3.45396C35.3154 4.37696 35.6103 5.68185 35.435 7.33189C35.0907 10.5601 33.9747 13.3253 33.2366 15.1546C33.0676 15.5715 32.9209 15.9389 32.8061 16.2506L32.6977 16.5416C31.9628 18.5239 31.2039 20.5733 31.9548 22.6984C32.0473 22.9574 32.1526 23.2197 32.2721 23.4835C32.3677 23.6954 32.5686 23.8406 32.7997 23.8644L37.5823 24.3602C41.2887 24.7444 44.9076 25.681 48.2905 27.1214C49.0937 27.5407 50.1938 28.1146 49.2516 31.0575Z"
          />
    <path d="M4.77518 35.2822H8.10306C8.46336 35.2822 8.7558 34.989 8.7558 34.6287V30.5842C8.7558 30.2239 8.46324 29.9307 8.10306 29.9307H4.77518C4.41488 29.9307 4.12244 30.2239 4.12244 30.5842V34.6287C4.12244 34.9889 4.41488 35.2822 4.77518 35.2822ZM5.42792 31.2377H7.4502V33.975H5.42792V31.2377Z"
          />
</svg>
