<svg   viewBox="0 0 46 46"  xmlns="http://www.w3.org/2000/svg">
<path fill-rule="evenodd" clip-rule="evenodd" d="M35.9525 26.7478C36.3667 26.7478 36.7025 27.0836 36.7025 27.4978V28.2009C36.7025 30.107 38.2651 31.6697 40.1712 31.6697H44.39C44.8042 31.6697 45.14 32.0055 45.14 32.4197C45.14 32.8339 44.8042 33.1697 44.39 33.1697H40.1712C37.4367 33.1697 35.2025 30.9355 35.2025 28.2009V27.4978C35.2025 27.0836 35.5382 26.7478 35.9525 26.7478Z" />
<path fill-rule="evenodd" clip-rule="evenodd" d="M28.2181 15.4978C28.6323 15.4978 28.9681 15.8336 28.9681 16.2478V18.3572C28.9681 18.7714 28.6323 19.1072 28.2181 19.1072C27.8039 19.1072 27.4681 18.7714 27.4681 18.3572V16.2478C27.4681 15.8336 27.8039 15.4978 28.2181 15.4978Z" />
<path fill-rule="evenodd" clip-rule="evenodd" d="M10.5931 18.3572C10.5931 17.943 10.9289 17.6072 11.3431 17.6072H45.0931C45.5073 17.6072 45.8431 17.943 45.8431 18.3572C45.8431 18.7714 45.5073 19.1072 45.0931 19.1072H11.3431C10.9289 19.1072 10.5931 18.7714 10.5931 18.3572Z" />
<path fill-rule="evenodd" clip-rule="evenodd" d="M5.71808 21.2166C3.81198 21.2166 2.24933 22.7792 2.24933 24.6853C2.24933 26.5914 3.81198 28.1541 5.71808 28.1541C6.99697 28.1541 8.14998 27.4542 8.71871 26.4304C8.85099 26.1923 9.10195 26.0447 9.37433 26.0447H13.4351C13.4467 26.0444 13.4584 26.0444 13.4699 26.0447H16.9681C17.3823 26.0447 17.7181 26.3805 17.7181 26.7947C17.7181 27.2089 17.3823 27.5447 16.9681 27.5447H14.5003L16.3464 32.964C17.4405 36.3749 20.6634 38.7009 24.2806 38.7009H38.0618C41.5148 38.7009 44.3431 35.8727 44.3431 32.4197C44.3431 32.1376 44.2428 31.8192 44.0856 31.6226C44.0836 31.6201 44.0816 31.6176 44.0796 31.6151C44.0768 31.6114 44.074 31.6077 44.0712 31.6041L42.1728 29.0728C39.7832 25.8867 36.0679 24.0291 32.0853 24.0291H31.0306C30.7798 24.0291 30.5456 23.9037 30.4065 23.6951L29.2229 21.9197H27.2132L26.0296 23.6951C25.8905 23.9037 25.6563 24.0291 25.4056 24.0291H9.72589C9.41715 24.0291 9.13996 23.8399 9.02746 23.5524C8.49541 22.1927 7.20645 21.2166 5.71808 21.2166ZM12.9156 27.5447H9.79008C8.89901 28.8327 7.37315 29.6541 5.71808 29.6541C2.98355 29.6541 0.749329 27.4198 0.749329 24.6853C0.749329 21.9508 2.98355 19.7166 5.71808 19.7166C7.69796 19.7166 9.375 20.8964 10.2098 22.5291H25.0042L26.1878 20.7537C26.3269 20.545 26.5611 20.4197 26.8118 20.4197H29.6243C29.8751 20.4197 30.1093 20.545 30.2484 20.7537L31.432 22.5291H32.0853C36.5401 22.5291 40.6999 24.6089 43.3728 28.1728L45.2649 30.6957C45.6645 31.2009 45.8431 31.8617 45.8431 32.4197C45.8431 36.7011 42.3432 40.2009 38.0618 40.2009H24.2806C20.025 40.2009 16.2186 37.4674 14.9201 33.4287L12.9156 27.5447Z" />
<path fill-rule="evenodd" clip-rule="evenodd" d="M45.6234 41.03C45.9163 41.3229 45.9163 41.7977 45.6234 42.0906L44.85 42.8641C43.3682 44.3458 41.4174 45.1228 39.3275 45.1228H14.8587C14.4445 45.1228 14.1087 44.787 14.1087 44.3728C14.1087 43.9586 14.4445 43.6228 14.8587 43.6228H39.3275C41.0344 43.6228 42.5992 42.9935 43.7893 41.8034L44.5627 41.03C44.8556 40.7371 45.3305 40.7371 45.6234 41.03Z" />
<path fill-rule="evenodd" clip-rule="evenodd" d="M26.8587 38.7009V42.3103H25.3587V38.7009H26.8587Z" />
<path fill-rule="evenodd" clip-rule="evenodd" d="M35.9993 38.7009V42.3103H34.4993V38.7009H35.9993Z" />
<path fill-rule="evenodd" clip-rule="evenodd" d="M26.1087 26.7478C26.5229 26.7478 26.8587 27.0836 26.8587 27.4978V33.1228C26.8587 33.537 26.5229 33.8728 26.1087 33.8728C25.6945 33.8728 25.3587 33.537 25.3587 33.1228V27.4978C25.3587 27.0836 25.6945 26.7478 26.1087 26.7478Z" />
<path fill-rule="evenodd" clip-rule="evenodd" d="M22.5462 30.3103C22.5462 29.8961 22.882 29.5603 23.2962 29.5603H28.9212C29.3354 29.5603 29.6712 29.8961 29.6712 30.3103C29.6712 30.7245 29.3354 31.0603 28.9212 31.0603H23.2962C22.882 31.0603 22.5462 30.7245 22.5462 30.3103Z" />
<path fill-rule="evenodd" clip-rule="evenodd" d="M14.8118 9.21655C14.8118 8.80234 15.1476 8.46655 15.5618 8.46655H18.3743C18.7885 8.46655 19.1243 8.80234 19.1243 9.21655C19.1243 9.63077 18.7885 9.96655 18.3743 9.96655H15.5618C15.1476 9.96655 14.8118 9.63077 14.8118 9.21655Z" />
<path fill-rule="evenodd" clip-rule="evenodd" d="M27.5131 8.46655C27.8597 5.61841 30.1684 3.54468 33.14 3.54468C35.3657 3.54468 37.1648 4.70716 38.1047 6.45321C38.3107 6.39734 38.5347 6.35718 38.765 6.35718C40.1138 6.35718 41.21 7.23494 41.5297 8.46655H42.2806C42.6948 8.46655 43.0306 8.80234 43.0306 9.21655C43.0306 9.63077 42.6948 9.96655 42.2806 9.96655H40.8743C40.4601 9.96655 40.1243 9.63077 40.1243 9.21655C40.1243 8.43545 39.5461 7.85718 38.765 7.85718C38.5846 7.85718 38.3724 7.93134 37.9888 8.08478C37.8025 8.1593 37.5941 8.15607 37.4102 8.0758C37.2263 7.99554 37.0823 7.84493 37.0103 7.65766C36.4156 6.11162 35.0013 5.04468 33.14 5.04468C30.7417 5.04468 28.9681 6.81827 28.9681 9.21655C28.9681 9.63077 28.6323 9.96655 28.2181 9.96655H21.89C21.4757 9.96655 21.14 9.63077 21.14 9.21655C21.14 8.80234 21.4757 8.46655 21.89 8.46655H27.5131Z" />
<path fill-rule="evenodd" clip-rule="evenodd" d="M12.7661 3.54468C13.1133 1.52842 14.8415 0.0290527 16.9681 0.0290527C19.351 0.0290527 21.2337 1.91171 21.2337 4.29468C21.2337 4.70889 20.8979 5.04468 20.4837 5.04468C20.0695 5.04468 19.7337 4.70889 19.7337 4.29468C19.7337 2.74014 18.5226 1.52905 16.9681 1.52905C15.4135 1.52905 14.2025 2.74014 14.2025 4.29468C14.2025 4.70889 13.8667 5.04468 13.4525 5.04468H7.82745C7.41324 5.04468 7.07745 4.70889 7.07745 4.29468C7.07745 3.88046 7.41324 3.54468 7.82745 3.54468H12.7661Z" />
</svg>
