<svg   viewBox="0 0 47 46"  xmlns="http://www.w3.org/2000/svg">
<path fill-rule="evenodd" clip-rule="evenodd" d="M35.9972 37.281C34.0063 37.281 32.3924 38.8949 32.3924 40.8858C32.3924 42.8767 34.0063 44.4907 35.9972 44.4907C37.9881 44.4907 39.6021 42.8767 39.6021 40.8858C39.6021 38.8949 37.9881 37.281 35.9972 37.281ZM30.8924 40.8858C30.8924 38.0665 33.1779 35.781 35.9972 35.781C38.8165 35.781 41.1021 38.0665 41.1021 40.8858C41.1021 43.7052 38.8165 45.9907 35.9972 45.9907C33.1779 45.9907 30.8924 43.7052 30.8924 40.8858Z" />
<path fill-rule="evenodd" clip-rule="evenodd" d="M11.3198 37.281C9.32891 37.281 7.71497 38.8949 7.71497 40.8858C7.71497 42.8767 9.32891 44.4907 11.3198 44.4907C13.3107 44.4907 14.9246 42.8767 14.9246 40.8858C14.9246 38.8949 13.3107 37.281 11.3198 37.281ZM6.21497 40.8858C6.21497 38.0665 8.50048 35.781 11.3198 35.781C14.1391 35.781 16.4246 38.0665 16.4246 40.8858C16.4246 43.7052 14.1391 45.9907 11.3198 45.9907C8.50048 45.9907 6.21497 43.7052 6.21497 40.8858Z" />
<path fill-rule="evenodd" clip-rule="evenodd" d="M29.465 18.3618C29.8792 18.3618 30.215 18.6976 30.215 19.1118V22.7408C30.215 23.9234 31.1856 24.8941 32.3682 24.8941H37.4488C37.863 24.8941 38.1988 25.2299 38.1988 25.6441C38.1988 26.0583 37.863 26.3941 37.4488 26.3941H32.3682C30.3572 26.3941 28.715 24.7518 28.715 22.7408V19.1118C28.715 18.6976 29.0508 18.3618 29.465 18.3618Z" />
<path fill-rule="evenodd" clip-rule="evenodd" d="M0.408508 16.9342C0.408508 14.9232 2.05075 13.281 4.06173 13.281H30.1908C32.6808 13.281 35.0822 14.4844 36.6018 16.563C36.6021 16.5634 36.6025 16.5639 36.6028 16.5643L45.1653 28.1746L45.1655 28.1748C46.2673 29.6701 46.9085 31.4204 46.9085 33.3375V38.7084C46.9085 40.7194 45.2663 42.3617 43.2553 42.3617H41.0779C40.6637 42.3617 40.3279 42.0259 40.3279 41.6117C40.3279 41.1974 40.6637 40.8617 41.0779 40.8617H43.2553C44.4378 40.8617 45.4085 39.891 45.4085 38.7084V33.3375C45.4085 31.7706 44.8884 30.3274 43.9579 29.0646L35.3936 17.452L35.3917 17.4493C34.1532 15.7545 32.2003 14.781 30.1908 14.781H4.06173C2.87917 14.781 1.90851 15.7517 1.90851 16.9342V38.7084C1.90851 39.891 2.87917 40.8617 4.06173 40.8617H6.96496C7.37917 40.8617 7.71496 41.1974 7.71496 41.6117C7.71496 42.0259 7.37917 42.3617 6.96496 42.3617H4.06173C2.05075 42.3617 0.408508 40.7194 0.408508 38.7084V16.9342Z" />
<path fill-rule="evenodd" clip-rule="evenodd" d="M14.9247 41.6118C14.9247 41.1976 15.2604 40.8618 15.6747 40.8618H31.6424C32.0566 40.8618 32.3924 41.1976 32.3924 41.6118C32.3924 42.026 32.0566 42.3618 31.6424 42.3618H15.6747C15.2604 42.3618 14.9247 42.026 14.9247 41.6118Z" />
<path fill-rule="evenodd" clip-rule="evenodd" d="M19.3037 8.24878C17.7484 8.24878 16.4246 9.51949 16.4246 11.1278V11.8536H14.9246V11.1278C14.9246 8.67162 16.9395 6.74878 19.3037 6.74878C21.7598 6.74878 23.6827 8.76371 23.6827 11.1278V11.8536H22.1827V11.1278C22.1827 9.57256 20.912 8.24878 19.3037 8.24878Z" />
<path fill-rule="evenodd" clip-rule="evenodd" d="M19.3037 0.942383C19.7179 0.942383 20.0537 1.27817 20.0537 1.69238V4.59561C20.0537 5.00982 19.7179 5.34561 19.3037 5.34561C18.8895 5.34561 18.5537 5.00982 18.5537 4.59561V1.69238C18.5537 1.27817 18.8895 0.942383 19.3037 0.942383Z" />
<path fill-rule="evenodd" clip-rule="evenodd" d="M9.96994 6.357C10.1997 6.01236 10.6654 5.91923 11.01 6.14899L13.1874 7.6006C13.5321 7.83037 13.6252 8.29602 13.3954 8.64067C13.1657 8.98531 12.7 9.07844 12.3554 8.84868L10.178 7.39707C9.83331 7.1673 9.74018 6.70165 9.96994 6.357Z" />
<path fill-rule="evenodd" clip-rule="evenodd" d="M28.6374 6.357C28.8671 6.70165 28.774 7.1673 28.4294 7.39707L26.252 8.84868C25.9073 9.07844 25.4417 8.98531 25.2119 8.64067C24.9821 8.29602 25.0753 7.83037 25.4199 7.6006L27.5973 6.14899C27.942 5.91923 28.4076 6.01236 28.6374 6.357Z" />
<path fill-rule="evenodd" clip-rule="evenodd" d="M12.7472 19.1118C12.7472 18.6976 13.083 18.3618 13.4972 18.3618H17.8521C18.2663 18.3618 18.6021 18.6976 18.6021 19.1118V22.7167H22.2069C22.6211 22.7167 22.9569 23.0524 22.9569 23.4667V27.8215C22.9569 28.2357 22.6211 28.5715 22.2069 28.5715H18.6021V32.1763C18.6021 32.5905 18.2663 32.9263 17.8521 32.9263H13.4972C13.083 32.9263 12.7472 32.5905 12.7472 32.1763V28.5715H9.1424C8.72818 28.5715 8.3924 28.2357 8.3924 27.8215V23.4667C8.3924 23.0524 8.72818 22.7167 9.1424 22.7167H12.7472V19.1118ZM14.2472 19.8618V23.4667C14.2472 23.8809 13.9114 24.2167 13.4972 24.2167H9.8924V27.0715H13.4972C13.9114 27.0715 14.2472 27.4073 14.2472 27.8215V31.4263H17.1021V27.8215C17.1021 27.4073 17.4379 27.0715 17.8521 27.0715H21.4569V24.2167H17.8521C17.4379 24.2167 17.1021 23.8809 17.1021 23.4667V19.8618H14.2472Z" />
</svg>
